notebooks/Oscilloscope data CRI electronics analogy/AWG 7V full sinc f 0-4 caps 1000 33/Channel 1 total voltage.csv

#timebase=-1863462912(ps)
,#voltbase=2000000(uV)
#size=4064
1.00000E-03,0.000
2.00000E-03,0.000
3.00000E-03,-0.080
4.00000E-03,0.080
5.00000E-03,-0.080
6.00000E-03,-0.080
7.00000E-03,0.080
8.00000E-03,-0.080
9.00000E-03,0.000
1.00000E-02,-0.080
1.10000E-02,0.080
1.20000E-02,0.080
1.30000E-02,0.000
1.40000E-02,-0.080
1.50000E-02,0.000
1.60000E-02,0.000
1.70000E-02,0.000
1.80000E-02,0.080
1.90000E-02,0.000
2.00000E-02,0.080
2.10000E-02,0.000
2.20000E-02,-0.080
2.30000E-02,0.000
2.40000E-02,0.000
2.50000E-02,0.080
2.60000E-02,-0.080
2.70000E-02,-0.160
2.80000E-02,0.080
2.90000E-02,0.080
3.00000E-02,0.000
3.10000E-02,0.000
3.20000E-02,0.000
3.30000E-02,-0.080
3.40000E-02,-0.080
3.50000E-02,0.080
3.60000E-02,0.080
3.70000E-02,0.000
3.80000E-02,-0.080
3.90000E-02,0.000
4.00000E-02,-0.080
4.10000E-02,0.080
4.20000E-02,0.000
4.30000E-02,0.000
4.40000E-02,-0.080
4.50000E-02,-0.080
4.60000E-02,0.000
4.70000E-02,0.000
4.80000E-02,-0.080
4.90000E-02,0.000
5.00000E-02,0.080
5.10000E-02,-0.080
5.20000E-02,0.080
5.30000E-02,0.000
5.40000E-02,0.000
5.50000E-02,0.000
5.60000E-02,0.080
5.70000E-02,0.000
5.80000E-02,0.000
5.90000E-02,-0.080
6.00000E-02,0.000
6.10000E-02,0.000
6.20000E-02,-0.080
6.30000E-02,0.080
6.40000E-02,0.080
6.50000E-02,0.000
6.60000E-02,0.080
6.70000E-02,0.000
6.80000E-02,-0.080
6.90000E-02,-0.080
7.00000E-02,0.080
7.10000E-02,0.080
7.20000E-02,0.000
7.30000E-02,0.000
7.40000E-02,0.000
7.50000E-02,-0.080
7.60000E-02,0.000
7.70000E-02,0.080
7.80000E-02,-0.080
7.90000E-02,0.080
8.00000E-02,0.000
8.10000E-02,0.000
8.20000E-02,-0.080
8.30000E-02,0.000
8.40000E-02,-0.080
8.50000E-02,-0.080
8.60000E-02,0.000
8.70000E-02,-0.080
8.80000E-02,0.080
8.90000E-02,0.000
9.00000E-02,0.000
9.10000E-02,0.000
9.20000E-02,-0.080
9.30000E-02,-0.080
9.40000E-02,-0.080
9.50000E-02,0.080
9.60000E-02,0.000
9.70000E-02,0.000
9.80000E-02,0.000
9.90000E-02,-0.080
1.00000E-01,0.000
1.01000E-01,-0.080
1.02000E-01,-0.080
1.03000E-01,0.000
1.04000E-01,0.000
1.05000E-01,-0.080
1.06000E-01,-0.080
1.07000E-01,-0.080
1.08000E-01,-0.080
1.09000E-01,0.080
1.10000E-01,0.080
1.11000E-01,0.000
1.12000E-01,0.000
1.13000E-01,0.000
1.14000E-01,-0.080
1.15000E-01,-0.080
1.16000E-01,0.000
1.17000E-01,0.000
1.18000E-01,-0.080
1.19000E-01,0.080
1.20000E-01,0.000
1.21000E-01,0.000
1.22000E-01,0.000
1.23000E-01,0.000
1.24000E-01,0.000
1.25000E-01,0.000
1.26000E-01,-0.080
1.27000E-01,-0.080
1.28000E-01,0.080
1.29000E-01,-0.080
1.30000E-01,-0.160
1.31000E-01,-0.160
1.32000E-01,-0.160
1.33000E-01,0.080
1.34000E-01,0.000
1.35000E-01,0.000
1.36000E-01,0.000
1.37000E-01,0.000
1.38000E-01,0.080
1.39000E-01,-0.080
1.40000E-01,-0.080
1.41000E-01,0.000
1.42000E-01,0.000
1.43000E-01,-0.080
1.44000E-01,-0.080
1.45000E-01,-0.080
1.46000E-01,0.080
1.47000E-01,-0.080
1.48000E-01,0.000
1.49000E-01,-0.080
1.50000E-01,0.000
1.51000E-01,0.080
1.52000E-01,0.000
1.53000E-01,-0.160
1.54000E-01,-0.160
1.55000E-01,-0.160
1.56000E-01,0.080
1.57000E-01,0.000
1.58000E-01,0.000
1.59000E-01,0.000
1.60000E-01,0.000
1.61000E-01,0.000
1.62000E-01,0.000
1.63000E-01,-0.080
1.64000E-01,0.000
1.65000E-01,0.000
1.66000E-01,-0.080
1.67000E-01,0.000
1.68000E-01,-0.080
1.69000E-01,0.000
1.70000E-01,0.000
1.71000E-01,0.000
1.72000E-01,-0.080
1.73000E-01,0.080
1.74000E-01,0.000
1.75000E-01,-0.080
1.76000E-01,0.080
1.77000E-01,0.000
1.78000E-01,-0.080
1.79000E-01,0.000
1.80000E-01,0.000
1.81000E-01,0.000
1.82000E-01,0.000
1.83000E-01,-0.080
1.84000E-01,-0.080
1.85000E-01,-0.080
1.86000E-01,-0.080
1.87000E-01,0.000
1.88000E-01,0.000
1.89000E-01,0.000
1.90000E-01,0.080
1.91000E-01,0.000
1.92000E-01,0.000
1.93000E-01,-0.080
1.94000E-01,0.000
1.95000E-01,-0.160
1.96000E-01,-0.080
1.97000E-01,0.080
1.98000E-01,0.000
1.99000E-01,0.000
2.00000E-01,0.000
2.01000E-01,-0.080
2.02000E-01,0.000
2.03000E-01,0.080
2.04000E-01,0.000
2.05000E-01,-0.160
2.06000E-01,-0.080
2.07000E-01,-0.080
2.08000E-01,0.000
2.09000E-01,0.000
2.10000E-01,0.000
2.11000E-01,0.000
2.12000E-01,0.000
2.13000E-01,0.000
2.14000E-01,0.080
2.15000E-01,0.000
2.16000E-01,-0.080
2.17000E-01,-0.080
2.18000E-01,-0.080
2.19000E-01,-0.080
2.20000E-01,-0.080
2.21000E-01,0.080
2.22000E-01,0.080
2.23000E-01,-0.080
2.24000E-01,-0.080
2.25000E-01,0.000
2.26000E-01,0.000
2.27000E-01,-0.080
2.28000E-01,0.080
2.29000E-01,0.000
2.30000E-01,-0.080
2.31000E-01,0.000
2.32000E-01,-0.080
2.33000E-01,-0.080
2.34000E-01,-0.080
2.35000E-01,0.000
2.36000E-01,0.000
2.37000E-01,0.000
2.38000E-01,-0.080
2.39000E-01,0.080
2.40000E-01,0.000
2.41000E-01,-0.080
2.42000E-01,0.080
2.43000E-01,-0.080
2.44000E-01,0.000
2.45000E-01,0.000
2.46000E-01,-0.160
2.47000E-01,-0.080
2.48000E-01,-0.080
2.49000E-01,-0.080
2.50000E-01,0.000
2.51000E-01,0.000
2.52000E-01,0.000
2.53000E-01,0.000
2.54000E-01,-0.080
2.55000E-01,0.080
2.56000E-01,-0.080
2.57000E-01,0.000
2.58000E-01,0.000
2.59000E-01,-0.080
2.60000E-01,0.080
2.61000E-01,0.000
2.62000E-01,-0.080
2.63000E-01,0.000
2.64000E-01,0.000
2.65000E-01,0.000
2.66000E-01,-0.080
2.67000E-01,0.080
2.68000E-01,-0.080
2.69000E-01,0.080
2.70000E-01,0.000
2.71000E-01,0.080
2.72000E-01,-0.080
2.73000E-01,-0.080
2.74000E-01,0.000
2.75000E-01,0.080
2.76000E-01,-0.080
2.77000E-01,0.080
2.78000E-01,-0.080
2.79000E-01,-0.160
2.80000E-01,0.080
2.81000E-01,-0.080
2.82000E-01,0.000
2.83000E-01,0.000
2.84000E-01,-0.080
2.85000E-01,0.080
2.86000E-01,0.000
2.87000E-01,0.080
2.88000E-01,0.000
2.89000E-01,0.000
2.90000E-01,0.080
2.91000E-01,0.080
2.92000E-01,-0.080
2.93000E-01,0.000
2.94000E-01,0.000
2.95000E-01,-0.080
2.96000E-01,0.000
2.97000E-01,-0.080
2.98000E-01,0.000
2.99000E-01,0.000
3.00000E-01,0.000
3.01000E-01,-0.080
3.02000E-01,-0.080
3.03000E-01,0.000
3.04000E-01,0.000
3.05000E-01,-0.080
3.06000E-01,0.000
3.07000E-01,0.000
3.08000E-01,-0.160
3.09000E-01,0.080
3.10000E-01,0.000
3.11000E-01,0.000
3.12000E-01,0.000
3.13000E-01,0.000
3.14000E-01,0.000
3.15000E-01,0.000
3.16000E-01,0.000
3.17000E-01,0.000
3.18000E-01,0.000
3.19000E-01,0.000
3.20000E-01,0.080
3.21000E-01,-0.080
3.22000E-01,-0.080
3.23000E-01,0.000
3.24000E-01,-0.080
3.25000E-01,0.000
3.26000E-01,-0.080
3.27000E-01,-0.080
3.28000E-01,-0.160
3.29000E-01,0.080
3.30000E-01,-0.080
3.31000E-01,0.000
3.32000E-01,0.000
3.33000E-01,-0.080
3.34000E-01,-0.080
3.35000E-01,0.080
3.36000E-01,0.080
3.37000E-01,0.000
3.38000E-01,0.080
3.39000E-01,0.000
3.40000E-01,-0.080
3.41000E-01,-0.160
3.42000E-01,-0.080
3.43000E-01,0.000
3.44000E-01,0.000
3.45000E-01,-0.080
3.46000E-01,0.080
3.47000E-01,-0.080
3.48000E-01,0.000
3.49000E-01,0.000
3.50000E-01,0.000
3.51000E-01,0.080
3.52000E-01,-0.080
3.53000E-01,0.000
3.54000E-01,0.000
3.55000E-01,0.080
3.56000E-01,0.080
3.57000E-01,0.000
3.58000E-01,0.080
3.59000E-01,-0.080
3.60000E-01,0.000
3.61000E-01,0.000
3.62000E-01,-0.080
3.63000E-01,0.000
3.64000E-01,0.000
3.65000E-01,0.000
3.66000E-01,0.000
3.67000E-01,0.000
3.68000E-01,0.000
3.69000E-01,-0.160
3.70000E-01,-0.080
3.71000E-01,-0.080
3.72000E-01,-0.080
3.73000E-01,0.080
3.74000E-01,0.000
3.75000E-01,0.000
3.76000E-01,0.000
3.77000E-01,0.000
3.78000E-01,0.000
3.79000E-01,0.000
3.80000E-01,-0.080
3.81000E-01,0.080
3.82000E-01,0.000
3.83000E-01,0.080
3.84000E-01,0.080
3.85000E-01,0.000
3.86000E-01,0.000
3.87000E-01,0.000
3.88000E-01,0.000
3.89000E-01,0.000
3.90000E-01,0.000
3.91000E-01,0.080
3.92000E-01,0.080
3.93000E-01,-0.080
3.94000E-01,0.080
3.95000E-01,0.000
3.96000E-01,0.080
3.97000E-01,-0.080
3.98000E-01,0.000
3.99000E-01,0.000
4.00000E-01,0.080
4.01000E-01,0.000
4.02000E-01,0.080
4.03000E-01,0.000
4.04000E-01,0.080
4.05000E-01,0.000
4.06000E-01,0.080
4.07000E-01,0.000
4.08000E-01,0.000
4.09000E-01,-0.080
4.10000E-01,0.000
4.11000E-01,0.000
4.12000E-01,0.000
4.13000E-01,0.000
4.14000E-01,0.000
4.15000E-01,0.000
4.16000E-01,0.000
4.17000E-01,0.000
4.18000E-01,-0.080
4.19000E-01,-0.160
4.20000E-01,-0.080
4.21000E-01,-0.160
4.22000E-01,0.000
4.23000E-01,-0.080
4.24000E-01,0.000
4.25000E-01,-0.080
4.26000E-01,0.000
4.27000E-01,0.000
4.28000E-01,0.000
4.29000E-01,0.080
4.30000E-01,0.080
4.31000E-01,0.000
4.32000E-01,0.080
4.33000E-01,0.080
4.34000E-01,-0.080
4.35000E-01,0.000
4.36000E-01,0.080
4.37000E-01,0.000
4.38000E-01,-0.080
4.39000E-01,-0.160
4.40000E-01,-0.080
4.41000E-01,-0.160
4.42000E-01,0.080
4.43000E-01,-0.080
4.44000E-01,-0.080
4.45000E-01,0.000
4.46000E-01,-0.080
4.47000E-01,0.000
4.48000E-01,-0.080
4.49000E-01,0.000
4.50000E-01,0.000
4.51000E-01,0.080
4.52000E-01,0.000
4.53000E-01,0.080
4.54000E-01,0.000
4.55000E-01,0.000
4.56000E-01,0.080
4.57000E-01,0.000
4.58000E-01,0.000
4.59000E-01,0.000
4.60000E-01,0.000
4.61000E-01,-0.080
4.62000E-01,0.000
4.63000E-01,0.000
4.64000E-01,0.000
4.65000E-01,0.000
4.66000E-01,0.000
4.67000E-01,0.080
4.68000E-01,0.000
4.69000E-01,-0.080
4.70000E-01,-0.080
4.71000E-01,0.000
4.72000E-01,0.080
4.73000E-01,0.000
4.74000E-01,0.000
4.75000E-01,0.000
4.76000E-01,0.000
4.77000E-01,0.000
4.78000E-01,0.000
4.79000E-01,-0.080
4.80000E-01,-0.080
4.81000E-01,0.000
4.82000E-01,0.000
4.83000E-01,0.000
4.84000E-01,0.000
4.85000E-01,0.000
4.86000E-01,0.080
4.87000E-01,0.080
4.88000E-01,-0.080
4.89000E-01,0.000
4.90000E-01,0.000
4.91000E-01,0.000
4.92000E-01,0.000
4.93000E-01,0.000
4.94000E-01,0.080
4.95000E-01,0.080
4.96000E-01,0.000
4.97000E-01,-0.080
4.98000E-01,0.080
4.99000E-01,0.000
5.00000E-01,0.000
5.01000E-01,-0.080
5.02000E-01,0.000
5.03000E-01,0.080
5.04000E-01,-0.080
5.05000E-01,0.000
5.06000E-01,0.000
5.07000E-01,0.080
5.08000E-01,0.080
5.09000E-01,0.000
5.10000E-01,0.080
5.11000E-01,0.000
5.12000E-01,0.000
5.13000E-01,0.000
5.14000E-01,-0.080
5.15000E-01,0.000
5.16000E-01,-0.080
5.17000E-01,-0.080
5.18000E-01,0.000
5.19000E-01,0.000
5.20000E-01,0.000
5.21000E-01,0.000
5.22000E-01,0.000
5.23000E-01,-0.080
5.24000E-01,-0.160
5.25000E-01,0.080
5.26000E-01,0.000
5.27000E-01,0.000
5.28000E-01,0.000
5.29000E-01,0.000
5.30000E-01,0.000
5.31000E-01,-0.080
5.32000E-01,0.000
5.33000E-01,0.000
5.34000E-01,0.080
5.35000E-01,0.000
5.36000E-01,0.080
5.37000E-01,0.000
5.38000E-01,0.000
5.39000E-01,0.000
5.40000E-01,-0.080
5.41000E-01,0.000
5.42000E-01,-0.080
5.43000E-01,0.000
5.44000E-01,0.080
5.45000E-01,0.000
5.46000E-01,-0.080
5.47000E-01,0.000
5.48000E-01,0.000
5.49000E-01,0.000
5.50000E-01,0.000
5.51000E-01,0.000
5.52000E-01,0.000
5.53000E-01,0.000
5.54000E-01,-0.160
5.55000E-01,0.080
5.56000E-01,0.080
5.57000E-01,0.000
5.58000E-01,-0.080
5.59000E-01,-0.080
5.60000E-01,0.000
5.61000E-01,0.080
5.62000E-01,0.000
5.63000E-01,-0.160
5.64000E-01,-0.080
5.65000E-01,0.080
5.66000E-01,0.080
5.67000E-01,-0.080
5.68000E-01,-0.080
5.69000E-01,-0.080
5.70000E-01,0.000
5.71000E-01,0.000
5.72000E-01,-0.080
5.73000E-01,0.000
5.74000E-01,-0.080
5.75000E-01,0.000
5.76000E-01,-0.080
5.77000E-01,0.000
5.78000E-01,0.000
5.79000E-01,0.000
5.80000E-01,0.080
5.81000E-01,0.000
5.82000E-01,0.000
5.83000E-01,0.000
5.84000E-01,0.000
5.85000E-01,0.000
5.86000E-01,0.000
5.87000E-01,0.000
5.88000E-01,0.080
5.89000E-01,-0.080
5.90000E-01,-0.160
5.91000E-01,-0.080
5.92000E-01,-0.160
5.93000E-01,-0.160
5.94000E-01,-0.160
5.95000E-01,-0.160
5.96000E-01,-0.080
5.97000E-01,-0.160
5.98000E-01,-0.240
5.99000E-01,-0.080
6.00000E-01,-0.080
6.01000E-01,-0.160
6.02000E-01,-0.240
6.03000E-01,-0.080
6.04000E-01,-0.240
6.05000E-01,-0.160
6.06000E-01,-0.240
6.07000E-01,-0.320
6.08000E-01,-0.240
6.09000E-01,-0.240
6.10000E-01,-0.320
6.11000E-01,-0.160
6.12000E-01,-0.320
6.13000E-01,-0.320
6.14000E-01,-0.320
6.15000E-01,-0.160
6.16000E-01,-0.240
6.17000E-01,-0.320
6.18000E-01,-0.240
6.19000E-01,-0.240
6.20000E-01,-0.400
6.21000E-01,-0.240
6.22000E-01,-0.240
6.23000E-01,-0.240
6.24000E-01,-0.400
6.25000E-01,-0.400
6.26000E-01,-0.400
6.27000E-01,-0.400
6.28000E-01,-0.400
6.29000E-01,-0.400
6.30000E-01,-0.240
6.31000E-01,-0.320
6.32000E-01,-0.320
6.33000E-01,-0.400
6.34000E-01,-0.320
6.35000E-01,-0.320
6.36000E-01,-0.320
6.37000E-01,-0.400
6.38000E-01,-0.320
6.39000E-01,-0.320
6.40000E-01,-0.320
6.41000E-01,-0.400
6.42000E-01,-0.400
6.43000E-01,-0.240
6.44000E-01,-0.400
6.45000E-01,-0.480
6.46000E-01,-0.400
6.47000E-01,-0.400
6.48000E-01,-0.400
6.49000E-01,-0.400
6.50000E-01,-0.400
6.51000E-01,-0.400
6.52000E-01,-0.400
6.53000E-01,-0.320
6.54000E-01,-0.400
6.55000E-01,-0.480
6.56000E-01,-0.400
6.57000E-01,-0.400
6.58000E-01,-0.480
6.59000E-01,-0.400
6.60000E-01,-0.400
6.61000E-01,-0.320
6.62000E-01,-0.400
6.63000E-01,-0.480
6.64000E-01,-0.560
6.65000E-01,-0.560
6.66000E-01,-0.400
6.67000E-01,-0.400
6.68000E-01,-0.480
6.69000E-01,-0.560
6.70000E-01,-0.560
6.71000E-01,-0.480
6.72000E-01,-0.480
6.73000E-01,-0.480
6.74000E-01,-0.480
6.75000E-01,-0.480
6.76000E-01,-0.560
6.77000E-01,-0.480
6.78000E-01,-0.480
6.79000E-01,-0.400
6.80000E-01,-0.480
6.81000E-01,-0.480
6.82000E-01,-0.560
6.83000E-01,-0.480
6.84000E-01,-0.400
6.85000E-01,-0.480
6.86000E-01,-0.560
6.87000E-01,-0.480
6.88000E-01,-0.480
6.89000E-01,-0.400
6.90000E-01,-0.480
6.91000E-01,-0.480
6.92000E-01,-0.480
6.93000E-01,-0.480
6.94000E-01,-0.480
6.95000E-01,-0.560
6.96000E-01,-0.480
6.97000E-01,-0.480
6.98000E-01,-0.480
6.99000E-01,-0.480
7.00000E-01,-0.480
7.01000E-01,-0.480
7.02000E-01,-0.480
7.03000E-01,-0.480
7.04000E-01,-0.480
7.05000E-01,-0.320
7.06000E-01,-0.480
7.07000E-01,-0.480
7.08000E-01,-0.400
7.09000E-01,-0.480
7.10000E-01,-0.480
7.11000E-01,-0.400
7.12000E-01,-0.480
7.13000E-01,-0.480
7.14000E-01,-0.480
7.15000E-01,-0.480
7.16000E-01,-0.560
7.17000E-01,-0.560
7.18000E-01,-0.480
7.19000E-01,-0.560
7.20000E-01,-0.480
7.21000E-01,-0.400
7.22000E-01,-0.480
7.23000E-01,-0.560
7.24000E-01,-0.400
7.25000E-01,-0.480
7.26000E-01,-0.400
7.27000E-01,-0.480
7.28000E-01,-0.400
7.29000E-01,-0.480
7.30000E-01,-0.560
7.31000E-01,-0.480
7.32000E-01,-0.320
7.33000E-01,-0.480
7.34000E-01,-0.400
7.35000E-01,-0.480
7.36000E-01,-0.480
7.37000E-01,-0.400
7.38000E-01,-0.400
7.39000E-01,-0.400
7.40000E-01,-0.400
7.41000E-01,-0.400
7.42000E-01,-0.320
7.43000E-01,-0.400
7.44000E-01,-0.320
7.45000E-01,-0.400
7.46000E-01,-0.480
7.47000E-01,-0.400
7.48000E-01,-0.480
7.49000E-01,-0.320
7.50000E-01,-0.320
7.51000E-01,-0.320
7.52000E-01,-0.400
7.53000E-01,-0.320
7.54000E-01,-0.400
7.55000E-01,-0.240
7.56000E-01,-0.320
7.57000E-01,-0.400
7.58000E-01,-0.320
7.59000E-01,-0.240
7.60000E-01,-0.320
7.61000E-01,-0.240
7.62000E-01,-0.320
7.63000E-01,-0.320
7.64000E-01,-0.400
7.65000E-01,-0.320
7.66000E-01,-0.320
7.67000E-01,-0.320
7.68000E-01,-0.400
7.69000E-01,-0.320
7.70000E-01,-0.400
7.71000E-01,-0.160
7.72000E-01,-0.240
7.73000E-01,-0.240
7.74000E-01,-0.320
7.75000E-01,-0.240
7.76000E-01,-0.160
7.77000E-01,-0.240
7.78000E-01,-0.320
7.79000E-01,-0.320
7.80000E-01,-0.160
7.81000E-01,-0.240
7.82000E-01,-0.160
7.83000E-01,-0.160
7.84000E-01,-0.160
7.85000E-01,-0.320
7.86000E-01,-0.240
7.87000E-01,-0.320
7.88000E-01,-0.240
7.89000E-01,-0.320
7.90000E-01,-0.080
7.91000E-01,-0.160
7.92000E-01,-0.160
7.93000E-01,-0.080
7.94000E-01,-0.080
7.95000E-01,-0.160
7.96000E-01,-0.080
7.97000E-01,-0.160
7.98000E-01,-0.160
7.99000E-01,-0.080
8.00000E-01,-0.080
8.01000E-01,-0.160
8.02000E-01,-0.080
8.03000E-01,-0.160
8.04000E-01,-0.160
8.05000E-01,0.000
8.06000E-01,0.000
8.07000E-01,-0.080
8.08000E-01,0.000
8.09000E-01,-0.080
8.10000E-01,-0.080
8.11000E-01,0.000
8.12000E-01,0.000
8.13000E-01,0.000
8.14000E-01,0.000
8.15000E-01,0.000
8.16000E-01,0.080
8.17000E-01,0.000
8.18000E-01,0.000
8.19000E-01,0.000
8.20000E-01,0.000
8.21000E-01,0.000
8.22000E-01,0.080
8.23000E-01,0.000
8.24000E-01,0.000
8.25000E-01,0.000
8.26000E-01,0.000
8.27000E-01,0.000
8.28000E-01,0.000
8.29000E-01,0.000
8.30000E-01,0.000
8.31000E-01,0.000
8.32000E-01,0.000
8.33000E-01,0.000
8.34000E-01,0.000
8.35000E-01,0.080
8.36000E-01,0.080
8.37000E-01,0.080
8.38000E-01,0.080
8.39000E-01,0.080
8.40000E-01,0.080
8.41000E-01,0.080
8.42000E-01,0.000
8.43000E-01,0.160
8.44000E-01,0.080
8.45000E-01,0.160
8.46000E-01,0.080
8.47000E-01,0.080
8.48000E-01,0.080
8.49000E-01,0.160
8.50000E-01,0.080
8.51000E-01,0.160
8.52000E-01,0.240
8.53000E-01,0.080
8.54000E-01,0.080
8.55000E-01,0.160
8.56000E-01,0.080
8.57000E-01,0.080
8.58000E-01,0.160
8.59000E-01,0.080
8.60000E-01,0.160
8.61000E-01,0.160
8.62000E-01,0.080
8.63000E-01,0.240
8.64000E-01,0.080
8.65000E-01,0.240
8.66000E-01,0.320
8.67000E-01,0.160
8.68000E-01,0.240
8.69000E-01,0.240
8.70000E-01,0.240
8.71000E-01,0.240
8.72000E-01,0.320
8.73000E-01,0.160
8.74000E-01,0.240
8.75000E-01,0.240
8.76000E-01,0.320
8.77000E-01,0.320
8.78000E-01,0.160
8.79000E-01,0.240
8.80000E-01,0.320
8.81000E-01,0.320
8.82000E-01,0.320
8.83000E-01,0.400
8.84000E-01,0.320
8.85000E-01,0.400
8.86000E-01,0.240
8.87000E-01,0.240
8.88000E-01,0.320
8.89000E-01,0.320
8.90000E-01,0.400
8.91000E-01,0.400
8.92000E-01,0.400
8.93000E-01,0.400
8.94000E-01,0.400
8.95000E-01,0.400
8.96000E-01,0.400
8.97000E-01,0.400
8.98000E-01,0.400
8.99000E-01,0.400
9.00000E-01,0.240
9.01000E-01,0.160
9.02000E-01,0.320
9.03000E-01,0.400
9.04000E-01,0.160
9.05000E-01,0.320
9.06000E-01,0.320
9.07000E-01,0.320
9.08000E-01,0.320
9.09000E-01,0.320
9.10000E-01,0.320
9.11000E-01,0.400
9.12000E-01,0.320
9.13000E-01,0.160
9.14000E-01,0.320
9.15000E-01,0.400
9.16000E-01,0.240
9.17000E-01,0.320
9.18000E-01,0.400
9.19000E-01,0.320
9.20000E-01,0.240
9.21000E-01,0.320
9.22000E-01,0.400
9.23000E-01,0.320
9.24000E-01,0.320
9.25000E-01,0.240
9.26000E-01,0.320
9.27000E-01,0.320
9.28000E-01,0.240
9.29000E-01,0.240
9.30000E-01,0.240
9.31000E-01,0.240
9.32000E-01,0.320
9.33000E-01,0.320
9.34000E-01,0.320
9.35000E-01,0.240
9.36000E-01,0.240
9.37000E-01,0.240
9.38000E-01,0.240
9.39000E-01,0.240
9.40000E-01,0.240
9.41000E-01,0.320
9.42000E-01,0.320
9.43000E-01,0.160
9.44000E-01,0.160
9.45000E-01,0.160
9.46000E-01,0.240
9.47000E-01,0.240
9.48000E-01,0.320
9.49000E-01,0.160
9.50000E-01,0.160
9.51000E-01,0.240
9.52000E-01,0.240
9.53000E-01,0.320
9.54000E-01,0.160
9.55000E-01,0.080
9.56000E-01,0.080
9.57000E-01,0.160
9.58000E-01,0.240
9.59000E-01,0.240
9.60000E-01,0.240
9.61000E-01,0.240
9.62000E-01,0.080
9.63000E-01,0.080
9.64000E-01,0.160
9.65000E-01,0.160
9.66000E-01,0.160
9.67000E-01,0.080
9.68000E-01,0.000
9.69000E-01,0.000
9.70000E-01,0.080
9.71000E-01,0.000
9.72000E-01,0.080
9.73000E-01,0.000
9.74000E-01,0.080
9.75000E-01,0.080
9.76000E-01,0.000
9.77000E-01,0.080
9.78000E-01,0.000
9.79000E-01,0.080
9.80000E-01,0.080
9.81000E-01,0.000
9.82000E-01,-0.080
9.83000E-01,0.080
9.84000E-01,0.000
9.85000E-01,0.000
9.86000E-01,0.000
9.87000E-01,0.000
9.88000E-01,0.080
9.89000E-01,0.000
9.90000E-01,0.080
9.91000E-01,0.000
9.92000E-01,0.080
9.93000E-01,0.080
9.94000E-01,-0.080
9.95000E-01,0.000
9.96000E-01,-0.080
9.97000E-01,0.000
9.98000E-01,-0.160
9.99000E-01,-0.080
1.00000E+00,0.000
1.00100E+00,-0.080
1.00200E+00,0.000
1.00300E+00,-0.160
1.00400E+00,-0.080
1.00500E+00,-0.080
1.00600E+00,-0.080
1.00700E+00,-0.080
1.00800E+00,-0.160
1.00900E+00,-0.080
1.01000E+00,-0.080
1.01100E+00,-0.160
1.01200E+00,-0.080
1.01300E+00,-0.160
1.01400E+00,-0.080
1.01500E+00,-0.160
1.01600E+00,-0.320
1.01700E+00,-0.320
1.01800E+00,-0.160
1.01900E+00,-0.160
1.02000E+00,-0.320
1.02100E+00,-0.240
1.02200E+00,-0.400
1.02300E+00,-0.320
1.02400E+00,-0.160
1.02500E+00,-0.320
1.02600E+00,-0.320
1.02700E+00,-0.320
1.02800E+00,-0.320
1.02900E+00,-0.320
1.03000E+00,-0.400
1.03100E+00,-0.320
1.03200E+00,-0.240
1.03300E+00,-0.240
1.03400E+00,-0.320
1.03500E+00,-0.240
1.03600E+00,-0.240
1.03700E+00,-0.400
1.03800E+00,-0.400
1.03900E+00,-0.320
1.04000E+00,-0.240
1.04100E+00,-0.320
1.04200E+00,-0.320
1.04300E+00,-0.400
1.04400E+00,-0.400
1.04500E+00,-0.320
1.04600E+00,-0.480
1.04700E+00,-0.400
1.04800E+00,-0.400
1.04900E+00,-0.560
1.05000E+00,-0.400
1.05100E+00,-0.400
1.05200E+00,-0.480
1.05300E+00,-0.400
1.05400E+00,-0.480
1.05500E+00,-0.480
1.05600E+00,-0.480
1.05700E+00,-0.560
1.05800E+00,-0.480
1.05900E+00,-0.480
1.06000E+00,-0.400
1.06100E+00,-0.560
1.06200E+00,-0.640
1.06300E+00,-0.560
1.06400E+00,-0.640
1.06500E+00,-0.560
1.06600E+00,-0.640
1.06700E+00,-0.560
1.06800E+00,-0.640
1.06900E+00,-0.560
1.07000E+00,-0.720
1.07100E+00,-0.560
1.07200E+00,-0.720
1.07300E+00,-0.640
1.07400E+00,-0.560
1.07500E+00,-0.720
1.07600E+00,-0.640
1.07700E+00,-0.640
1.07800E+00,-0.640
1.07900E+00,-0.640
1.08000E+00,-0.640
