notebooks/Oscilloscope data CRI electronics analogy/AWG 7V full sinc 2 cap double f/Channel 2 voltage shunt resistor.csv

#timebase=568041472(ps)
,#voltbase=2000000(uV)
#size=4064
2.00000E-03,-0.004
4.00000E-03,0.000
6.00000E-03,-0.004
8.00000E-03,0.002
1.00000E-02,-0.002
1.20000E-02,-0.002
1.40000E-02,0.000
1.60000E-02,-0.004
1.80000E-02,-0.002
2.00000E-02,0.000
2.20000E-02,0.000
2.40000E-02,-0.008
2.60000E-02,-0.006
2.80000E-02,0.000
3.00000E-02,0.002
3.20000E-02,-0.004
3.40000E-02,-0.002
3.60000E-02,0.002
3.80000E-02,0.000
4.00000E-02,0.000
4.20000E-02,0.016
4.40000E-02,0.000
4.60000E-02,-0.004
4.80000E-02,0.000
5.00000E-02,0.000
5.20000E-02,0.000
5.40000E-02,0.000
5.60000E-02,0.000
5.80000E-02,-0.002
6.00000E-02,-0.002
6.20000E-02,0.000
6.40000E-02,0.000
6.60000E-02,-0.002
6.80000E-02,0.004
7.00000E-02,0.002
7.20000E-02,0.002
7.40000E-02,0.006
7.60000E-02,0.000
7.80000E-02,-0.002
8.00000E-02,-0.002
8.20000E-02,-0.002
8.40000E-02,0.002
8.60000E-02,-0.006
8.80000E-02,-0.002
9.00000E-02,-0.002
9.20000E-02,0.000
9.40000E-02,0.002
9.60000E-02,-0.006
9.80000E-02,0.002
1.00000E-01,0.000
1.02000E-01,-0.002
1.04000E-01,0.000
1.06000E-01,-0.002
1.08000E-01,0.000
1.10000E-01,-0.004
1.12000E-01,-0.002
1.14000E-01,0.006
1.16000E-01,0.002
1.18000E-01,-0.002
1.20000E-01,-0.002
1.22000E-01,0.000
1.24000E-01,0.000
1.26000E-01,0.000
1.28000E-01,0.004
1.30000E-01,0.000
1.32000E-01,0.000
1.34000E-01,0.006
1.36000E-01,0.000
1.38000E-01,0.000
1.40000E-01,-0.012
1.42000E-01,0.002
1.44000E-01,-0.006
1.46000E-01,-0.004
1.48000E-01,0.000
1.50000E-01,-0.002
1.52000E-01,0.000
1.54000E-01,0.002
1.56000E-01,0.000
1.58000E-01,0.002
1.60000E-01,0.002
1.62000E-01,-0.004
1.64000E-01,0.018
1.66000E-01,0.000
1.68000E-01,0.002
1.70000E-01,-0.002
1.72000E-01,0.000
1.74000E-01,-0.002
1.76000E-01,0.006
1.78000E-01,-0.002
1.80000E-01,-0.002
1.82000E-01,0.000
1.84000E-01,-0.006
1.86000E-01,-0.004
1.88000E-01,0.000
1.90000E-01,0.000
1.92000E-01,0.002
1.94000E-01,0.002
1.96000E-01,0.006
1.98000E-01,-0.004
2.00000E-01,-0.006
2.02000E-01,-0.002
2.04000E-01,-0.006
2.06000E-01,-0.008
2.08000E-01,0.000
2.10000E-01,0.000
2.12000E-01,0.000
2.14000E-01,0.010
2.16000E-01,0.008
2.18000E-01,0.002
2.20000E-01,0.000
2.22000E-01,-0.004
2.24000E-01,-0.004
2.26000E-01,-0.006
2.28000E-01,0.002
2.30000E-01,-0.004
2.32000E-01,0.002
2.34000E-01,0.004
2.36000E-01,0.008
2.38000E-01,-0.002
2.40000E-01,-0.006
2.42000E-01,-0.004
2.44000E-01,-0.004
2.46000E-01,-0.008
2.48000E-01,-0.002
2.50000E-01,-0.002
2.52000E-01,-0.006
2.54000E-01,0.002
2.56000E-01,0.004
2.58000E-01,0.000
2.60000E-01,0.000
2.62000E-01,0.000
2.64000E-01,-0.002
2.66000E-01,-0.004
2.68000E-01,0.000
2.70000E-01,-0.002
2.72000E-01,-0.002
2.74000E-01,0.002
2.76000E-01,0.002
2.78000E-01,0.020
2.80000E-01,0.016
2.82000E-01,-0.012
2.84000E-01,0.000
2.86000E-01,-0.006
2.88000E-01,0.000
2.90000E-01,0.002
2.92000E-01,-0.002
2.94000E-01,0.002
2.96000E-01,0.000
2.98000E-01,-0.002
3.00000E-01,0.000
3.02000E-01,0.002
3.04000E-01,-0.004
3.06000E-01,0.000
3.08000E-01,0.000
3.10000E-01,0.000
3.12000E-01,0.000
3.14000E-01,0.006
3.16000E-01,0.002
3.18000E-01,-0.002
3.20000E-01,0.002
3.22000E-01,0.000
3.24000E-01,-0.008
3.26000E-01,-0.004
3.28000E-01,-0.002
3.30000E-01,0.000
3.32000E-01,0.000
3.34000E-01,0.002
3.36000E-01,0.006
3.38000E-01,0.000
3.40000E-01,-0.002
3.42000E-01,-0.002
3.44000E-01,-0.004
3.46000E-01,0.000
3.48000E-01,0.000
3.50000E-01,-0.002
3.52000E-01,-0.002
3.54000E-01,0.004
3.56000E-01,0.020
3.58000E-01,-0.002
3.60000E-01,0.000
3.62000E-01,-0.002
3.64000E-01,-0.006
3.66000E-01,-0.006
3.68000E-01,-0.002
3.70000E-01,-0.002
3.72000E-01,0.000
3.74000E-01,0.002
3.76000E-01,0.000
3.78000E-01,-0.014
3.80000E-01,-0.010
3.82000E-01,-0.002
3.84000E-01,-0.004
3.86000E-01,-0.016
3.88000E-01,0.002
3.90000E-01,-0.002
3.92000E-01,-0.002
3.94000E-01,0.000
3.96000E-01,0.002
3.98000E-01,0.000
4.00000E-01,0.000
4.02000E-01,0.000
4.04000E-01,-0.004
4.06000E-01,-0.006
4.08000E-01,0.000
4.10000E-01,-0.002
4.12000E-01,0.000
4.14000E-01,0.006
4.16000E-01,0.004
4.18000E-01,0.000
4.20000E-01,0.000
4.22000E-01,0.000
4.24000E-01,-0.004
4.26000E-01,-0.006
4.28000E-01,0.000
4.30000E-01,0.000
4.32000E-01,0.000
4.34000E-01,0.004
4.36000E-01,0.002
4.38000E-01,-0.002
4.40000E-01,0.000
4.42000E-01,-0.002
4.44000E-01,-0.004
4.46000E-01,-0.002
4.48000E-01,-0.002
4.50000E-01,0.000
4.52000E-01,0.000
4.54000E-01,-0.004
4.56000E-01,0.006
4.58000E-01,0.000
4.60000E-01,-0.006
4.62000E-01,-0.010
4.64000E-01,0.004
4.66000E-01,0.000
4.68000E-01,0.000
4.70000E-01,-0.002
4.72000E-01,-0.002
4.74000E-01,0.004
4.76000E-01,0.002
4.78000E-01,-0.002
4.80000E-01,0.000
4.82000E-01,0.000
4.84000E-01,-0.006
4.86000E-01,-0.006
4.88000E-01,0.010
4.90000E-01,0.006
4.92000E-01,0.004
4.94000E-01,0.000
4.96000E-01,0.000
4.98000E-01,0.000
5.00000E-01,-0.002
5.02000E-01,0.000
5.04000E-01,-0.010
5.06000E-01,0.002
5.08000E-01,-0.002
5.10000E-01,-0.002
5.12000E-01,-0.002
5.14000E-01,-0.002
5.16000E-01,0.006
5.18000E-01,0.000
5.20000E-01,-0.004
5.22000E-01,0.002
5.24000E-01,-0.006
5.26000E-01,-0.002
5.28000E-01,-0.002
5.30000E-01,0.000
5.32000E-01,0.000
5.34000E-01,-0.002
5.36000E-01,0.006
5.38000E-01,0.002
5.40000E-01,-0.002
5.42000E-01,0.000
5.44000E-01,0.000
5.46000E-01,-0.006
5.48000E-01,0.000
5.50000E-01,0.002
5.52000E-01,0.002
5.54000E-01,0.004
5.56000E-01,-0.004
5.58000E-01,-0.002
5.60000E-01,0.002
5.62000E-01,-0.002
5.64000E-01,-0.004
5.66000E-01,-0.004
5.68000E-01,0.000
5.70000E-01,-0.002
5.72000E-01,-0.002
5.74000E-01,0.000
5.76000E-01,0.004
5.78000E-01,0.000
5.80000E-01,-0.002
5.82000E-01,-0.004
5.84000E-01,-0.004
5.86000E-01,-0.006
5.88000E-01,0.000
5.90000E-01,-0.002
5.92000E-01,0.000
5.94000E-01,-0.002
5.96000E-01,0.004
5.98000E-01,-0.004
6.00000E-01,0.002
6.02000E-01,0.002
6.04000E-01,-0.004
6.06000E-01,-0.002
6.08000E-01,0.000
6.10000E-01,0.000
6.12000E-01,0.002
6.14000E-01,0.000
6.16000E-01,-0.006
6.18000E-01,0.002
6.20000E-01,-0.002
6.22000E-01,-0.004
6.24000E-01,-0.006
6.26000E-01,-0.002
6.28000E-01,-0.002
6.30000E-01,0.000
6.32000E-01,0.000
6.34000E-01,-0.010
6.36000E-01,0.006
6.38000E-01,0.000
6.40000E-01,0.000
6.42000E-01,0.000
6.44000E-01,-0.002
6.46000E-01,-0.004
6.48000E-01,0.000
6.50000E-01,0.000
6.52000E-01,0.000
6.54000E-01,0.006
6.56000E-01,0.004
6.58000E-01,0.002
6.60000E-01,0.000
6.62000E-01,-0.002
6.64000E-01,-0.002
6.66000E-01,-0.006
6.68000E-01,-0.002
6.70000E-01,-0.002
6.72000E-01,0.002
6.74000E-01,0.002
6.76000E-01,0.006
6.78000E-01,0.006
6.80000E-01,0.002
6.82000E-01,-0.002
6.84000E-01,-0.002
6.86000E-01,-0.002
6.88000E-01,0.002
6.90000E-01,-0.004
6.92000E-01,-0.012
6.94000E-01,0.006
6.96000E-01,0.004
6.98000E-01,-0.002
7.00000E-01,0.000
7.02000E-01,0.000
7.04000E-01,-0.006
7.06000E-01,-0.006
7.08000E-01,0.000
7.10000E-01,-0.018
7.12000E-01,0.000
7.14000E-01,0.002
7.16000E-01,-0.002
7.18000E-01,-0.004
7.20000E-01,0.000
7.22000E-01,0.002
7.24000E-01,-0.002
7.26000E-01,0.000
7.28000E-01,-0.002
7.30000E-01,-0.002
7.32000E-01,0.000
7.34000E-01,0.002
7.36000E-01,0.006
7.38000E-01,0.004
7.40000E-01,-0.002
7.42000E-01,-0.002
7.44000E-01,0.000
7.46000E-01,-0.004
7.48000E-01,0.000
7.50000E-01,-0.002
7.52000E-01,-0.002
7.54000E-01,0.006
7.56000E-01,-0.002
7.58000E-01,-0.004
7.60000E-01,0.000
7.62000E-01,0.002
7.64000E-01,-0.006
7.66000E-01,-0.004
7.68000E-01,0.002
7.70000E-01,0.004
7.72000E-01,0.002
7.74000E-01,0.004
7.76000E-01,0.006
7.78000E-01,0.004
7.80000E-01,0.000
7.82000E-01,0.000
7.84000E-01,-0.006
7.86000E-01,-0.008
7.88000E-01,-0.002
7.90000E-01,0.000
7.92000E-01,-0.002
7.94000E-01,0.000
7.96000E-01,0.000
7.98000E-01,0.000
8.00000E-01,0.000
8.02000E-01,-0.002
8.04000E-01,-0.004
8.06000E-01,0.002
8.08000E-01,-0.004
8.10000E-01,-0.004
8.12000E-01,-0.004
8.14000E-01,0.000
8.16000E-01,0.006
8.18000E-01,0.000
8.20000E-01,0.002
8.22000E-01,-0.008
8.24000E-01,-0.002
8.26000E-01,-0.018
8.28000E-01,-0.008
8.30000E-01,-0.006
8.32000E-01,-0.002
8.34000E-01,-0.002
8.36000E-01,0.008
8.38000E-01,-0.002
8.40000E-01,-0.002
8.42000E-01,-0.004
8.44000E-01,-0.002
8.46000E-01,-0.002
8.48000E-01,0.002
8.50000E-01,-0.002
8.52000E-01,0.000
8.54000E-01,0.002
8.56000E-01,0.016
8.58000E-01,0.000
8.60000E-01,0.002
8.62000E-01,-0.004
8.64000E-01,-0.006
8.66000E-01,-0.004
8.68000E-01,-0.006
8.70000E-01,-0.002
8.72000E-01,-0.002
8.74000E-01,0.000
8.76000E-01,0.002
8.78000E-01,0.000
8.80000E-01,-0.002
8.82000E-01,-0.002
8.84000E-01,0.000
8.86000E-01,-0.006
8.88000E-01,0.000
8.90000E-01,0.000
8.92000E-01,0.000
8.94000E-01,0.008
8.96000E-01,0.000
8.98000E-01,0.006
9.00000E-01,0.002
9.02000E-01,0.002
9.04000E-01,-0.004
9.06000E-01,-0.002
9.08000E-01,0.000
9.10000E-01,0.000
9.12000E-01,0.000
9.14000E-01,0.004
9.16000E-01,0.008
9.18000E-01,-0.002
9.20000E-01,-0.008
9.22000E-01,-0.006
9.24000E-01,-0.004
9.26000E-01,-0.004
9.28000E-01,0.000
9.30000E-01,-0.002
9.32000E-01,0.000
9.34000E-01,0.002
9.36000E-01,0.004
9.38000E-01,0.004
9.40000E-01,-0.002
9.42000E-01,0.000
9.44000E-01,-0.010
9.46000E-01,-0.002
9.48000E-01,-0.004
9.50000E-01,0.004
9.52000E-01,0.002
9.54000E-01,-0.004
9.56000E-01,0.000
9.58000E-01,-0.004
9.60000E-01,0.000
9.62000E-01,0.000
9.64000E-01,-0.004
9.66000E-01,-0.002
9.68000E-01,0.002
9.70000E-01,0.000
9.72000E-01,-0.004
9.74000E-01,0.000
9.76000E-01,0.000
9.78000E-01,0.000
9.80000E-01,-0.004
9.82000E-01,0.002
9.84000E-01,-0.002
9.86000E-01,0.000
9.88000E-01,-0.002
9.90000E-01,-0.002
9.92000E-01,0.000
9.94000E-01,0.008
9.96000E-01,0.000
9.98000E-01,-0.006
1.00000E+00,-0.004
1.00200E+00,0.002
1.00400E+00,0.000
1.00600E+00,-0.002
1.00800E+00,0.000
1.01000E+00,0.002
1.01200E+00,-0.002
1.01400E+00,0.004
1.01600E+00,0.004
1.01800E+00,0.002
1.02000E+00,-0.002
1.02200E+00,0.000
1.02400E+00,-0.004
1.02600E+00,-0.006
1.02800E+00,0.002
1.03000E+00,0.002
1.03200E+00,-0.004
1.03400E+00,0.004
1.03600E+00,0.004
1.03800E+00,0.002
1.04000E+00,0.000
1.04200E+00,-0.002
1.04400E+00,-0.004
1.04600E+00,-0.002
1.04800E+00,-0.002
1.05000E+00,0.014
1.05200E+00,0.000
1.05400E+00,0.004
1.05600E+00,0.004
1.05800E+00,0.006
1.06000E+00,-0.002
1.06200E+00,0.000
1.06400E+00,-0.002
1.06600E+00,-0.006
1.06800E+00,0.010
1.07000E+00,0.004
1.07200E+00,0.002
1.07400E+00,-0.004
1.07600E+00,0.004
1.07800E+00,-0.002
1.08000E+00,-0.002
1.08200E+00,-0.002
1.08400E+00,-0.002
1.08600E+00,-0.002
1.08800E+00,0.000
1.09000E+00,0.000
1.09200E+00,0.000
1.09400E+00,0.008
1.09600E+00,0.000
1.09800E+00,-0.002
1.10000E+00,0.000
1.10200E+00,0.000
1.10400E+00,0.006
1.10600E+00,-0.004
1.10800E+00,0.000
1.11000E+00,-0.002
1.11200E+00,0.002
1.11400E+00,0.000
1.11600E+00,0.002
1.11800E+00,-0.004
1.12000E+00,0.000
1.12200E+00,0.000
1.12400E+00,0.000
1.12600E+00,0.000
1.12800E+00,0.004
1.13000E+00,0.016
1.13200E+00,-0.004
1.13400E+00,0.002
1.13600E+00,-0.002
1.13800E+00,-0.002
1.14000E+00,0.000
1.14200E+00,0.000
1.14400E+00,-0.002
1.14600E+00,-0.002
1.14800E+00,0.002
1.15000E+00,-0.004
1.15200E+00,-0.002
1.15400E+00,0.000
1.15600E+00,-0.002
1.15800E+00,-0.004
1.16000E+00,0.002
1.16200E+00,0.002
1.16400E+00,0.002
1.16600E+00,0.008
1.16800E+00,0.000
1.17000E+00,0.012
1.17200E+00,0.002
1.17400E+00,0.000
1.17600E+00,0.000
1.17800E+00,0.002
1.18000E+00,0.002
1.18200E+00,0.000
1.18400E+00,0.000
1.18600E+00,-0.008
1.18800E+00,0.002
1.19000E+00,0.002
1.19200E+00,0.002
1.19400E+00,0.002
1.19600E+00,0.002
1.19800E+00,-0.002
1.20000E+00,0.002
1.20200E+00,0.000
1.20400E+00,0.000
1.20600E+00,-0.002
1.20800E+00,0.004
1.21000E+00,0.000
1.21200E+00,-0.002
1.21400E+00,0.000
1.21600E+00,0.002
1.21800E+00,0.000
1.22000E+00,0.000
1.22200E+00,0.000
1.22400E+00,-0.002
1.22600E+00,0.000
1.22800E+00,0.000
1.23000E+00,-0.002
1.23200E+00,0.000
1.23400E+00,0.002
1.23600E+00,0.000
1.23800E+00,0.000
1.24000E+00,0.000
1.24200E+00,0.002
1.24400E+00,0.002
1.24600E+00,0.000
1.24800E+00,0.002
1.25000E+00,0.000
1.25200E+00,0.000
1.25400E+00,0.006
1.25600E+00,-0.012
1.25800E+00,0.020
1.26000E+00,0.012
1.26200E+00,0.004
1.26400E+00,0.022
1.26600E+00,-0.002
1.26800E+00,0.000
1.27000E+00,-0.002
1.27200E+00,0.004
1.27400E+00,0.002
1.27600E+00,0.000
1.27800E+00,-0.004
1.28000E+00,0.000
1.28200E+00,0.000
1.28400E+00,-0.004
1.28600E+00,0.000
1.28800E+00,-0.004
1.29000E+00,0.000
1.29200E+00,0.000
1.29400E+00,-0.002
1.29600E+00,-0.002
1.29800E+00,-0.006
1.30000E+00,0.000
1.30200E+00,-0.010
1.30400E+00,0.002
1.30600E+00,-0.002
1.30800E+00,0.000
1.31000E+00,0.000
1.31200E+00,-0.002
1.31400E+00,-0.002
1.31600E+00,-0.002
1.31800E+00,0.000
1.32000E+00,0.000
1.32200E+00,-0.004
1.32400E+00,-0.002
1.32600E+00,-0.002
1.32800E+00,-0.002
1.33000E+00,0.000
1.33200E+00,0.002
1.33400E+00,0.000
1.33600E+00,0.000
1.33800E+00,0.000
1.34000E+00,0.000
1.34200E+00,0.000
1.34400E+00,0.000
1.34600E+00,-0.006
1.34800E+00,-0.004
1.35000E+00,0.002
1.35200E+00,-0.002
1.35400E+00,-0.002
1.35600E+00,0.000
1.35800E+00,-0.002
1.36000E+00,0.000
1.36200E+00,-0.002
1.36400E+00,0.000
1.36600E+00,0.008
1.36800E+00,0.006
1.37000E+00,0.008
1.37200E+00,-0.004
1.37400E+00,0.000
1.37600E+00,0.000
1.37800E+00,0.002
1.38000E+00,0.000
1.38200E+00,-0.002
1.38400E+00,0.000
1.38600E+00,0.000
1.38800E+00,-0.002
1.39000E+00,0.000
1.39200E+00,0.000
1.39400E+00,0.002
1.39600E+00,0.000
1.39800E+00,0.000
1.40000E+00,-0.002
1.40200E+00,-0.002
1.40400E+00,-0.002
1.40600E+00,-0.004
1.40800E+00,-0.002
1.41000E+00,0.000
1.41200E+00,0.002
1.41400E+00,0.000
1.41600E+00,0.000
1.41800E+00,-0.002
1.42000E+00,0.000
1.42200E+00,0.000
1.42400E+00,-0.006
1.42600E+00,-0.002
1.42800E+00,-0.002
1.43000E+00,-0.002
1.43200E+00,-0.004
1.43400E+00,-0.006
1.43600E+00,-0.004
1.43800E+00,-0.004
1.44000E+00,0.002
1.44200E+00,-0.002
1.44400E+00,-0.004
1.44600E+00,-0.004
1.44800E+00,-0.006
1.45000E+00,-0.002
1.45200E+00,-0.006
1.45400E+00,0.002
1.45600E+00,-0.002
1.45800E+00,-0.006
1.46000E+00,-0.004
1.46200E+00,0.000
1.46400E+00,-0.010
1.46600E+00,-0.002
1.46800E+00,-0.004
1.47000E+00,-0.004
1.47200E+00,-0.004
1.47400E+00,-0.004
1.47600E+00,-0.002
1.47800E+00,-0.002
1.48000E+00,-0.002
1.48200E+00,-0.016
1.48400E+00,-0.008
1.48600E+00,-0.018
1.48800E+00,-0.006
1.49000E+00,-0.006
1.49200E+00,-0.010
1.49400E+00,-0.004
1.49600E+00,0.000
1.49800E+00,0.002
1.50000E+00,0.000
1.50200E+00,-0.006
1.50400E+00,-0.006
1.50600E+00,-0.008
1.50800E+00,-0.006
1.51000E+00,-0.006
1.51200E+00,-0.004
1.51400E+00,-0.004
1.51600E+00,-0.006
1.51800E+00,-0.006
1.52000E+00,-0.006
1.52200E+00,-0.002
1.52400E+00,-0.006
1.52600E+00,-0.008
1.52800E+00,-0.010
1.53000E+00,-0.002
1.53200E+00,-0.006
1.53400E+00,-0.004
1.53600E+00,0.000
1.53800E+00,0.004
1.54000E+00,-0.004
1.54200E+00,-0.006
1.54400E+00,-0.008
1.54600E+00,-0.010
1.54800E+00,-0.006
1.55000E+00,-0.006
1.55200E+00,-0.006
1.55400E+00,-0.004
1.55600E+00,-0.006
1.55800E+00,-0.006
1.56000E+00,-0.006
1.56200E+00,-0.006
1.56400E+00,-0.008
1.56600E+00,-0.008
1.56800E+00,-0.008
1.57000E+00,-0.002
1.57200E+00,-0.006
1.57400E+00,-0.006
1.57600E+00,-0.006
1.57800E+00,-0.002
1.58000E+00,-0.006
1.58200E+00,-0.004
1.58400E+00,-0.010
1.58600E+00,-0.008
1.58800E+00,-0.012
1.59000E+00,-0.004
1.59200E+00,-0.008
1.59400E+00,-0.010
1.59600E+00,-0.006
1.59800E+00,-0.010
1.60000E+00,-0.006
1.60200E+00,-0.006
1.60400E+00,-0.012
1.60600E+00,-0.004
1.60800E+00,-0.006
1.61000E+00,-0.006
1.61200E+00,-0.010
1.61400E+00,-0.002
1.61600E+00,0.002
1.61800E+00,-0.006
1.62000E+00,-0.010
1.62200E+00,-0.008
1.62400E+00,-0.006
1.62600E+00,-0.008
1.62800E+00,-0.010
1.63000E+00,-0.006
1.63200E+00,-0.006
1.63400E+00,-0.004
1.63600E+00,-0.006
1.63800E+00,-0.006
1.64000E+00,-0.002
1.64200E+00,-0.006
1.64400E+00,-0.008
1.64600E+00,-0.010
1.64800E+00,-0.006
1.65000E+00,-0.004
1.65200E+00,-0.006
1.65400E+00,-0.008
1.65600E+00,-0.004
1.65800E+00,-0.002
1.66000E+00,-0.006
1.66200E+00,-0.010
1.66400E+00,-0.010
1.66600E+00,-0.006
1.66800E+00,-0.006
1.67000E+00,-0.008
1.67200E+00,-0.006
1.67400E+00,-0.006
1.67600E+00,-0.004
1.67800E+00,-0.008
1.68000E+00,-0.004
1.68200E+00,-0.006
1.68400E+00,-0.008
1.68600E+00,-0.006
1.68800E+00,-0.008
1.69000E+00,-0.004
1.69200E+00,-0.006
1.69400E+00,-0.002
1.69600E+00,-0.006
1.69800E+00,-0.002
1.70000E+00,-0.004
1.70200E+00,-0.002
1.70400E+00,-0.010
1.70600E+00,-0.002
1.70800E+00,-0.002
1.71000E+00,-0.002
1.71200E+00,-0.002
1.71400E+00,-0.004
1.71600E+00,-0.004
1.71800E+00,0.002
1.72000E+00,0.004
1.72200E+00,-0.002
1.72400E+00,-0.008
1.72600E+00,-0.006
1.72800E+00,0.000
1.73000E+00,-0.006
1.73200E+00,-0.006
1.73400E+00,0.004
1.73600E+00,0.000
1.73800E+00,-0.006
1.74000E+00,-0.004
1.74200E+00,-0.002
1.74400E+00,-0.006
1.74600E+00,-0.004
1.74800E+00,-0.006
1.75000E+00,-0.006
1.75200E+00,-0.004
1.75400E+00,0.000
1.75600E+00,-0.006
1.75800E+00,0.000
1.76000E+00,-0.014
1.76200E+00,-0.004
1.76400E+00,-0.008
1.76600E+00,-0.004
1.76800E+00,-0.002
1.77000E+00,-0.002
1.77200E+00,-0.008
1.77400E+00,0.002
1.77600E+00,-0.002
1.77800E+00,0.000
1.78000E+00,-0.004
1.78200E+00,-0.004
1.78400E+00,-0.004
1.78600E+00,0.000
1.78800E+00,-0.012
1.79000E+00,-0.004
1.79200E+00,-0.006
1.79400E+00,-0.002
1.79600E+00,0.000
1.79800E+00,0.016
1.80000E+00,-0.006
1.80200E+00,0.000
1.80400E+00,-0.002
1.80600E+00,0.000
1.80800E+00,0.000
1.81000E+00,0.000
1.81200E+00,0.002
1.81400E+00,-0.002
1.81600E+00,0.000
1.81800E+00,0.000
1.82000E+00,0.000
1.82200E+00,0.000
1.82400E+00,-0.006
1.82600E+00,0.008
1.82800E+00,0.006
1.83000E+00,0.000
1.83200E+00,-0.002
1.83400E+00,0.002
1.83600E+00,0.000
1.83800E+00,0.000
1.84000E+00,-0.002
1.84200E+00,0.006
1.84400E+00,-0.004
1.84600E+00,0.000
1.84800E+00,0.000
1.85000E+00,0.000
1.85200E+00,0.000
1.85400E+00,0.002
1.85600E+00,0.000
1.85800E+00,0.000
1.86000E+00,0.000
1.86200E+00,0.000
1.86400E+00,0.000
1.86600E+00,-0.002
1.86800E+00,0.000
1.87000E+00,0.004
1.87200E+00,0.004
1.87400E+00,0.002
1.87600E+00,0.002
1.87800E+00,0.002
1.88000E+00,0.002
1.88200E+00,-0.002
1.88400E+00,0.000
1.88600E+00,0.002
1.88800E+00,0.006
1.89000E+00,-0.002
1.89200E+00,0.000
1.89400E+00,0.004
1.89600E+00,0.000
1.89800E+00,0.002
1.90000E+00,0.002
1.90200E+00,0.000
1.90400E+00,0.000
1.90600E+00,0.002
1.90800E+00,0.000
1.91000E+00,0.002
1.91200E+00,0.004
1.91400E+00,0.004
1.91600E+00,0.004
1.91800E+00,-0.006
1.92000E+00,0.010
1.92200E+00,0.002
1.92400E+00,0.012
1.92600E+00,-0.002
1.92800E+00,0.002
1.93000E+00,0.004
1.93200E+00,0.008
1.93400E+00,-0.012
1.93600E+00,0.000
1.93800E+00,0.000
1.94000E+00,0.000
1.94200E+00,0.004
1.94400E+00,0.004
1.94600E+00,0.000
1.94800E+00,0.000
1.95000E+00,0.004
1.95200E+00,0.004
1.95400E+00,0.000
1.95600E+00,0.006
1.95800E+00,0.008
1.96000E+00,0.000
1.96200E+00,0.004
1.96400E+00,0.000
1.96600E+00,0.008
1.96800E+00,0.002
1.97000E+00,0.004
1.97200E+00,0.006
1.97400E+00,-0.004
1.97600E+00,0.006
1.97800E+00,-0.002
1.98000E+00,0.002
1.98200E+00,0.008
1.98400E+00,0.004
1.98600E+00,0.012
1.98800E+00,0.004
1.99000E+00,0.002
1.99200E+00,0.004
1.99400E+00,0.006
1.99600E+00,0.008
1.99800E+00,-0.010
2.00000E+00,0.004
2.00200E+00,0.002
2.00400E+00,0.000
2.00600E+00,0.006
2.00800E+00,0.002
2.01000E+00,0.004
2.01200E+00,0.002
2.01400E+00,0.008
2.01600E+00,0.004
2.01800E+00,0.002
2.02000E+00,0.002
2.02200E+00,0.002
2.02400E+00,-0.004
2.02600E+00,0.006
2.02800E+00,0.002
2.03000E+00,0.002
2.03200E+00,0.002
2.03400E+00,0.002
2.03600E+00,0.006
2.03800E+00,0.006
2.04000E+00,0.012
2.04200E+00,0.008
2.04400E+00,0.004
2.04600E+00,0.000
2.04800E+00,0.006
2.05000E+00,0.004
2.05200E+00,0.004
2.05400E+00,0.008
2.05600E+00,0.004
2.05800E+00,0.002
2.06000E+00,0.008
2.06200E+00,0.004
2.06400E+00,0.000
2.06600E+00,0.004
2.06800E+00,0.006
2.07000E+00,0.000
2.07200E+00,0.004
2.07400E+00,0.006
2.07600E+00,0.004
2.07800E+00,0.004
2.08000E+00,0.004
2.08200E+00,0.006
2.08400E+00,0.004
2.08600E+00,0.004
2.08800E+00,0.002
2.09000E+00,0.004
2.09200E+00,0.008
2.09400E+00,0.010
2.09600E+00,0.000
2.09800E+00,0.004
2.10000E+00,0.002
2.10200E+00,0.002
2.10400E+00,0.002
2.10600E+00,0.004
2.10800E+00,0.006
2.11000E+00,0.004
2.11200E+00,0.000
2.11400E+00,0.008
2.11600E+00,0.002
2.11800E+00,0.002
2.12000E+00,0.004
2.12200E+00,0.006
2.12400E+00,0.002
2.12600E+00,0.002
2.12800E+00,0.002
2.13000E+00,-0.014
2.13200E+00,0.000
2.13400E+00,0.010
2.13600E+00,0.006
2.13800E+00,-0.002
2.14000E+00,0.002
2.14200E+00,0.006
2.14400E+00,0.002
2.14600E+00,0.000
2.14800E+00,0.002
2.15000E+00,0.000
2.15200E+00,0.000
2.15400E+00,-0.002
2.15600E+00,0.002
2.15800E+00,-0.010
2.16000E+00,0.006
2.16200E+00,0.002
