data/Oscilloscope data electronics analogy/AWG 7V half sinc f 6-4 caps 220 2-2/Channel 2 voltage shunt resistor.csv

#timebase=-1474836480(ps)
,#voltbase=2000000(uV)
#size=4064
1.00000E-04,-0.008
2.00000E-04,-0.016
3.00000E-04,-0.020
4.00000E-04,-0.008
5.00000E-04,-0.016
6.00000E-04,-0.012
7.00000E-04,-0.012
8.00000E-04,-0.004
9.00000E-04,0.000
1.00000E-03,-0.008
1.10000E-03,0.000
1.20000E-03,-0.004
1.30000E-03,-0.008
1.40000E-03,0.000
1.50000E-03,-0.004
1.60000E-03,0.000
1.70000E-03,-0.004
1.80000E-03,0.000
1.90000E-03,-0.004
2.00000E-03,-0.004
2.10000E-03,0.000
2.20000E-03,-0.004
2.30000E-03,0.004
2.40000E-03,-0.004
2.50000E-03,0.004
2.60000E-03,0.004
2.70000E-03,0.000
2.80000E-03,0.000
2.90000E-03,0.004
3.00000E-03,0.012
3.10000E-03,-0.004
3.20000E-03,0.004
3.30000E-03,0.008
3.40000E-03,0.012
3.50000E-03,0.008
3.60000E-03,0.004
3.70000E-03,0.012
3.80000E-03,0.012
3.90000E-03,0.008
4.00000E-03,0.012
4.10000E-03,0.016
4.20000E-03,0.012
4.30000E-03,0.012
4.40000E-03,0.016
4.50000E-03,0.016
4.60000E-03,0.016
4.70000E-03,0.016
4.80000E-03,0.016
4.90000E-03,0.020
5.00000E-03,0.016
5.10000E-03,0.020
5.20000E-03,0.016
5.30000E-03,0.020
5.40000E-03,0.016
5.50000E-03,0.020
5.60000E-03,0.024
5.70000E-03,0.020
5.80000E-03,0.020
5.90000E-03,0.020
6.00000E-03,0.020
6.10000E-03,0.020
6.20000E-03,0.020
6.30000E-03,0.020
6.40000E-03,0.020
6.50000E-03,0.020
6.60000E-03,0.020
6.70000E-03,0.028
6.80000E-03,0.024
6.90000E-03,0.020
7.00000E-03,0.020
7.10000E-03,0.028
7.20000E-03,0.020
7.30000E-03,0.028
7.40000E-03,0.028
7.50000E-03,0.024
7.60000E-03,0.024
7.70000E-03,0.028
7.80000E-03,0.024
7.90000E-03,0.024
8.00000E-03,0.024
8.10000E-03,0.024
8.20000E-03,0.020
8.30000E-03,0.024
8.40000E-03,0.024
8.50000E-03,0.028
8.60000E-03,0.024
8.70000E-03,0.016
8.80000E-03,0.024
8.90000E-03,0.024
9.00000E-03,0.028
9.10000E-03,0.060
9.20000E-03,0.028
9.30000E-03,0.024
9.40000E-03,0.028
9.50000E-03,0.028
9.60000E-03,0.024
9.70000E-03,0.028
9.80000E-03,0.024
9.90000E-03,0.028
1.00000E-02,0.028
1.01000E-02,0.024
1.02000E-02,0.024
1.03000E-02,0.032
1.04000E-02,0.024
1.05000E-02,0.008
1.06000E-02,0.024
1.07000E-02,0.024
1.08000E-02,0.028
1.09000E-02,0.020
1.10000E-02,0.020
1.11000E-02,0.020
1.12000E-02,0.020
1.13000E-02,0.020
1.14000E-02,0.024
1.15000E-02,0.024
1.16000E-02,0.020
1.17000E-02,0.024
1.18000E-02,0.028
1.19000E-02,0.020
1.20000E-02,0.020
1.21000E-02,0.024
1.22000E-02,0.020
1.23000E-02,0.024
1.24000E-02,0.016
1.25000E-02,0.016
1.26000E-02,0.020
1.27000E-02,0.016
1.28000E-02,0.016
1.29000E-02,0.020
1.30000E-02,0.016
1.31000E-02,0.016
1.32000E-02,0.020
1.33000E-02,0.016
1.34000E-02,0.016
1.35000E-02,0.020
1.36000E-02,0.016
1.37000E-02,0.020
1.38000E-02,0.020
1.39000E-02,0.012
1.40000E-02,0.012
1.41000E-02,0.012
1.42000E-02,0.012
1.43000E-02,0.004
1.44000E-02,0.008
1.45000E-02,0.012
1.46000E-02,0.008
1.47000E-02,0.012
1.48000E-02,0.008
1.49000E-02,0.004
1.50000E-02,0.004
1.51000E-02,0.008
1.52000E-02,0.008
1.53000E-02,0.004
1.54000E-02,0.000
1.55000E-02,0.004
1.56000E-02,0.004
1.57000E-02,0.000
1.58000E-02,0.008
1.59000E-02,0.000
1.60000E-02,0.004
1.61000E-02,0.008
1.62000E-02,-0.004
1.63000E-02,0.000
1.64000E-02,0.004
1.65000E-02,0.004
1.66000E-02,0.004
1.67000E-02,-0.004
1.68000E-02,0.000
1.69000E-02,0.000
1.70000E-02,0.000
1.71000E-02,0.004
1.72000E-02,0.000
1.73000E-02,-0.004
1.74000E-02,0.000
1.75000E-02,0.004
1.76000E-02,0.004
1.77000E-02,0.000
1.78000E-02,-0.004
1.79000E-02,-0.004
1.80000E-02,0.000
1.81000E-02,-0.004
1.82000E-02,0.000
1.83000E-02,-0.004
1.84000E-02,-0.004
1.85000E-02,0.000
1.86000E-02,-0.012
1.87000E-02,0.000
1.88000E-02,0.000
1.89000E-02,-0.012
1.90000E-02,-0.008
1.91000E-02,-0.008
1.92000E-02,0.020
1.93000E-02,-0.004
1.94000E-02,-0.008
1.95000E-02,-0.012
1.96000E-02,-0.012
1.97000E-02,-0.008
1.98000E-02,-0.004
1.99000E-02,-0.008
2.00000E-02,-0.012
2.01000E-02,-0.016
2.02000E-02,-0.012
2.03000E-02,-0.012
2.04000E-02,-0.012
2.05000E-02,-0.012
2.06000E-02,-0.024
2.07000E-02,-0.024
2.08000E-02,-0.004
2.09000E-02,-0.016
2.10000E-02,-0.016
2.11000E-02,-0.024
2.12000E-02,-0.016
2.13000E-02,-0.020
2.14000E-02,-0.020
2.15000E-02,-0.016
2.16000E-02,-0.020
2.17000E-02,-0.020
2.18000E-02,-0.012
2.19000E-02,-0.016
2.20000E-02,-0.016
2.21000E-02,-0.016
2.22000E-02,-0.020
2.23000E-02,-0.016
2.24000E-02,-0.020
2.25000E-02,-0.016
2.26000E-02,-0.020
2.27000E-02,-0.016
2.28000E-02,-0.016
2.29000E-02,-0.016
2.30000E-02,-0.016
2.31000E-02,-0.016
2.32000E-02,-0.016
2.33000E-02,-0.016
2.34000E-02,-0.020
2.35000E-02,-0.024
2.36000E-02,-0.016
2.37000E-02,-0.024
2.38000E-02,-0.024
2.39000E-02,-0.016
2.40000E-02,-0.020
2.41000E-02,-0.024
2.42000E-02,-0.016
2.43000E-02,-0.020
2.44000E-02,-0.020
2.45000E-02,-0.020
2.46000E-02,-0.024
2.47000E-02,-0.024
2.48000E-02,-0.020
2.49000E-02,-0.016
2.50000E-02,-0.020
2.51000E-02,-0.020
2.52000E-02,-0.016
2.53000E-02,-0.024
2.54000E-02,-0.016
2.55000E-02,-0.016
2.56000E-02,-0.024
2.57000E-02,-0.016
2.58000E-02,-0.016
2.59000E-02,-0.020
2.60000E-02,-0.016
2.61000E-02,-0.020
2.62000E-02,-0.024
2.63000E-02,-0.016
2.64000E-02,-0.020
2.65000E-02,-0.016
2.66000E-02,-0.020
2.67000E-02,-0.024
2.68000E-02,-0.020
2.69000E-02,-0.020
2.70000E-02,-0.016
2.71000E-02,-0.016
2.72000E-02,-0.020
2.73000E-02,-0.016
2.74000E-02,-0.020
2.75000E-02,-0.016
2.76000E-02,-0.020
2.77000E-02,-0.016
2.78000E-02,-0.020
2.79000E-02,-0.016
2.80000E-02,-0.016
2.81000E-02,-0.016
2.82000E-02,-0.020
2.83000E-02,-0.020
2.84000E-02,-0.016
2.85000E-02,-0.016
2.86000E-02,-0.020
2.87000E-02,-0.016
2.88000E-02,-0.012
2.89000E-02,-0.016
2.90000E-02,-0.020
2.91000E-02,-0.016
2.92000E-02,-0.012
2.93000E-02,-0.012
2.94000E-02,-0.012
2.95000E-02,-0.016
2.96000E-02,-0.012
2.97000E-02,-0.012
2.98000E-02,-0.012
2.99000E-02,-0.044
3.00000E-02,-0.012
3.01000E-02,-0.012
3.02000E-02,-0.012
3.03000E-02,-0.016
3.04000E-02,-0.012
3.05000E-02,-0.008
3.06000E-02,-0.008
3.07000E-02,-0.012
3.08000E-02,-0.008
3.09000E-02,-0.004
3.10000E-02,-0.004
3.11000E-02,0.000
3.12000E-02,-0.004
3.13000E-02,-0.008
3.14000E-02,-0.008
3.15000E-02,-0.008
3.16000E-02,-0.004
3.17000E-02,-0.004
3.18000E-02,-0.012
3.19000E-02,-0.012
3.20000E-02,-0.008
3.21000E-02,-0.004
3.22000E-02,-0.004
3.23000E-02,-0.004
3.24000E-02,0.004
3.25000E-02,-0.008
3.26000E-02,-0.008
3.27000E-02,-0.008
3.28000E-02,0.004
3.29000E-02,-0.004
3.30000E-02,-0.004
3.31000E-02,0.000
3.32000E-02,0.004
3.33000E-02,-0.004
3.34000E-02,-0.004
3.35000E-02,0.000
3.36000E-02,-0.004
3.37000E-02,-0.004
3.38000E-02,0.000
3.39000E-02,0.000
3.40000E-02,0.000
3.41000E-02,0.000
3.42000E-02,0.000
3.43000E-02,0.000
3.44000E-02,0.008
3.45000E-02,0.004
3.46000E-02,0.004
3.47000E-02,-0.004
3.48000E-02,0.004
3.49000E-02,0.004
3.50000E-02,0.004
3.51000E-02,0.000
3.52000E-02,0.000
3.53000E-02,0.000
3.54000E-02,0.004
3.55000E-02,0.004
3.56000E-02,0.008
3.57000E-02,0.012
3.58000E-02,0.008
3.59000E-02,0.008
3.60000E-02,0.008
3.61000E-02,0.008
3.62000E-02,0.012
3.63000E-02,0.012
3.64000E-02,0.004
3.65000E-02,0.008
3.66000E-02,0.012
3.67000E-02,0.008
3.68000E-02,0.004
3.69000E-02,0.020
3.70000E-02,0.008
3.71000E-02,0.012
3.72000E-02,0.008
3.73000E-02,0.004
3.74000E-02,0.008
3.75000E-02,0.004
3.76000E-02,0.012
3.77000E-02,0.012
3.78000E-02,0.012
3.79000E-02,0.012
3.80000E-02,0.012
3.81000E-02,0.012
3.82000E-02,0.012
3.83000E-02,0.012
3.84000E-02,0.008
3.85000E-02,0.008
3.86000E-02,0.012
3.87000E-02,0.012
3.88000E-02,0.016
3.89000E-02,0.020
3.90000E-02,0.012
3.91000E-02,0.004
3.92000E-02,0.012
3.93000E-02,0.008
3.94000E-02,0.008
3.95000E-02,0.012
3.96000E-02,0.012
3.97000E-02,0.008
3.98000E-02,0.016
3.99000E-02,0.016
4.00000E-02,0.024
4.01000E-02,0.016
4.02000E-02,0.012
4.03000E-02,0.016
4.04000E-02,0.016
4.05000E-02,0.016
4.06000E-02,0.024
4.07000E-02,0.012
4.08000E-02,-0.012
4.09000E-02,0.012
4.10000E-02,0.012
4.11000E-02,0.012
4.12000E-02,0.016
4.13000E-02,0.012
4.14000E-02,0.008
4.15000E-02,0.012
4.16000E-02,0.012
4.17000E-02,0.012
4.18000E-02,0.012
4.19000E-02,0.012
4.20000E-02,0.008
4.21000E-02,0.012
4.22000E-02,0.016
4.23000E-02,0.012
4.24000E-02,0.004
4.25000E-02,0.012
4.26000E-02,0.012
4.27000E-02,0.008
4.28000E-02,0.012
4.29000E-02,0.016
4.30000E-02,0.016
4.31000E-02,0.008
4.32000E-02,0.012
4.33000E-02,0.012
4.34000E-02,0.008
4.35000E-02,0.012
4.36000E-02,0.004
4.37000E-02,0.004
4.38000E-02,0.012
4.39000E-02,0.012
4.40000E-02,0.012
4.41000E-02,0.004
4.42000E-02,0.004
4.43000E-02,0.008
4.44000E-02,0.012
4.45000E-02,0.004
4.46000E-02,0.008
4.47000E-02,0.008
4.48000E-02,0.012
4.49000E-02,0.008
4.50000E-02,0.008
4.51000E-02,0.004
4.52000E-02,0.004
4.53000E-02,0.004
4.54000E-02,0.012
4.55000E-02,0.008
4.56000E-02,0.008
4.57000E-02,-0.004
4.58000E-02,0.008
4.59000E-02,0.004
4.60000E-02,0.008
4.61000E-02,0.004
4.62000E-02,0.004
4.63000E-02,0.004
4.64000E-02,0.004
4.65000E-02,0.008
4.66000E-02,0.004
4.67000E-02,0.004
4.68000E-02,0.004
4.69000E-02,0.004
4.70000E-02,0.004
4.71000E-02,0.000
4.72000E-02,0.000
4.73000E-02,0.020
4.74000E-02,0.000
4.75000E-02,0.000
4.76000E-02,0.000
4.77000E-02,-0.008
4.78000E-02,0.000
4.79000E-02,0.000
4.80000E-02,0.000
4.81000E-02,0.000
4.82000E-02,-0.004
4.83000E-02,0.000
4.84000E-02,0.004
4.85000E-02,-0.004
4.86000E-02,-0.004
4.87000E-02,0.000
4.88000E-02,0.004
4.89000E-02,-0.004
4.90000E-02,-0.004
4.91000E-02,0.000
4.92000E-02,-0.004
4.93000E-02,-0.004
4.94000E-02,-0.004
4.95000E-02,-0.004
4.96000E-02,0.008
4.97000E-02,-0.004
4.98000E-02,-0.004
4.99000E-02,-0.012
5.00000E-02,0.004
5.01000E-02,-0.004
5.02000E-02,-0.004
5.03000E-02,0.000
5.04000E-02,0.000
5.05000E-02,0.000
5.06000E-02,-0.004
5.07000E-02,0.000
5.08000E-02,-0.004
5.09000E-02,-0.008
5.10000E-02,0.000
5.11000E-02,-0.008
5.12000E-02,-0.004
5.13000E-02,-0.004
5.14000E-02,-0.008
5.15000E-02,-0.012
5.16000E-02,-0.008
5.17000E-02,-0.004
5.18000E-02,-0.004
5.19000E-02,-0.008
5.20000E-02,-0.012
5.21000E-02,0.000
5.22000E-02,-0.008
5.23000E-02,-0.012
5.24000E-02,-0.008
5.25000E-02,-0.004
5.26000E-02,-0.012
5.27000E-02,-0.008
5.28000E-02,-0.008
5.29000E-02,-0.012
5.30000E-02,-0.012
5.31000E-02,-0.012
5.32000E-02,-0.016
5.33000E-02,-0.004
5.34000E-02,-0.012
5.35000E-02,-0.016
5.36000E-02,-0.012
5.37000E-02,-0.016
5.38000E-02,-0.012
5.39000E-02,-0.016
5.40000E-02,-0.012
5.41000E-02,-0.016
5.42000E-02,-0.016
5.43000E-02,-0.012
5.44000E-02,-0.012
5.45000E-02,-0.012
5.46000E-02,-0.016
5.47000E-02,-0.012
5.48000E-02,-0.016
5.49000E-02,-0.020
5.50000E-02,-0.008
5.51000E-02,-0.012
5.52000E-02,-0.012
5.53000E-02,-0.016
5.54000E-02,-0.016
5.55000E-02,-0.012
5.56000E-02,-0.012
5.57000E-02,-0.012
5.58000E-02,-0.012
5.59000E-02,-0.008
5.60000E-02,-0.012
5.61000E-02,-0.016
5.62000E-02,-0.012
5.63000E-02,-0.016
5.64000E-02,-0.016
5.65000E-02,-0.012
5.66000E-02,-0.016
5.67000E-02,-0.012
5.68000E-02,-0.012
5.69000E-02,-0.012
5.70000E-02,-0.012
5.71000E-02,-0.012
5.72000E-02,-0.012
5.73000E-02,-0.012
5.74000E-02,-0.016
5.75000E-02,-0.016
5.76000E-02,-0.012
5.77000E-02,-0.012
5.78000E-02,-0.012
5.79000E-02,-0.008
5.80000E-02,-0.008
5.81000E-02,-0.016
5.82000E-02,-0.016
5.83000E-02,-0.008
5.84000E-02,-0.012
5.85000E-02,-0.012
5.86000E-02,-0.016
5.87000E-02,-0.012
5.88000E-02,-0.012
5.89000E-02,-0.012
5.90000E-02,-0.016
5.91000E-02,-0.020
5.92000E-02,-0.012
5.93000E-02,-0.008
5.94000E-02,-0.004
5.95000E-02,-0.004
5.96000E-02,-0.012
5.97000E-02,-0.012
5.98000E-02,-0.012
5.99000E-02,-0.012
6.00000E-02,-0.004
6.01000E-02,-0.012
6.02000E-02,-0.032
6.03000E-02,-0.008
6.04000E-02,-0.008
6.05000E-02,-0.012
6.06000E-02,-0.016
6.07000E-02,-0.012
6.08000E-02,-0.012
6.09000E-02,-0.008
6.10000E-02,0.000
6.11000E-02,-0.008
6.12000E-02,-0.012
6.13000E-02,-0.004
6.14000E-02,0.000
6.15000E-02,-0.008
6.16000E-02,-0.012
6.17000E-02,-0.004
6.18000E-02,-0.004
6.19000E-02,-0.008
6.20000E-02,-0.004
6.21000E-02,-0.012
6.22000E-02,-0.004
6.23000E-02,-0.004
6.24000E-02,-0.004
6.25000E-02,-0.004
6.26000E-02,0.004
6.27000E-02,-0.008
6.28000E-02,-0.008
6.29000E-02,-0.008
6.30000E-02,0.000
6.31000E-02,-0.004
6.32000E-02,0.000
6.33000E-02,-0.004
6.34000E-02,-0.004
6.35000E-02,0.000
6.36000E-02,0.000
6.37000E-02,-0.004
6.38000E-02,0.004
6.39000E-02,0.004
6.40000E-02,-0.004
6.41000E-02,-0.004
6.42000E-02,0.000
6.43000E-02,0.004
6.44000E-02,0.004
6.45000E-02,-0.004
6.46000E-02,-0.004
6.47000E-02,0.000
6.48000E-02,-0.004
6.49000E-02,0.000
6.50000E-02,0.000
6.51000E-02,0.004
6.52000E-02,0.004
6.53000E-02,0.000
6.54000E-02,0.000
6.55000E-02,-0.004
6.56000E-02,0.000
6.57000E-02,0.000
6.58000E-02,0.000
6.59000E-02,0.000
6.60000E-02,-0.004
6.61000E-02,0.000
6.62000E-02,0.000
6.63000E-02,0.004
6.64000E-02,0.004
6.65000E-02,0.000
6.66000E-02,0.000
6.67000E-02,0.000
6.68000E-02,0.000
6.69000E-02,0.000
6.70000E-02,0.000
6.71000E-02,0.008
6.72000E-02,0.000
6.73000E-02,0.004
6.74000E-02,0.004
6.75000E-02,0.004
6.76000E-02,0.004
6.77000E-02,0.000
6.78000E-02,0.012
6.79000E-02,0.004
6.80000E-02,0.004
6.81000E-02,0.012
6.82000E-02,0.004
6.83000E-02,0.004
6.84000E-02,0.004
6.85000E-02,-0.004
6.86000E-02,0.008
6.87000E-02,0.008
6.88000E-02,0.004
6.89000E-02,0.000
6.90000E-02,0.012
6.91000E-02,0.008
6.92000E-02,0.000
6.93000E-02,0.000
6.94000E-02,0.024
6.95000E-02,0.000
6.96000E-02,0.004
6.97000E-02,0.008
6.98000E-02,0.012
6.99000E-02,0.008
7.00000E-02,0.004
7.01000E-02,0.012
7.02000E-02,0.008
7.03000E-02,0.008
7.04000E-02,-0.004
7.05000E-02,0.008
7.06000E-02,0.004
7.07000E-02,0.012
7.08000E-02,0.008
7.09000E-02,0.000
7.10000E-02,0.004
7.11000E-02,0.032
7.12000E-02,0.004
7.13000E-02,0.008
7.14000E-02,0.008
7.15000E-02,0.008
7.16000E-02,0.000
7.17000E-02,0.008
7.18000E-02,0.008
7.19000E-02,0.012
7.20000E-02,0.004
7.21000E-02,0.000
7.22000E-02,0.008
7.23000E-02,0.008
7.24000E-02,0.012
7.25000E-02,0.008
7.26000E-02,0.012
7.27000E-02,0.012
7.28000E-02,0.004
7.29000E-02,0.008
7.30000E-02,0.004
7.31000E-02,0.008
7.32000E-02,0.008
7.33000E-02,0.012
7.34000E-02,0.008
7.35000E-02,0.008
7.36000E-02,0.008
7.37000E-02,0.012
7.38000E-02,0.012
7.39000E-02,0.004
7.40000E-02,0.000
7.41000E-02,0.008
7.42000E-02,0.012
7.43000E-02,-0.004
7.44000E-02,0.008
7.45000E-02,0.012
7.46000E-02,0.008
7.47000E-02,0.012
7.48000E-02,0.008
7.49000E-02,0.000
7.50000E-02,0.000
7.51000E-02,0.004
7.52000E-02,0.000
7.53000E-02,0.004
7.54000E-02,0.008
7.55000E-02,0.000
7.56000E-02,0.004
7.57000E-02,0.008
7.58000E-02,0.000
7.59000E-02,0.008
7.60000E-02,0.000
7.61000E-02,0.004
7.62000E-02,0.004
7.63000E-02,0.012
7.64000E-02,0.004
7.65000E-02,0.000
7.66000E-02,0.000
7.67000E-02,0.004
7.68000E-02,0.000
7.69000E-02,0.000
7.70000E-02,0.004
7.71000E-02,0.004
7.72000E-02,0.008
7.73000E-02,0.008
7.74000E-02,0.000
7.75000E-02,0.004
7.76000E-02,0.000
7.77000E-02,0.004
7.78000E-02,-0.004
7.79000E-02,0.000
7.80000E-02,0.000
7.81000E-02,0.004
7.82000E-02,0.004
7.83000E-02,0.004
7.84000E-02,0.000
7.85000E-02,0.000
7.86000E-02,0.008
7.87000E-02,0.008
7.88000E-02,-0.016
7.89000E-02,0.000
7.90000E-02,0.000
7.91000E-02,0.000
7.92000E-02,0.040
7.93000E-02,-0.004
7.94000E-02,0.000
7.95000E-02,0.000
7.96000E-02,0.000
7.97000E-02,-0.004
7.98000E-02,0.000
7.99000E-02,0.000
8.00000E-02,0.000
8.01000E-02,0.000
8.02000E-02,-0.004
8.03000E-02,0.000
8.04000E-02,0.000
8.05000E-02,0.000
8.06000E-02,-0.004
8.07000E-02,0.000
8.08000E-02,-0.008
8.09000E-02,-0.004
8.10000E-02,-0.004
8.11000E-02,0.000
8.12000E-02,-0.004
8.13000E-02,0.000
8.14000E-02,-0.004
8.15000E-02,-0.008
8.16000E-02,0.004
8.17000E-02,0.000
8.18000E-02,-0.004
8.19000E-02,-0.004
8.20000E-02,-0.012
8.21000E-02,-0.008
8.22000E-02,0.000
8.23000E-02,-0.008
8.24000E-02,-0.012
8.25000E-02,0.000
8.26000E-02,-0.008
8.27000E-02,-0.008
8.28000E-02,-0.004
8.29000E-02,0.000
8.30000E-02,-0.008
8.31000E-02,-0.004
8.32000E-02,-0.004
8.33000E-02,-0.008
8.34000E-02,-0.008
8.35000E-02,-0.004
8.36000E-02,-0.004
8.37000E-02,-0.008
8.38000E-02,-0.008
8.39000E-02,-0.012
8.40000E-02,-0.008
8.41000E-02,-0.008
8.42000E-02,-0.012
8.43000E-02,-0.008
8.44000E-02,-0.008
8.45000E-02,-0.008
8.46000E-02,-0.012
8.47000E-02,-0.008
8.48000E-02,-0.012
8.49000E-02,-0.012
8.50000E-02,-0.004
8.51000E-02,-0.008
8.52000E-02,-0.008
8.53000E-02,-0.004
8.54000E-02,-0.008
8.55000E-02,-0.008
8.56000E-02,-0.012
8.57000E-02,-0.012
8.58000E-02,-0.004
8.59000E-02,-0.008
8.60000E-02,-0.012
8.61000E-02,-0.016
8.62000E-02,-0.004
8.63000E-02,-0.008
8.64000E-02,-0.004
8.65000E-02,-0.008
8.66000E-02,-0.004
8.67000E-02,-0.004
8.68000E-02,-0.008
8.69000E-02,-0.012
8.70000E-02,-0.004
8.71000E-02,-0.012
8.72000E-02,-0.012
8.73000E-02,-0.004
8.74000E-02,-0.016
8.75000E-02,-0.004
8.76000E-02,-0.004
8.77000E-02,-0.012
8.78000E-02,-0.004
8.79000E-02,-0.008
8.80000E-02,-0.016
8.81000E-02,-0.008
8.82000E-02,-0.004
8.83000E-02,-0.004
8.84000E-02,-0.016
8.85000E-02,-0.012
8.86000E-02,-0.020
8.87000E-02,-0.012
8.88000E-02,-0.008
8.89000E-02,-0.008
8.90000E-02,-0.004
8.91000E-02,-0.004
8.92000E-02,-0.008
8.93000E-02,-0.008
8.94000E-02,-0.012
8.95000E-02,-0.012
8.96000E-02,-0.012
8.97000E-02,-0.004
8.98000E-02,-0.008
8.99000E-02,-0.012
9.00000E-02,-0.012
9.01000E-02,-0.004
9.02000E-02,-0.004
9.03000E-02,-0.008
9.04000E-02,-0.008
9.05000E-02,-0.012
9.06000E-02,-0.008
9.07000E-02,-0.008
9.08000E-02,-0.024
9.09000E-02,-0.008
9.10000E-02,-0.020
9.11000E-02,-0.008
9.12000E-02,-0.008
9.13000E-02,-0.012
9.14000E-02,-0.008
9.15000E-02,-0.004
9.16000E-02,-0.004
9.17000E-02,-0.008
9.18000E-02,-0.008
9.19000E-02,-0.012
9.20000E-02,-0.008
9.21000E-02,-0.004
9.22000E-02,-0.008
9.23000E-02,-0.012
9.24000E-02,-0.008
9.25000E-02,-0.004
9.26000E-02,-0.008
9.27000E-02,0.000
9.28000E-02,-0.004
9.29000E-02,-0.004
9.30000E-02,0.000
9.31000E-02,-0.004
9.32000E-02,-0.004
9.33000E-02,-0.004
9.34000E-02,0.000
9.35000E-02,-0.012
9.36000E-02,-0.004
9.37000E-02,0.000
9.38000E-02,-0.004
9.39000E-02,0.000
9.40000E-02,-0.004
9.41000E-02,-0.004
9.42000E-02,0.000
9.43000E-02,-0.004
9.44000E-02,-0.004
9.45000E-02,0.000
9.46000E-02,0.004
9.47000E-02,-0.004
9.48000E-02,0.000
9.49000E-02,0.000
9.50000E-02,0.000
9.51000E-02,0.000
9.52000E-02,0.004
9.53000E-02,-0.004
9.54000E-02,-0.004
9.55000E-02,0.000
9.56000E-02,0.004
9.57000E-02,-0.004
9.58000E-02,-0.004
9.59000E-02,0.000
9.60000E-02,-0.004
9.61000E-02,-0.004
9.62000E-02,0.000
9.63000E-02,-0.004
9.64000E-02,-0.004
9.65000E-02,0.000
9.66000E-02,0.004
9.67000E-02,0.004
9.68000E-02,0.004
9.69000E-02,0.004
9.70000E-02,-0.012
9.71000E-02,-0.004
9.72000E-02,0.000
9.73000E-02,0.000
9.74000E-02,0.000
9.75000E-02,0.000
9.76000E-02,0.000
9.77000E-02,0.004
9.78000E-02,0.004
9.79000E-02,-0.004
9.80000E-02,0.004
9.81000E-02,0.000
9.82000E-02,0.000
9.83000E-02,0.004
9.84000E-02,0.000
9.85000E-02,-0.004
9.86000E-02,0.000
9.87000E-02,0.000
9.88000E-02,0.000
9.89000E-02,0.004
9.90000E-02,0.008
9.91000E-02,0.000
9.92000E-02,0.004
9.93000E-02,0.008
9.94000E-02,0.004
9.95000E-02,0.000
9.96000E-02,0.000
9.97000E-02,0.004
9.98000E-02,0.004
9.99000E-02,0.004
1.00000E-01,0.004
1.00100E-01,0.028
1.00200E-01,0.000
1.00300E-01,0.000
1.00400E-01,0.008
1.00500E-01,0.008
1.00600E-01,0.000
1.00700E-01,0.004
1.00800E-01,0.004
1.00900E-01,0.020
1.01000E-01,0.004
1.01100E-01,0.004
1.01200E-01,0.004
1.01300E-01,0.000
1.01400E-01,0.004
1.01500E-01,0.004
1.01600E-01,0.004
1.01700E-01,0.004
1.01800E-01,0.004
1.01900E-01,0.008
1.02000E-01,0.000
1.02100E-01,0.004
1.02200E-01,0.012
1.02300E-01,0.008
1.02400E-01,0.008
1.02500E-01,0.000
1.02600E-01,0.000
1.02700E-01,0.004
1.02800E-01,0.012
1.02900E-01,0.008
1.03000E-01,0.004
1.03100E-01,0.004
1.03200E-01,0.008
1.03300E-01,0.008
1.03400E-01,0.004
1.03500E-01,0.004
1.03600E-01,0.004
1.03700E-01,0.004
1.03800E-01,0.000
1.03900E-01,0.004
1.04000E-01,0.000
1.04100E-01,0.004
1.04200E-01,0.004
1.04300E-01,0.004
1.04400E-01,0.004
1.04500E-01,0.008
1.04600E-01,0.008
1.04700E-01,0.012
1.04800E-01,0.012
1.04900E-01,0.008
1.05000E-01,0.000
1.05100E-01,0.004
1.05200E-01,0.012
1.05300E-01,0.004
1.05400E-01,0.000
1.05500E-01,0.004
1.05600E-01,0.004
1.05700E-01,0.004
1.05800E-01,0.012
1.05900E-01,0.004
1.06000E-01,0.004
1.06100E-01,0.000
1.06200E-01,0.008
1.06300E-01,0.008
1.06400E-01,0.008
1.06500E-01,0.008
1.06600E-01,0.000
1.06700E-01,0.000
1.06800E-01,0.008
1.06900E-01,0.008
1.07000E-01,0.000
1.07100E-01,0.000
1.07200E-01,0.004
1.07300E-01,0.004
1.07400E-01,0.004
1.07500E-01,0.004
1.07600E-01,0.004
1.07700E-01,0.000
1.07800E-01,-0.004
1.07900E-01,0.000
1.08000E-01,0.008
1.08100E-01,0.012
1.08200E-01,0.004
