data/Oscilloscope data electronics analogy/GMM Funny f 3 sine amp 3 caps 1000 220/Channel 1 total voltage.csv

#timebase=-1474836480(ps)
,#voltbase=2000000(uV)
#size=4064
1.00000E-04,0.080
2.00000E-04,-0.080
3.00000E-04,-0.080
4.00000E-04,0.080
5.00000E-04,0.000
6.00000E-04,0.000
7.00000E-04,-0.080
8.00000E-04,-0.080
9.00000E-04,0.080
1.00000E-03,0.000
1.10000E-03,0.080
1.20000E-03,-0.080
1.30000E-03,0.080
1.40000E-03,0.080
1.50000E-03,0.000
1.60000E-03,-0.080
1.70000E-03,0.000
1.80000E-03,0.000
1.90000E-03,-0.080
2.00000E-03,0.000
2.10000E-03,0.000
2.20000E-03,0.000
2.30000E-03,0.000
2.40000E-03,-0.080
2.50000E-03,0.000
2.60000E-03,0.080
2.70000E-03,0.080
2.80000E-03,-0.080
2.90000E-03,-0.080
3.00000E-03,0.000
3.10000E-03,0.000
3.20000E-03,0.000
3.30000E-03,0.000
3.40000E-03,-0.080
3.50000E-03,0.000
3.60000E-03,0.000
3.70000E-03,0.000
3.80000E-03,0.000
3.90000E-03,0.000
4.00000E-03,0.080
4.10000E-03,0.000
4.20000E-03,0.000
4.30000E-03,0.000
4.40000E-03,0.000
4.50000E-03,-0.080
4.60000E-03,0.000
4.70000E-03,0.080
4.80000E-03,-0.080
4.90000E-03,0.000
5.00000E-03,0.000
5.10000E-03,0.080
5.20000E-03,0.000
5.30000E-03,0.000
5.40000E-03,0.000
5.50000E-03,0.000
5.60000E-03,0.000
5.70000E-03,0.080
5.80000E-03,0.000
5.90000E-03,0.000
6.00000E-03,0.080
6.10000E-03,-0.080
6.20000E-03,0.000
6.30000E-03,0.000
6.40000E-03,-0.080
6.50000E-03,0.000
6.60000E-03,0.160
6.70000E-03,0.080
6.80000E-03,0.080
6.90000E-03,-0.080
7.00000E-03,0.080
7.10000E-03,0.000
7.20000E-03,0.080
7.30000E-03,0.000
7.40000E-03,0.080
7.50000E-03,0.000
7.60000E-03,0.000
7.70000E-03,0.080
7.80000E-03,0.000
7.90000E-03,-0.080
8.00000E-03,0.080
8.10000E-03,0.080
8.20000E-03,0.080
8.30000E-03,0.000
8.40000E-03,0.000
8.50000E-03,0.080
8.60000E-03,-0.080
8.70000E-03,-0.080
8.80000E-03,0.080
8.90000E-03,0.080
9.00000E-03,0.000
9.10000E-03,0.000
9.20000E-03,0.000
9.30000E-03,0.000
9.40000E-03,0.000
9.50000E-03,0.080
9.60000E-03,0.080
9.70000E-03,0.080
9.80000E-03,0.080
9.90000E-03,-0.080
1.00000E-02,0.080
1.01000E-02,0.000
1.02000E-02,0.000
1.03000E-02,0.080
1.04000E-02,0.000
1.05000E-02,0.080
1.06000E-02,0.000
1.07000E-02,0.160
1.08000E-02,0.080
1.09000E-02,0.000
1.10000E-02,-0.080
1.11000E-02,0.080
1.12000E-02,0.080
1.13000E-02,0.160
1.14000E-02,-0.080
1.15000E-02,-0.080
1.16000E-02,0.000
1.17000E-02,0.000
1.18000E-02,0.000
1.19000E-02,0.000
1.20000E-02,0.000
1.21000E-02,0.000
1.22000E-02,0.000
1.23000E-02,0.080
1.24000E-02,-0.080
1.25000E-02,0.000
1.26000E-02,0.000
1.27000E-02,0.000
1.28000E-02,0.000
1.29000E-02,-0.080
1.30000E-02,0.000
1.31000E-02,-0.080
1.32000E-02,0.000
1.33000E-02,0.000
1.34000E-02,0.000
1.35000E-02,0.000
1.36000E-02,0.000
1.37000E-02,0.000
1.38000E-02,0.000
1.39000E-02,-0.080
1.40000E-02,0.000
1.41000E-02,-0.080
1.42000E-02,0.000
1.43000E-02,0.000
1.44000E-02,0.000
1.45000E-02,0.000
1.46000E-02,0.000
1.47000E-02,0.000
1.48000E-02,0.000
1.49000E-02,0.080
1.50000E-02,0.000
1.51000E-02,0.000
1.52000E-02,-0.080
1.53000E-02,0.000
1.54000E-02,0.000
1.55000E-02,0.000
1.56000E-02,0.080
1.57000E-02,0.000
1.58000E-02,0.000
1.59000E-02,0.080
1.60000E-02,0.000
1.61000E-02,-0.080
1.62000E-02,-0.080
1.63000E-02,0.000
1.64000E-02,-0.080
1.65000E-02,0.000
1.66000E-02,0.000
1.67000E-02,0.000
1.68000E-02,0.000
1.69000E-02,0.000
1.70000E-02,0.000
1.71000E-02,0.000
1.72000E-02,0.000
1.73000E-02,0.080
1.74000E-02,0.000
1.75000E-02,-0.080
1.76000E-02,0.000
1.77000E-02,0.000
1.78000E-02,-0.080
1.79000E-02,-0.080
1.80000E-02,0.000
1.81000E-02,-0.080
1.82000E-02,0.080
1.83000E-02,0.000
1.84000E-02,0.000
1.85000E-02,0.000
1.86000E-02,0.000
1.87000E-02,0.000
1.88000E-02,0.000
1.89000E-02,0.080
1.90000E-02,-0.080
1.91000E-02,0.000
1.92000E-02,0.080
1.93000E-02,0.080
1.94000E-02,0.080
1.95000E-02,0.080
1.96000E-02,0.080
1.97000E-02,-0.080
1.98000E-02,0.000
1.99000E-02,0.080
2.00000E-02,0.000
2.01000E-02,0.000
2.02000E-02,0.000
2.03000E-02,0.080
2.04000E-02,-0.160
2.05000E-02,0.160
2.06000E-02,0.240
2.07000E-02,0.080
2.08000E-02,0.000
2.09000E-02,-0.080
2.10000E-02,0.000
2.11000E-02,0.080
2.12000E-02,-0.080
2.13000E-02,0.000
2.14000E-02,0.000
2.15000E-02,0.080
2.16000E-02,0.080
2.17000E-02,0.160
2.18000E-02,-0.080
2.19000E-02,0.000
2.20000E-02,0.000
2.21000E-02,-0.080
2.22000E-02,0.000
2.23000E-02,0.080
2.24000E-02,0.000
2.25000E-02,-0.080
2.26000E-02,0.000
2.27000E-02,-0.080
2.28000E-02,0.000
2.29000E-02,-0.080
2.30000E-02,0.000
2.31000E-02,0.000
2.32000E-02,0.000
2.33000E-02,0.000
2.34000E-02,-0.080
2.35000E-02,-0.080
2.36000E-02,0.080
2.37000E-02,-0.080
2.38000E-02,0.000
2.39000E-02,0.000
2.40000E-02,0.080
2.41000E-02,0.080
2.42000E-02,0.160
2.43000E-02,-0.080
2.44000E-02,0.000
2.45000E-02,0.000
2.46000E-02,0.000
2.47000E-02,-0.080
2.48000E-02,0.080
2.49000E-02,0.000
2.50000E-02,0.000
2.51000E-02,0.000
2.52000E-02,0.000
2.53000E-02,0.000
2.54000E-02,0.000
2.55000E-02,0.080
2.56000E-02,0.080
2.57000E-02,-0.080
2.58000E-02,0.080
2.59000E-02,0.000
2.60000E-02,0.000
2.61000E-02,0.080
2.62000E-02,0.000
2.63000E-02,0.000
2.64000E-02,0.000
2.65000E-02,0.080
2.66000E-02,0.000
2.67000E-02,0.080
2.68000E-02,0.000
2.69000E-02,0.000
2.70000E-02,0.000
2.71000E-02,0.000
2.72000E-02,0.000
2.73000E-02,0.000
2.74000E-02,0.000
2.75000E-02,-0.080
2.76000E-02,0.000
2.77000E-02,0.080
2.78000E-02,0.000
2.79000E-02,0.000
2.80000E-02,0.000
2.81000E-02,0.000
2.82000E-02,-0.080
2.83000E-02,0.000
2.84000E-02,0.080
2.85000E-02,0.080
2.86000E-02,-0.080
2.87000E-02,0.080
2.88000E-02,0.080
2.89000E-02,0.000
2.90000E-02,0.000
2.91000E-02,-0.080
2.92000E-02,0.000
2.93000E-02,0.080
2.94000E-02,-0.080
2.95000E-02,0.000
2.96000E-02,0.000
2.97000E-02,0.000
2.98000E-02,0.000
2.99000E-02,0.000
3.00000E-02,0.080
3.01000E-02,0.000
3.02000E-02,0.000
3.03000E-02,0.000
3.04000E-02,0.080
3.05000E-02,0.000
3.06000E-02,0.000
3.07000E-02,0.080
3.08000E-02,0.000
3.09000E-02,0.000
3.10000E-02,0.000
3.11000E-02,0.000
3.12000E-02,0.080
3.13000E-02,0.000
3.14000E-02,0.080
3.15000E-02,-0.080
3.16000E-02,0.160
3.17000E-02,0.080
3.18000E-02,0.160
3.19000E-02,-0.080
3.20000E-02,0.000
3.21000E-02,0.000
3.22000E-02,0.000
3.23000E-02,0.000
3.24000E-02,0.000
3.25000E-02,0.000
3.26000E-02,0.000
3.27000E-02,-0.080
3.28000E-02,0.000
3.29000E-02,0.000
3.30000E-02,0.000
3.31000E-02,-0.080
3.32000E-02,0.000
3.33000E-02,-0.080
3.34000E-02,0.000
3.35000E-02,0.000
3.36000E-02,-0.080
3.37000E-02,0.000
3.38000E-02,0.080
3.39000E-02,-0.080
3.40000E-02,0.000
3.41000E-02,0.000
3.42000E-02,0.080
3.43000E-02,0.080
3.44000E-02,-0.080
3.45000E-02,-0.080
3.46000E-02,0.000
3.47000E-02,-0.080
3.48000E-02,0.000
3.49000E-02,0.000
3.50000E-02,0.000
3.51000E-02,-0.080
3.52000E-02,-0.080
3.53000E-02,0.000
3.54000E-02,-0.080
3.55000E-02,0.000
3.56000E-02,-0.080
3.57000E-02,0.080
3.58000E-02,-0.080
3.59000E-02,-0.080
3.60000E-02,0.000
3.61000E-02,0.080
3.62000E-02,0.000
3.63000E-02,0.000
3.64000E-02,0.000
3.65000E-02,0.080
3.66000E-02,-0.080
3.67000E-02,0.000
3.68000E-02,0.000
3.69000E-02,0.080
3.70000E-02,-0.080
3.71000E-02,0.000
3.72000E-02,0.080
3.73000E-02,0.000
3.74000E-02,0.080
3.75000E-02,0.000
3.76000E-02,0.000
3.77000E-02,0.000
3.78000E-02,0.080
3.79000E-02,0.000
3.80000E-02,0.000
3.81000E-02,0.000
3.82000E-02,0.080
3.83000E-02,0.000
3.84000E-02,-0.080
3.85000E-02,-0.080
3.86000E-02,0.000
3.87000E-02,0.000
3.88000E-02,0.000
3.89000E-02,0.080
3.90000E-02,-0.080
3.91000E-02,0.080
3.92000E-02,0.000
3.93000E-02,0.080
3.94000E-02,-0.080
3.95000E-02,0.000
3.96000E-02,-0.080
3.97000E-02,-0.400
3.98000E-02,0.000
3.99000E-02,0.000
4.00000E-02,0.000
4.01000E-02,0.080
4.02000E-02,0.000
4.03000E-02,0.000
4.04000E-02,0.160
4.05000E-02,-0.080
4.06000E-02,-0.080
4.07000E-02,0.000
4.08000E-02,-0.080
4.09000E-02,0.080
4.10000E-02,-0.080
4.11000E-02,-0.080
4.12000E-02,0.000
4.13000E-02,-0.080
4.14000E-02,-0.080
4.15000E-02,0.160
4.16000E-02,-0.080
4.17000E-02,0.000
4.18000E-02,0.000
4.19000E-02,-0.080
4.20000E-02,0.000
4.21000E-02,0.080
4.22000E-02,-0.080
4.23000E-02,-0.080
4.24000E-02,0.000
4.25000E-02,0.080
4.26000E-02,-0.080
4.27000E-02,-0.080
4.28000E-02,0.000
4.29000E-02,-0.080
4.30000E-02,-0.080
4.31000E-02,-0.160
4.32000E-02,-0.080
4.33000E-02,-0.080
4.34000E-02,0.000
4.35000E-02,0.080
4.36000E-02,0.160
4.37000E-02,0.080
4.38000E-02,0.080
4.39000E-02,0.080
4.40000E-02,-0.080
4.41000E-02,0.000
4.42000E-02,0.000
4.43000E-02,0.000
4.44000E-02,0.000
4.45000E-02,0.000
4.46000E-02,0.000
4.47000E-02,0.000
4.48000E-02,-0.080
4.49000E-02,0.000
4.50000E-02,0.080
4.51000E-02,0.080
4.52000E-02,0.080
4.53000E-02,0.000
4.54000E-02,0.000
4.55000E-02,0.160
4.56000E-02,0.000
4.57000E-02,0.000
4.58000E-02,0.080
4.59000E-02,0.080
4.60000E-02,0.080
4.61000E-02,0.240
4.62000E-02,0.320
4.63000E-02,0.400
4.64000E-02,0.400
4.65000E-02,0.400
4.66000E-02,0.560
4.67000E-02,0.400
4.68000E-02,0.560
4.69000E-02,0.560
4.70000E-02,0.560
4.71000E-02,0.720
4.72000E-02,0.720
4.73000E-02,0.640
4.74000E-02,0.880
4.75000E-02,0.880
4.76000E-02,0.720
4.77000E-02,0.800
4.78000E-02,0.960
4.79000E-02,0.960
4.80000E-02,0.960
4.81000E-02,1.040
4.82000E-02,1.040
4.83000E-02,1.120
4.84000E-02,1.120
4.85000E-02,1.120
4.86000E-02,1.120
4.87000E-02,1.200
4.88000E-02,1.280
4.89000E-02,1.200
4.90000E-02,1.280
4.91000E-02,1.360
4.92000E-02,1.280
4.93000E-02,1.280
4.94000E-02,1.360
4.95000E-02,1.360
4.96000E-02,1.520
4.97000E-02,1.520
4.98000E-02,1.520
4.99000E-02,1.360
5.00000E-02,1.600
5.01000E-02,1.520
5.02000E-02,1.600
5.03000E-02,1.520
5.04000E-02,1.760
5.05000E-02,1.760
5.06000E-02,1.760
5.07000E-02,1.760
5.08000E-02,1.840
5.09000E-02,1.760
5.10000E-02,1.920
5.11000E-02,2.000
5.12000E-02,1.920
5.13000E-02,1.760
5.14000E-02,2.000
5.15000E-02,2.000
5.16000E-02,2.000
5.17000E-02,2.080
5.18000E-02,2.080
5.19000E-02,1.920
5.20000E-02,2.080
5.21000E-02,2.160
5.22000E-02,2.160
5.23000E-02,2.240
5.24000E-02,2.240
5.25000E-02,2.160
5.26000E-02,2.160
5.27000E-02,2.240
5.28000E-02,2.320
5.29000E-02,2.320
5.30000E-02,2.320
5.31000E-02,2.480
5.32000E-02,2.320
5.33000E-02,2.400
5.34000E-02,2.400
5.35000E-02,2.480
5.36000E-02,2.560
5.37000E-02,2.560
5.38000E-02,2.480
5.39000E-02,2.480
5.40000E-02,2.640
5.41000E-02,2.560
5.42000E-02,2.640
5.43000E-02,2.720
5.44000E-02,2.560
5.45000E-02,2.640
5.46000E-02,2.720
5.47000E-02,2.640
5.48000E-02,2.560
5.49000E-02,2.800
5.50000E-02,2.880
5.51000E-02,2.880
5.52000E-02,2.720
5.53000E-02,2.800
5.54000E-02,2.800
5.55000E-02,2.800
5.56000E-02,2.880
5.57000E-02,2.960
5.58000E-02,2.880
5.59000E-02,2.960
5.60000E-02,2.880
5.61000E-02,2.880
5.62000E-02,3.040
5.63000E-02,2.880
5.64000E-02,3.040
5.65000E-02,3.120
5.66000E-02,2.880
5.67000E-02,3.120
5.68000E-02,2.960
5.69000E-02,3.120
5.70000E-02,3.040
5.71000E-02,3.280
5.72000E-02,3.200
5.73000E-02,3.200
5.74000E-02,3.120
5.75000E-02,3.200
5.76000E-02,3.200
5.77000E-02,3.120
5.78000E-02,3.200
5.79000E-02,3.280
5.80000E-02,3.120
5.81000E-02,3.200
5.82000E-02,3.360
5.83000E-02,3.200
5.84000E-02,3.200
5.85000E-02,3.200
5.86000E-02,3.360
5.87000E-02,3.280
5.88000E-02,3.520
5.89000E-02,3.280
5.90000E-02,3.360
5.91000E-02,3.280
5.92000E-02,3.440
5.93000E-02,3.360
5.94000E-02,3.440
5.95000E-02,3.360
5.96000E-02,3.360
5.97000E-02,3.280
5.98000E-02,3.280
5.99000E-02,3.280
6.00000E-02,3.280
6.01000E-02,3.360
6.02000E-02,3.360
6.03000E-02,3.360
6.04000E-02,3.360
6.05000E-02,3.360
6.06000E-02,3.360
6.07000E-02,3.360
6.08000E-02,3.360
6.09000E-02,3.360
6.10000E-02,3.440
6.11000E-02,3.440
6.12000E-02,3.440
6.13000E-02,3.280
6.14000E-02,3.280
6.15000E-02,3.360
6.16000E-02,3.360
6.17000E-02,3.360
6.18000E-02,3.440
6.19000E-02,3.360
6.20000E-02,3.360
6.21000E-02,3.440
6.22000E-02,3.520
6.23000E-02,3.360
6.24000E-02,3.360
6.25000E-02,3.360
6.26000E-02,3.360
6.27000E-02,3.440
6.28000E-02,3.280
6.29000E-02,3.360
6.30000E-02,3.360
6.31000E-02,3.200
6.32000E-02,3.360
6.33000E-02,3.360
6.34000E-02,3.360
6.35000E-02,3.280
6.36000E-02,3.360
6.37000E-02,3.280
6.38000E-02,3.280
6.39000E-02,3.280
6.40000E-02,3.280
6.41000E-02,3.280
6.42000E-02,3.360
6.43000E-02,3.280
6.44000E-02,3.200
6.45000E-02,3.360
6.46000E-02,3.200
6.47000E-02,3.200
6.48000E-02,3.200
6.49000E-02,3.200
6.50000E-02,3.280
6.51000E-02,3.200
6.52000E-02,3.280
6.53000E-02,3.200
6.54000E-02,3.280
6.55000E-02,3.040
6.56000E-02,3.120
6.57000E-02,3.120
6.58000E-02,3.120
6.59000E-02,3.200
6.60000E-02,3.200
6.61000E-02,2.880
6.62000E-02,3.040
6.63000E-02,2.960
6.64000E-02,2.960
6.65000E-02,3.040
6.66000E-02,2.960
6.67000E-02,2.880
6.68000E-02,2.960
6.69000E-02,3.040
6.70000E-02,2.960
6.71000E-02,2.880
6.72000E-02,2.880
6.73000E-02,2.880
6.74000E-02,2.880
6.75000E-02,2.800
6.76000E-02,2.880
6.77000E-02,2.880
6.78000E-02,2.880
6.79000E-02,2.880
6.80000E-02,2.880
6.81000E-02,2.720
6.82000E-02,2.880
6.83000E-02,2.800
6.84000E-02,2.720
6.85000E-02,2.800
6.86000E-02,2.640
6.87000E-02,2.720
6.88000E-02,2.800
6.89000E-02,2.640
6.90000E-02,2.640
6.91000E-02,2.560
6.92000E-02,2.720
6.93000E-02,2.640
6.94000E-02,2.560
6.95000E-02,2.560
6.96000E-02,2.560
6.97000E-02,2.480
6.98000E-02,2.640
6.99000E-02,2.480
7.00000E-02,2.480
7.01000E-02,2.560
7.02000E-02,2.480
7.03000E-02,2.320
7.04000E-02,2.320
7.05000E-02,2.480
7.06000E-02,2.320
7.07000E-02,2.400
7.08000E-02,2.400
7.09000E-02,2.400
7.10000E-02,2.400
7.11000E-02,2.240
7.12000E-02,2.240
7.13000E-02,2.240
7.14000E-02,2.240
7.15000E-02,2.160
7.16000E-02,2.240
7.17000E-02,2.160
7.18000E-02,2.240
7.19000E-02,2.080
7.20000E-02,2.080
7.21000E-02,2.160
7.22000E-02,2.080
7.23000E-02,2.080
7.24000E-02,2.000
7.25000E-02,2.000
7.26000E-02,2.160
7.27000E-02,2.080
7.28000E-02,1.920
7.29000E-02,2.080
7.30000E-02,2.000
7.31000E-02,1.840
7.32000E-02,1.920
7.33000E-02,2.000
7.34000E-02,1.920
7.35000E-02,1.840
7.36000E-02,1.840
7.37000E-02,1.840
7.38000E-02,1.840
7.39000E-02,1.840
7.40000E-02,1.840
7.41000E-02,1.840
7.42000E-02,1.600
7.43000E-02,1.760
7.44000E-02,1.760
7.45000E-02,1.520
7.46000E-02,1.680
7.47000E-02,1.680
7.48000E-02,1.600
7.49000E-02,1.680
7.50000E-02,1.680
7.51000E-02,1.600
7.52000E-02,1.680
7.53000E-02,1.680
7.54000E-02,1.600
7.55000E-02,1.520
7.56000E-02,1.520
7.57000E-02,1.600
7.58000E-02,1.520
7.59000E-02,1.520
7.60000E-02,1.440
7.61000E-02,1.440
7.62000E-02,1.440
7.63000E-02,1.440
7.64000E-02,1.360
7.65000E-02,1.360
7.66000E-02,1.360
7.67000E-02,1.360
7.68000E-02,1.360
7.69000E-02,1.440
7.70000E-02,1.440
7.71000E-02,1.280
7.72000E-02,1.360
7.73000E-02,1.360
7.74000E-02,1.200
7.75000E-02,1.360
7.76000E-02,1.200
7.77000E-02,1.280
7.78000E-02,1.200
7.79000E-02,1.280
7.80000E-02,1.280
7.81000E-02,1.200
7.82000E-02,1.200
7.83000E-02,1.200
7.84000E-02,1.280
7.85000E-02,1.120
7.86000E-02,1.120
7.87000E-02,1.200
7.88000E-02,1.200
7.89000E-02,1.120
7.90000E-02,1.120
7.91000E-02,1.040
7.92000E-02,1.120
7.93000E-02,1.040
7.94000E-02,0.960
7.95000E-02,1.120
7.96000E-02,1.120
7.97000E-02,1.040
7.98000E-02,0.960
7.99000E-02,1.040
8.00000E-02,0.960
8.01000E-02,0.960
8.02000E-02,1.120
8.03000E-02,1.040
8.04000E-02,0.960
8.05000E-02,0.960
8.06000E-02,1.120
8.07000E-02,0.960
8.08000E-02,0.880
8.09000E-02,0.960
8.10000E-02,0.880
8.11000E-02,0.880
8.12000E-02,0.960
8.13000E-02,0.880
8.14000E-02,0.880
8.15000E-02,0.960
8.16000E-02,0.880
8.17000E-02,0.880
8.18000E-02,0.960
8.19000E-02,0.880
8.20000E-02,0.880
8.21000E-02,0.880
8.22000E-02,0.880
8.23000E-02,0.880
8.24000E-02,0.800
8.25000E-02,0.800
8.26000E-02,0.880
8.27000E-02,0.880
8.28000E-02,0.880
8.29000E-02,0.880
8.30000E-02,0.800
8.31000E-02,0.800
8.32000E-02,0.800
8.33000E-02,0.800
8.34000E-02,0.800
8.35000E-02,0.800
8.36000E-02,0.800
8.37000E-02,0.800
8.38000E-02,0.800
8.39000E-02,0.800
8.40000E-02,0.800
8.41000E-02,0.800
8.42000E-02,0.800
8.43000E-02,0.800
8.44000E-02,0.800
8.45000E-02,0.880
8.46000E-02,0.800
8.47000E-02,0.800
8.48000E-02,0.800
8.49000E-02,0.720
8.50000E-02,0.800
8.51000E-02,0.800
8.52000E-02,0.720
8.53000E-02,0.720
8.54000E-02,0.720
8.55000E-02,0.880
8.56000E-02,0.720
8.57000E-02,0.800
8.58000E-02,0.880
8.59000E-02,0.880
8.60000E-02,0.800
8.61000E-02,0.800
8.62000E-02,0.880
8.63000E-02,0.800
8.64000E-02,0.880
8.65000E-02,0.720
8.66000E-02,0.800
8.67000E-02,0.880
8.68000E-02,0.880
8.69000E-02,0.800
8.70000E-02,0.880
8.71000E-02,0.880
8.72000E-02,0.800
8.73000E-02,0.880
8.74000E-02,0.880
8.75000E-02,0.880
8.76000E-02,0.880
8.77000E-02,0.880
8.78000E-02,0.800
8.79000E-02,0.800
8.80000E-02,0.960
8.81000E-02,0.880
8.82000E-02,0.960
8.83000E-02,0.880
8.84000E-02,0.880
8.85000E-02,0.880
8.86000E-02,0.960
8.87000E-02,0.880
8.88000E-02,0.960
8.89000E-02,1.040
8.90000E-02,0.960
8.91000E-02,1.120
8.92000E-02,0.960
8.93000E-02,0.880
8.94000E-02,1.040
8.95000E-02,1.120
8.96000E-02,0.960
8.97000E-02,0.960
8.98000E-02,1.040
8.99000E-02,1.120
9.00000E-02,1.120
9.01000E-02,1.120
9.02000E-02,0.960
9.03000E-02,1.120
9.04000E-02,1.120
9.05000E-02,0.960
9.06000E-02,1.120
9.07000E-02,1.200
9.08000E-02,1.120
9.09000E-02,1.200
9.10000E-02,1.120
9.11000E-02,1.120
9.12000E-02,1.280
9.13000E-02,1.280
9.14000E-02,1.200
9.15000E-02,1.120
9.16000E-02,1.280
9.17000E-02,1.280
9.18000E-02,1.360
9.19000E-02,1.200
9.20000E-02,1.360
9.21000E-02,1.360
9.22000E-02,1.440
9.23000E-02,2.080
9.24000E-02,1.360
9.25000E-02,1.440
9.26000E-02,1.440
9.27000E-02,1.440
9.28000E-02,1.440
9.29000E-02,1.440
9.30000E-02,1.440
9.31000E-02,1.520
9.32000E-02,1.520
9.33000E-02,1.520
9.34000E-02,1.520
9.35000E-02,1.520
9.36000E-02,1.600
9.37000E-02,1.600
9.38000E-02,1.600
9.39000E-02,1.600
9.40000E-02,1.760
9.41000E-02,1.680
9.42000E-02,1.680
9.43000E-02,1.680
9.44000E-02,1.680
9.45000E-02,1.840
9.46000E-02,1.840
9.47000E-02,1.840
9.48000E-02,1.840
9.49000E-02,1.840
9.50000E-02,1.920
9.51000E-02,1.840
9.52000E-02,1.920
9.53000E-02,1.920
9.54000E-02,2.000
9.55000E-02,1.920
9.56000E-02,1.920
9.57000E-02,2.080
9.58000E-02,2.000
9.59000E-02,2.000
9.60000E-02,2.080
9.61000E-02,2.080
9.62000E-02,2.240
9.63000E-02,2.160
9.64000E-02,2.160
9.65000E-02,2.240
9.66000E-02,2.240
9.67000E-02,2.320
9.68000E-02,2.240
9.69000E-02,2.320
9.70000E-02,2.320
9.71000E-02,2.320
9.72000E-02,2.240
9.73000E-02,2.320
9.74000E-02,2.480
9.75000E-02,2.400
9.76000E-02,2.560
9.77000E-02,2.480
9.78000E-02,2.560
9.79000E-02,2.560
9.80000E-02,2.560
9.81000E-02,2.480
9.82000E-02,2.720
9.83000E-02,2.640
9.84000E-02,2.640
9.85000E-02,2.640
9.86000E-02,2.800
9.87000E-02,2.880
9.88000E-02,2.800
9.89000E-02,2.800
9.90000E-02,2.800
9.91000E-02,3.360
9.92000E-02,2.800
9.93000E-02,3.040
9.94000E-02,2.880
9.95000E-02,2.960
9.96000E-02,2.960
9.97000E-02,2.960
9.98000E-02,3.120
9.99000E-02,3.200
1.00000E-01,3.120
1.00100E-01,3.040
1.00200E-01,3.280
1.00300E-01,3.200
1.00400E-01,3.280
1.00500E-01,3.280
1.00600E-01,3.280
1.00700E-01,3.200
1.00800E-01,3.360
1.00900E-01,3.360
1.01000E-01,3.440
1.01100E-01,3.360
1.01200E-01,3.520
1.01300E-01,3.520
1.01400E-01,3.440
1.01500E-01,3.520
1.01600E-01,3.520
1.01700E-01,3.520
1.01800E-01,3.680
1.01900E-01,3.680
1.02000E-01,3.600
1.02100E-01,3.600
1.02200E-01,3.760
1.02300E-01,3.680
1.02400E-01,3.760
1.02500E-01,3.680
1.02600E-01,3.840
1.02700E-01,3.840
1.02800E-01,4.000
1.02900E-01,3.840
1.03000E-01,3.920
1.03100E-01,4.000
1.03200E-01,3.920
1.03300E-01,3.920
1.03400E-01,4.000
1.03500E-01,4.080
1.03600E-01,4.080
1.03700E-01,4.000
1.03800E-01,4.160
1.03900E-01,4.160
1.04000E-01,4.080
1.04100E-01,4.240
1.04200E-01,4.320
1.04300E-01,4.320
1.04400E-01,4.400
1.04500E-01,4.400
1.04600E-01,4.320
1.04700E-01,4.400
1.04800E-01,4.400
1.04900E-01,4.400
1.05000E-01,4.400
1.05100E-01,4.720
1.05200E-01,4.640
1.05300E-01,4.640
1.05400E-01,4.560
1.05500E-01,4.560
1.05600E-01,4.720
1.05700E-01,4.640
1.05800E-01,4.720
1.05900E-01,4.640
1.06000E-01,4.720
1.06100E-01,4.880
1.06200E-01,4.880
1.06300E-01,4.720
1.06400E-01,4.880
1.06500E-01,4.880
1.06600E-01,4.880
1.06700E-01,4.880
1.06800E-01,4.880
1.06900E-01,4.880
1.07000E-01,5.040
1.07100E-01,4.960
1.07200E-01,5.040
1.07300E-01,5.120
1.07400E-01,5.040
1.07500E-01,5.120
1.07600E-01,5.120
1.07700E-01,5.200
1.07800E-01,5.040
1.07900E-01,5.120
1.08000E-01,5.280
1.08100E-01,5.200
1.08200E-01,5.200
1.08300E-01,5.360
1.08400E-01,5.360
1.08500E-01,5.280
1.08600E-01,5.440
1.08700E-01,5.360
1.08800E-01,5.360
1.08900E-01,5.440
1.09000E-01,5.440
1.09100E-01,5.360
1.09200E-01,5.440
1.09300E-01,5.600
1.09400E-01,5.520
1.09500E-01,5.600
1.09600E-01,5.600
1.09700E-01,5.440
1.09800E-01,5.600
1.09900E-01,5.760
1.10000E-01,5.520
1.10100E-01,5.600
1.10200E-01,5.680
