notebooks/Oscilloscope data CRI electronics analogy/AWG 7V full sinc f 6-4 caps 220 2-2/Channel 2 voltage shunt resistor.csv

#timebase=-1474836480(ps)
,#voltbase=2000000(uV)
#size=4064
1.00000E-04,0.040
2.00000E-04,0.048
3.00000E-04,0.048
4.00000E-04,0.048
5.00000E-04,0.040
6.00000E-04,0.048
7.00000E-04,0.040
8.00000E-04,0.040
9.00000E-04,0.040
1.00000E-03,0.040
1.10000E-03,0.048
1.20000E-03,0.040
1.30000E-03,0.040
1.40000E-03,0.040
1.50000E-03,0.040
1.60000E-03,0.048
1.70000E-03,0.040
1.80000E-03,0.048
1.90000E-03,0.040
2.00000E-03,0.040
2.10000E-03,0.040
2.20000E-03,0.048
2.30000E-03,0.048
2.40000E-03,0.040
2.50000E-03,0.040
2.60000E-03,0.040
2.70000E-03,0.032
2.80000E-03,0.032
2.90000E-03,0.040
3.00000E-03,0.032
3.10000E-03,0.040
3.20000E-03,0.040
3.30000E-03,0.032
3.40000E-03,0.040
3.50000E-03,0.032
3.60000E-03,0.032
3.70000E-03,0.032
3.80000E-03,0.040
3.90000E-03,0.032
4.00000E-03,0.032
4.10000E-03,0.024
4.20000E-03,0.040
4.30000E-03,0.032
4.40000E-03,0.016
4.50000E-03,0.024
4.60000E-03,0.024
4.70000E-03,0.032
4.80000E-03,0.016
4.90000E-03,0.024
5.00000E-03,0.024
5.10000E-03,0.024
5.20000E-03,0.008
5.30000E-03,0.008
5.40000E-03,0.016
5.50000E-03,0.008
5.60000E-03,0.000
5.70000E-03,0.016
5.80000E-03,0.016
5.90000E-03,0.008
6.00000E-03,0.008
6.10000E-03,0.000
6.20000E-03,0.008
6.30000E-03,0.016
6.40000E-03,0.000
6.50000E-03,0.000
6.60000E-03,0.008
6.70000E-03,0.000
6.80000E-03,0.000
6.90000E-03,0.000
7.00000E-03,-0.008
7.10000E-03,0.000
7.20000E-03,-0.008
7.30000E-03,0.000
7.40000E-03,0.000
7.50000E-03,-0.008
7.60000E-03,-0.016
7.70000E-03,0.000
7.80000E-03,-0.016
7.90000E-03,-0.024
8.00000E-03,-0.016
8.10000E-03,-0.008
8.20000E-03,-0.016
8.30000E-03,-0.008
8.40000E-03,-0.016
8.50000E-03,-0.032
8.60000E-03,-0.016
8.70000E-03,-0.024
8.80000E-03,-0.016
8.90000E-03,-0.024
9.00000E-03,-0.024
9.10000E-03,-0.032
9.20000E-03,-0.024
9.30000E-03,-0.032
9.40000E-03,-0.032
9.50000E-03,-0.040
9.60000E-03,-0.032
9.70000E-03,-0.040
9.80000E-03,-0.040
9.90000E-03,-0.048
1.00000E-02,-0.040
1.01000E-02,-0.032
1.02000E-02,-0.040
1.03000E-02,-0.040
1.04000E-02,-0.048
1.05000E-02,-0.048
1.06000E-02,-0.048
1.07000E-02,-0.048
1.08000E-02,-0.056
1.09000E-02,-0.072
1.10000E-02,-0.048
1.11000E-02,-0.056
1.12000E-02,-0.056
1.13000E-02,-0.064
1.14000E-02,-0.056
1.15000E-02,-0.064
1.16000E-02,-0.056
1.17000E-02,-0.048
1.18000E-02,-0.056
1.19000E-02,-0.064
1.20000E-02,-0.064
1.21000E-02,-0.064
1.22000E-02,-0.064
1.23000E-02,-0.056
1.24000E-02,-0.072
1.25000E-02,-0.064
1.26000E-02,-0.072
1.27000E-02,-0.072
1.28000E-02,-0.072
1.29000E-02,-0.064
1.30000E-02,-0.072
1.31000E-02,-0.072
1.32000E-02,-0.064
1.33000E-02,-0.072
1.34000E-02,-0.072
1.35000E-02,-0.072
1.36000E-02,-0.064
1.37000E-02,-0.072
1.38000E-02,-0.072
1.39000E-02,-0.072
1.40000E-02,-0.064
1.41000E-02,-0.064
1.42000E-02,-0.080
1.43000E-02,-0.072
1.44000E-02,-0.080
1.45000E-02,-0.064
1.46000E-02,-0.064
1.47000E-02,-0.072
1.48000E-02,-0.072
1.49000E-02,-0.072
1.50000E-02,-0.072
1.51000E-02,-0.072
1.52000E-02,-0.072
1.53000E-02,-0.072
1.54000E-02,-0.072
1.55000E-02,-0.072
1.56000E-02,-0.072
1.57000E-02,-0.064
1.58000E-02,-0.064
1.59000E-02,-0.072
1.60000E-02,-0.072
1.61000E-02,-0.072
1.62000E-02,-0.072
1.63000E-02,-0.056
1.64000E-02,-0.072
1.65000E-02,-0.064
1.66000E-02,-0.056
1.67000E-02,-0.064
1.68000E-02,-0.056
1.69000E-02,-0.056
1.70000E-02,-0.064
1.71000E-02,-0.056
1.72000E-02,-0.056
1.73000E-02,-0.048
1.74000E-02,-0.048
1.75000E-02,-0.056
1.76000E-02,-0.048
1.77000E-02,-0.040
1.78000E-02,-0.048
1.79000E-02,-0.048
1.80000E-02,-0.032
1.81000E-02,-0.040
1.82000E-02,-0.032
1.83000E-02,-0.032
1.84000E-02,-0.032
1.85000E-02,-0.032
1.86000E-02,-0.032
1.87000E-02,-0.024
1.88000E-02,-0.032
1.89000E-02,-0.016
1.90000E-02,-0.024
1.91000E-02,-0.024
1.92000E-02,-0.016
1.93000E-02,-0.024
1.94000E-02,-0.016
1.95000E-02,-0.016
1.96000E-02,-0.016
1.97000E-02,0.008
1.98000E-02,-0.008
1.99000E-02,0.000
2.00000E-02,0.000
2.01000E-02,0.000
2.02000E-02,0.008
2.03000E-02,0.024
2.04000E-02,0.008
2.05000E-02,0.016
2.06000E-02,0.024
2.07000E-02,0.008
2.08000E-02,0.024
2.09000E-02,0.024
2.10000E-02,0.024
2.11000E-02,0.032
2.12000E-02,0.032
2.13000E-02,0.040
2.14000E-02,0.032
2.15000E-02,0.040
2.16000E-02,0.040
2.17000E-02,0.048
2.18000E-02,0.064
2.19000E-02,0.056
2.20000E-02,0.056
2.21000E-02,0.056
2.22000E-02,0.064
2.23000E-02,0.072
2.24000E-02,0.072
2.25000E-02,0.072
2.26000E-02,0.080
2.27000E-02,0.088
2.28000E-02,0.072
2.29000E-02,0.080
2.30000E-02,0.088
2.31000E-02,0.096
2.32000E-02,0.112
2.33000E-02,0.112
2.34000E-02,0.096
2.35000E-02,0.112
2.36000E-02,0.112
2.37000E-02,0.112
2.38000E-02,0.120
2.39000E-02,0.120
2.40000E-02,0.120
2.41000E-02,0.136
2.42000E-02,0.144
2.43000E-02,0.144
2.44000E-02,0.144
2.45000E-02,0.144
2.46000E-02,0.152
2.47000E-02,0.160
2.48000E-02,0.160
2.49000E-02,0.176
2.50000E-02,0.176
2.51000E-02,0.168
2.52000E-02,0.184
2.53000E-02,0.184
2.54000E-02,0.184
2.55000E-02,0.192
2.56000E-02,0.200
2.57000E-02,0.200
2.58000E-02,0.208
2.59000E-02,0.200
2.60000E-02,0.200
2.61000E-02,0.216
2.62000E-02,0.216
2.63000E-02,0.232
2.64000E-02,0.240
2.65000E-02,0.224
2.66000E-02,0.240
2.67000E-02,0.256
2.68000E-02,0.256
2.69000E-02,0.256
2.70000E-02,0.256
2.71000E-02,0.256
2.72000E-02,0.272
2.73000E-02,0.280
2.74000E-02,0.280
2.75000E-02,0.296
2.76000E-02,0.296
2.77000E-02,0.296
2.78000E-02,0.320
2.79000E-02,0.312
2.80000E-02,0.304
2.81000E-02,0.320
2.82000E-02,0.328
2.83000E-02,0.336
2.84000E-02,0.336
2.85000E-02,0.352
2.86000E-02,0.344
2.87000E-02,0.352
2.88000E-02,0.360
2.89000E-02,0.368
2.90000E-02,0.376
2.91000E-02,0.360
2.92000E-02,0.368
2.93000E-02,0.392
2.94000E-02,0.376
2.95000E-02,0.376
2.96000E-02,0.384
2.97000E-02,0.392
2.98000E-02,0.400
2.99000E-02,0.400
3.00000E-02,0.400
3.01000E-02,0.400
3.02000E-02,0.400
3.03000E-02,0.416
3.04000E-02,0.424
3.05000E-02,0.440
3.06000E-02,0.424
3.07000E-02,0.416
3.08000E-02,0.416
3.09000E-02,0.440
3.10000E-02,0.432
3.11000E-02,0.416
3.12000E-02,0.432
3.13000E-02,0.432
3.14000E-02,0.440
3.15000E-02,0.424
3.16000E-02,0.448
3.17000E-02,0.424
3.18000E-02,0.440
3.19000E-02,0.440
3.20000E-02,0.424
3.21000E-02,0.448
3.22000E-02,0.432
3.23000E-02,0.440
3.24000E-02,0.456
3.25000E-02,0.440
3.26000E-02,0.440
3.27000E-02,0.448
3.28000E-02,0.432
3.29000E-02,0.448
3.30000E-02,0.440
3.31000E-02,0.440
3.32000E-02,0.440
3.33000E-02,0.440
3.34000E-02,0.440
3.35000E-02,0.440
3.36000E-02,0.440
3.37000E-02,0.440
3.38000E-02,0.440
3.39000E-02,0.440
3.40000E-02,0.440
3.41000E-02,0.432
3.42000E-02,0.424
3.43000E-02,0.424
3.44000E-02,0.416
3.45000E-02,0.432
3.46000E-02,0.424
3.47000E-02,0.416
3.48000E-02,0.424
3.49000E-02,0.416
3.50000E-02,0.408
3.51000E-02,0.408
3.52000E-02,0.408
3.53000E-02,0.400
3.54000E-02,0.400
3.55000E-02,0.400
3.56000E-02,0.392
3.57000E-02,0.400
3.58000E-02,0.376
3.59000E-02,0.384
3.60000E-02,0.376
3.61000E-02,0.368
3.62000E-02,0.376
3.63000E-02,0.352
3.64000E-02,0.352
3.65000E-02,0.344
3.66000E-02,0.344
3.67000E-02,0.344
3.68000E-02,0.336
3.69000E-02,0.320
3.70000E-02,0.312
3.71000E-02,0.312
3.72000E-02,0.320
3.73000E-02,0.320
3.74000E-02,0.288
3.75000E-02,0.296
3.76000E-02,0.288
3.77000E-02,0.288
3.78000E-02,0.288
3.79000E-02,0.288
3.80000E-02,0.272
3.81000E-02,0.264
3.82000E-02,0.264
3.83000E-02,0.256
3.84000E-02,0.248
3.85000E-02,0.240
3.86000E-02,0.224
3.87000E-02,0.232
3.88000E-02,0.224
3.89000E-02,0.224
3.90000E-02,0.216
3.91000E-02,0.216
3.92000E-02,0.200
3.93000E-02,0.208
3.94000E-02,0.184
3.95000E-02,0.184
3.96000E-02,0.176
3.97000E-02,0.184
3.98000E-02,0.176
3.99000E-02,0.176
4.00000E-02,0.176
4.01000E-02,0.168
4.02000E-02,0.168
4.03000E-02,0.160
4.04000E-02,0.152
4.05000E-02,0.136
4.06000E-02,0.144
4.07000E-02,0.144
4.08000E-02,0.120
4.09000E-02,0.120
4.10000E-02,0.128
4.11000E-02,0.128
4.12000E-02,0.120
4.13000E-02,0.120
4.14000E-02,0.120
4.15000E-02,0.096
4.16000E-02,0.120
4.17000E-02,0.104
4.18000E-02,0.096
4.19000E-02,0.096
4.20000E-02,0.088
4.21000E-02,0.080
4.22000E-02,0.080
4.23000E-02,0.080
4.24000E-02,0.072
4.25000E-02,0.088
4.26000E-02,0.072
4.27000E-02,0.064
4.28000E-02,0.064
4.29000E-02,0.056
4.30000E-02,0.048
4.31000E-02,0.048
4.32000E-02,0.040
4.33000E-02,0.040
4.34000E-02,0.040
4.35000E-02,0.032
4.36000E-02,0.032
4.37000E-02,0.032
4.38000E-02,0.024
4.39000E-02,0.024
4.40000E-02,0.024
4.41000E-02,0.024
4.42000E-02,0.000
4.43000E-02,0.008
4.44000E-02,0.008
4.45000E-02,0.016
4.46000E-02,0.008
4.47000E-02,-0.008
4.48000E-02,0.000
4.49000E-02,0.000
4.50000E-02,-0.008
4.51000E-02,-0.008
4.52000E-02,-0.008
4.53000E-02,-0.016
4.54000E-02,-0.016
4.55000E-02,-0.032
4.56000E-02,-0.024
4.57000E-02,-0.016
4.58000E-02,-0.024
4.59000E-02,-0.040
4.60000E-02,-0.040
4.61000E-02,-0.024
4.62000E-02,-0.040
4.63000E-02,-0.032
4.64000E-02,-0.040
4.65000E-02,-0.040
4.66000E-02,-0.048
4.67000E-02,-0.040
4.68000E-02,-0.056
4.69000E-02,-0.048
4.70000E-02,-0.048
4.71000E-02,-0.056
4.72000E-02,-0.064
4.73000E-02,-0.056
4.74000E-02,-0.064
4.75000E-02,-0.064
4.76000E-02,-0.064
4.77000E-02,-0.064
4.78000E-02,-0.072
4.79000E-02,-0.072
4.80000E-02,-0.072
4.81000E-02,-0.072
4.82000E-02,-0.080
4.83000E-02,-0.072
4.84000E-02,-0.072
4.85000E-02,-0.080
4.86000E-02,-0.072
4.87000E-02,-0.072
4.88000E-02,-0.080
4.89000E-02,-0.080
4.90000E-02,-0.080
4.91000E-02,-0.096
4.92000E-02,-0.088
4.93000E-02,-0.088
4.94000E-02,-0.072
4.95000E-02,-0.080
4.96000E-02,-0.080
4.97000E-02,-0.088
4.98000E-02,-0.088
4.99000E-02,-0.088
5.00000E-02,-0.096
5.01000E-02,-0.096
5.02000E-02,-0.088
5.03000E-02,-0.088
5.04000E-02,-0.080
5.05000E-02,-0.080
5.06000E-02,-0.096
5.07000E-02,-0.096
5.08000E-02,-0.096
5.09000E-02,-0.088
5.10000E-02,-0.088
5.11000E-02,-0.088
5.12000E-02,-0.104
5.13000E-02,-0.104
5.14000E-02,-0.096
5.15000E-02,-0.096
5.16000E-02,-0.088
5.17000E-02,-0.096
5.18000E-02,-0.088
5.19000E-02,-0.088
5.20000E-02,-0.088
5.21000E-02,-0.088
5.22000E-02,-0.088
5.23000E-02,-0.096
5.24000E-02,-0.080
5.25000E-02,-0.088
5.26000E-02,-0.088
5.27000E-02,-0.088
5.28000E-02,-0.088
5.29000E-02,-0.088
5.30000E-02,-0.064
5.31000E-02,-0.080
5.32000E-02,-0.080
5.33000E-02,-0.080
5.34000E-02,-0.080
5.35000E-02,-0.080
5.36000E-02,-0.072
5.37000E-02,-0.072
5.38000E-02,-0.072
5.39000E-02,-0.072
5.40000E-02,-0.064
5.41000E-02,-0.072
5.42000E-02,-0.064
5.43000E-02,-0.064
5.44000E-02,-0.072
5.45000E-02,-0.056
5.46000E-02,-0.064
5.47000E-02,-0.064
5.48000E-02,-0.064
5.49000E-02,-0.056
5.50000E-02,-0.056
5.51000E-02,-0.048
5.52000E-02,-0.048
5.53000E-02,-0.056
5.54000E-02,-0.048
5.55000E-02,-0.048
5.56000E-02,-0.048
5.57000E-02,-0.048
5.58000E-02,-0.040
5.59000E-02,-0.040
5.60000E-02,-0.048
5.61000E-02,-0.048
5.62000E-02,-0.032
5.63000E-02,-0.032
5.64000E-02,-0.032
5.65000E-02,-0.032
5.66000E-02,-0.040
5.67000E-02,-0.032
5.68000E-02,-0.032
5.69000E-02,-0.016
5.70000E-02,-0.024
5.71000E-02,-0.024
5.72000E-02,-0.016
5.73000E-02,-0.016
5.74000E-02,-0.024
5.75000E-02,-0.016
5.76000E-02,-0.024
5.77000E-02,-0.016
5.78000E-02,-0.008
5.79000E-02,-0.016
5.80000E-02,0.000
5.81000E-02,-0.008
5.82000E-02,-0.008
5.83000E-02,-0.008
5.84000E-02,-0.008
5.85000E-02,0.000
5.86000E-02,0.008
5.87000E-02,-0.008
5.88000E-02,0.000
5.89000E-02,0.000
5.90000E-02,0.000
5.91000E-02,0.008
5.92000E-02,0.008
5.93000E-02,0.000
5.94000E-02,0.000
5.95000E-02,0.008
5.96000E-02,0.000
5.97000E-02,0.008
5.98000E-02,0.008
5.99000E-02,0.008
6.00000E-02,0.008
6.01000E-02,0.024
6.02000E-02,0.008
6.03000E-02,0.008
6.04000E-02,0.016
6.05000E-02,0.024
6.06000E-02,0.008
6.07000E-02,0.016
6.08000E-02,0.032
6.09000E-02,0.040
6.10000E-02,0.024
6.11000E-02,0.032
6.12000E-02,0.024
6.13000E-02,0.024
6.14000E-02,0.040
6.15000E-02,0.040
6.16000E-02,0.032
6.17000E-02,0.040
6.18000E-02,0.040
6.19000E-02,0.024
6.20000E-02,0.040
6.21000E-02,0.040
6.22000E-02,0.032
6.23000E-02,0.032
6.24000E-02,0.032
6.25000E-02,0.032
6.26000E-02,0.048
6.27000E-02,0.040
6.28000E-02,0.040
6.29000E-02,0.040
6.30000E-02,0.040
6.31000E-02,0.048
6.32000E-02,0.040
6.33000E-02,0.040
6.34000E-02,0.048
6.35000E-02,0.048
6.36000E-02,0.040
6.37000E-02,0.040
6.38000E-02,0.048
6.39000E-02,0.040
6.40000E-02,0.040
6.41000E-02,0.040
6.42000E-02,0.048
6.43000E-02,0.040
6.44000E-02,0.040
6.45000E-02,0.048
6.46000E-02,0.040
6.47000E-02,0.040
6.48000E-02,0.048
6.49000E-02,0.040
6.50000E-02,0.048
6.51000E-02,0.048
6.52000E-02,0.040
6.53000E-02,0.040
6.54000E-02,0.040
6.55000E-02,0.040
6.56000E-02,0.048
6.57000E-02,0.040
6.58000E-02,0.040
6.59000E-02,0.040
6.60000E-02,0.040
6.61000E-02,0.040
6.62000E-02,0.040
6.63000E-02,0.048
6.64000E-02,0.048
6.65000E-02,0.040
6.66000E-02,0.048
6.67000E-02,0.048
6.68000E-02,0.040
6.69000E-02,0.048
6.70000E-02,0.040
6.71000E-02,0.040
6.72000E-02,0.040
6.73000E-02,0.040
6.74000E-02,0.048
6.75000E-02,0.048
6.76000E-02,0.032
6.77000E-02,0.040
6.78000E-02,0.032
6.79000E-02,0.040
6.80000E-02,0.040
6.81000E-02,0.032
6.82000E-02,0.040
6.83000E-02,0.032
6.84000E-02,0.024
6.85000E-02,0.016
6.86000E-02,0.032
6.87000E-02,0.024
6.88000E-02,0.032
6.89000E-02,0.024
6.90000E-02,0.024
6.91000E-02,0.016
6.92000E-02,0.008
6.93000E-02,0.016
6.94000E-02,0.016
6.95000E-02,0.024
6.96000E-02,0.016
6.97000E-02,0.024
6.98000E-02,0.016
6.99000E-02,0.016
7.00000E-02,0.016
7.01000E-02,0.016
7.02000E-02,0.008
7.03000E-02,0.024
7.04000E-02,0.008
7.05000E-02,0.016
7.06000E-02,0.000
7.07000E-02,0.008
7.08000E-02,0.008
7.09000E-02,0.008
7.10000E-02,0.008
7.11000E-02,0.000
7.12000E-02,0.000
7.13000E-02,0.000
7.14000E-02,0.000
7.15000E-02,0.032
7.16000E-02,0.008
7.17000E-02,0.000
7.18000E-02,-0.008
7.19000E-02,-0.008
7.20000E-02,0.000
7.21000E-02,0.000
7.22000E-02,0.000
7.23000E-02,0.008
7.24000E-02,-0.016
7.25000E-02,-0.008
7.26000E-02,-0.008
7.27000E-02,0.000
7.28000E-02,0.000
7.29000E-02,0.000
7.30000E-02,-0.008
7.31000E-02,-0.008
7.32000E-02,-0.008
7.33000E-02,-0.016
7.34000E-02,-0.008
7.35000E-02,-0.016
7.36000E-02,-0.016
7.37000E-02,-0.024
7.38000E-02,-0.016
7.39000E-02,-0.008
7.40000E-02,-0.016
7.41000E-02,-0.008
7.42000E-02,-0.008
7.43000E-02,-0.016
7.44000E-02,-0.008
7.45000E-02,-0.024
7.46000E-02,-0.024
7.47000E-02,-0.016
7.48000E-02,-0.024
7.49000E-02,-0.032
7.50000E-02,-0.032
7.51000E-02,-0.024
7.52000E-02,-0.032
7.53000E-02,-0.032
7.54000E-02,-0.024
7.55000E-02,-0.024
7.56000E-02,-0.032
7.57000E-02,-0.024
7.58000E-02,-0.024
7.59000E-02,-0.024
7.60000E-02,-0.024
7.61000E-02,-0.016
7.62000E-02,-0.024
7.63000E-02,-0.032
7.64000E-02,-0.032
7.65000E-02,-0.024
7.66000E-02,-0.032
7.67000E-02,-0.024
7.68000E-02,-0.032
7.69000E-02,-0.024
7.70000E-02,-0.040
7.71000E-02,-0.040
7.72000E-02,-0.032
7.73000E-02,0.000
7.74000E-02,-0.032
7.75000E-02,-0.032
7.76000E-02,-0.024
7.77000E-02,-0.040
7.78000E-02,-0.040
7.79000E-02,-0.032
7.80000E-02,-0.040
7.81000E-02,-0.024
7.82000E-02,-0.032
7.83000E-02,-0.040
7.84000E-02,-0.040
7.85000E-02,-0.032
7.86000E-02,-0.032
7.87000E-02,-0.032
7.88000E-02,-0.040
7.89000E-02,-0.032
7.90000E-02,-0.032
7.91000E-02,-0.040
7.92000E-02,-0.024
7.93000E-02,-0.016
7.94000E-02,-0.024
7.95000E-02,-0.024
7.96000E-02,-0.024
7.97000E-02,-0.024
7.98000E-02,-0.024
7.99000E-02,-0.024
8.00000E-02,-0.024
8.01000E-02,-0.024
8.02000E-02,-0.024
8.03000E-02,-0.016
8.04000E-02,-0.024
8.05000E-02,-0.024
8.06000E-02,-0.016
8.07000E-02,-0.024
8.08000E-02,-0.032
8.09000E-02,-0.024
8.10000E-02,-0.016
8.11000E-02,-0.024
8.12000E-02,-0.024
8.13000E-02,-0.024
8.14000E-02,-0.032
8.15000E-02,-0.016
8.16000E-02,-0.008
8.17000E-02,0.008
8.18000E-02,-0.024
8.19000E-02,-0.024
8.20000E-02,-0.016
8.21000E-02,-0.016
8.22000E-02,-0.008
8.23000E-02,-0.008
8.24000E-02,-0.008
8.25000E-02,-0.016
8.26000E-02,-0.016
8.27000E-02,-0.016
8.28000E-02,-0.040
8.29000E-02,-0.016
8.30000E-02,-0.016
8.31000E-02,-0.024
8.32000E-02,-0.008
8.33000E-02,0.000
8.34000E-02,-0.008
8.35000E-02,0.000
8.36000E-02,-0.008
8.37000E-02,-0.008
8.38000E-02,0.000
8.39000E-02,0.000
8.40000E-02,-0.016
8.41000E-02,-0.008
8.42000E-02,-0.008
8.43000E-02,0.000
8.44000E-02,0.000
8.45000E-02,0.000
8.46000E-02,0.000
8.47000E-02,-0.008
8.48000E-02,0.000
8.49000E-02,-0.008
8.50000E-02,0.000
8.51000E-02,0.000
8.52000E-02,0.000
8.53000E-02,0.008
8.54000E-02,0.008
8.55000E-02,0.000
8.56000E-02,0.008
8.57000E-02,0.008
8.58000E-02,0.000
8.59000E-02,0.008
8.60000E-02,0.000
8.61000E-02,0.008
8.62000E-02,0.016
8.63000E-02,0.016
8.64000E-02,0.000
8.65000E-02,0.008
8.66000E-02,0.008
8.67000E-02,0.008
8.68000E-02,0.016
8.69000E-02,0.008
8.70000E-02,0.016
8.71000E-02,0.008
8.72000E-02,0.008
8.73000E-02,0.016
8.74000E-02,0.016
8.75000E-02,0.016
8.76000E-02,0.024
8.77000E-02,0.016
8.78000E-02,0.024
8.79000E-02,0.008
8.80000E-02,0.016
8.81000E-02,0.032
8.82000E-02,0.016
8.83000E-02,0.008
8.84000E-02,0.016
8.85000E-02,0.008
8.86000E-02,0.016
8.87000E-02,0.024
8.88000E-02,0.016
8.89000E-02,0.024
8.90000E-02,0.016
8.91000E-02,0.016
8.92000E-02,0.024
8.93000E-02,0.016
8.94000E-02,0.024
8.95000E-02,0.008
8.96000E-02,0.024
8.97000E-02,0.016
8.98000E-02,0.016
8.99000E-02,0.024
9.00000E-02,0.032
9.01000E-02,0.008
9.02000E-02,0.032
9.03000E-02,0.024
9.04000E-02,0.032
9.05000E-02,0.032
9.06000E-02,0.024
9.07000E-02,0.032
9.08000E-02,0.024
9.09000E-02,0.008
9.10000E-02,0.016
9.11000E-02,0.032
9.12000E-02,0.048
9.13000E-02,0.016
9.14000E-02,0.024
9.15000E-02,0.016
9.16000E-02,0.016
9.17000E-02,0.024
9.18000E-02,0.024
9.19000E-02,0.032
9.20000E-02,0.040
9.21000E-02,0.024
9.22000E-02,0.024
9.23000E-02,0.016
9.24000E-02,0.016
9.25000E-02,0.032
9.26000E-02,0.032
9.27000E-02,0.032
9.28000E-02,0.032
9.29000E-02,0.024
9.30000E-02,0.008
9.31000E-02,0.008
9.32000E-02,0.016
9.33000E-02,0.024
9.34000E-02,0.008
9.35000E-02,0.008
9.36000E-02,0.016
9.37000E-02,0.008
9.38000E-02,0.008
9.39000E-02,0.016
9.40000E-02,0.008
9.41000E-02,0.016
9.42000E-02,0.008
9.43000E-02,0.032
9.44000E-02,0.008
9.45000E-02,0.016
9.46000E-02,0.016
9.47000E-02,0.024
9.48000E-02,0.008
9.49000E-02,0.008
9.50000E-02,0.008
9.51000E-02,0.016
9.52000E-02,0.000
9.53000E-02,0.008
9.54000E-02,0.016
9.55000E-02,0.008
9.56000E-02,0.024
9.57000E-02,0.008
9.58000E-02,0.008
9.59000E-02,0.008
9.60000E-02,0.008
9.61000E-02,0.008
9.62000E-02,0.000
9.63000E-02,0.008
9.64000E-02,0.008
9.65000E-02,0.008
9.66000E-02,0.008
9.67000E-02,0.000
9.68000E-02,0.008
9.69000E-02,0.008
9.70000E-02,0.008
9.71000E-02,0.008
9.72000E-02,-0.008
9.73000E-02,-0.008
9.74000E-02,0.000
9.75000E-02,-0.008
9.76000E-02,0.000
9.77000E-02,0.000
9.78000E-02,0.000
9.79000E-02,0.000
9.80000E-02,0.000
9.81000E-02,0.000
9.82000E-02,0.000
9.83000E-02,0.000
9.84000E-02,-0.008
9.85000E-02,0.000
9.86000E-02,-0.008
9.87000E-02,0.000
9.88000E-02,-0.008
9.89000E-02,-0.008
9.90000E-02,-0.008
9.91000E-02,0.000
9.92000E-02,0.000
9.93000E-02,0.000
9.94000E-02,-0.016
9.95000E-02,-0.008
9.96000E-02,0.000
9.97000E-02,-0.008
9.98000E-02,-0.008
9.99000E-02,0.000
1.00000E-01,-0.008
1.00100E-01,-0.008
1.00200E-01,-0.016
1.00300E-01,0.000
1.00400E-01,-0.016
1.00500E-01,-0.024
1.00600E-01,-0.008
1.00700E-01,-0.008
1.00800E-01,-0.016
1.00900E-01,-0.016
1.01000E-01,-0.016
1.01100E-01,-0.008
1.01200E-01,-0.016
1.01300E-01,-0.016
1.01400E-01,-0.016
1.01500E-01,-0.016
1.01600E-01,-0.024
1.01700E-01,-0.016
1.01800E-01,-0.024
1.01900E-01,-0.016
1.02000E-01,-0.024
1.02100E-01,-0.008
1.02200E-01,-0.008
1.02300E-01,-0.016
1.02400E-01,-0.024
1.02500E-01,-0.024
1.02600E-01,-0.008
1.02700E-01,-0.016
1.02800E-01,-0.024
1.02900E-01,-0.016
1.03000E-01,-0.008
1.03100E-01,-0.016
1.03200E-01,-0.024
1.03300E-01,-0.008
1.03400E-01,-0.008
1.03500E-01,-0.016
1.03600E-01,-0.008
1.03700E-01,-0.016
1.03800E-01,-0.024
1.03900E-01,-0.016
1.04000E-01,-0.024
1.04100E-01,-0.024
1.04200E-01,-0.008
1.04300E-01,-0.016
1.04400E-01,-0.032
1.04500E-01,-0.016
1.04600E-01,-0.024
1.04700E-01,-0.016
1.04800E-01,-0.008
1.04900E-01,-0.016
1.05000E-01,-0.016
1.05100E-01,-0.024
1.05200E-01,-0.016
1.05300E-01,-0.008
1.05400E-01,-0.008
1.05500E-01,-0.016
1.05600E-01,-0.008
1.05700E-01,-0.008
1.05800E-01,-0.016
1.05900E-01,-0.024
1.06000E-01,-0.016
1.06100E-01,-0.016
1.06200E-01,-0.024
1.06300E-01,-0.016
1.06400E-01,-0.008
1.06500E-01,-0.008
1.06600E-01,-0.016
1.06700E-01,-0.016
1.06800E-01,-0.016
1.06900E-01,-0.024
1.07000E-01,-0.016
1.07100E-01,-0.008
1.07200E-01,-0.008
1.07300E-01,-0.008
1.07400E-01,-0.024
1.07500E-01,-0.008
1.07600E-01,-0.008
1.07700E-01,-0.016
1.07800E-01,0.000
1.07900E-01,-0.008
1.08000E-01,-0.024
1.08100E-01,-0.008
