data/Oscilloscope data electronics analogy/AWG 7V full sinc f 6-4 caps 33 2-2/Channel 2 voltage shunt resistor.csv

#timebase=-1474836480(ps)
,#voltbase=2000000(uV)
#size=4064
1.00000E-04,0.012
2.00000E-04,0.012
3.00000E-04,0.008
4.00000E-04,0.012
5.00000E-04,0.010
6.00000E-04,0.010
7.00000E-04,0.008
8.00000E-04,0.010
9.00000E-04,0.010
1.00000E-03,0.014
1.10000E-03,0.010
1.20000E-03,0.012
1.30000E-03,0.014
1.40000E-03,0.010
1.50000E-03,0.012
1.60000E-03,0.008
1.70000E-03,0.008
1.80000E-03,0.010
1.90000E-03,0.010
2.00000E-03,0.010
2.10000E-03,0.008
2.20000E-03,0.008
2.30000E-03,0.012
2.40000E-03,0.014
2.50000E-03,0.010
2.60000E-03,0.012
2.70000E-03,0.006
2.80000E-03,0.008
2.90000E-03,0.012
3.00000E-03,0.010
3.10000E-03,0.008
3.20000E-03,0.008
3.30000E-03,0.008
3.40000E-03,0.010
3.50000E-03,0.008
3.60000E-03,0.008
3.70000E-03,0.008
3.80000E-03,0.006
3.90000E-03,0.004
4.00000E-03,0.006
4.10000E-03,0.008
4.20000E-03,0.006
4.30000E-03,0.006
4.40000E-03,0.006
4.50000E-03,0.008
4.60000E-03,0.004
4.70000E-03,0.004
4.80000E-03,0.006
4.90000E-03,0.004
5.00000E-03,0.002
5.10000E-03,0.004
5.20000E-03,0.004
5.30000E-03,0.000
5.40000E-03,0.004
5.50000E-03,0.002
5.60000E-03,0.002
5.70000E-03,0.004
5.80000E-03,0.004
5.90000E-03,0.004
6.00000E-03,0.004
6.10000E-03,-0.002
6.20000E-03,0.000
6.30000E-03,0.000
6.40000E-03,0.000
6.50000E-03,0.002
6.60000E-03,-0.002
6.70000E-03,-0.002
6.80000E-03,-0.002
6.90000E-03,0.000
7.00000E-03,-0.004
7.10000E-03,0.000
7.20000E-03,-0.002
7.30000E-03,-0.002
7.40000E-03,-0.002
7.50000E-03,-0.004
7.60000E-03,-0.006
7.70000E-03,-0.004
7.80000E-03,-0.002
7.90000E-03,-0.008
8.00000E-03,-0.006
8.10000E-03,-0.004
8.20000E-03,-0.002
8.30000E-03,-0.004
8.40000E-03,-0.006
8.50000E-03,-0.002
8.60000E-03,-0.006
8.70000E-03,-0.010
8.80000E-03,-0.006
8.90000E-03,-0.010
9.00000E-03,-0.006
9.10000E-03,-0.004
9.20000E-03,-0.008
9.30000E-03,-0.008
9.40000E-03,-0.008
9.50000E-03,-0.010
9.60000E-03,-0.010
9.70000E-03,-0.014
9.80000E-03,-0.008
9.90000E-03,-0.010
1.00000E-02,-0.010
1.01000E-02,-0.016
1.02000E-02,-0.010
1.03000E-02,-0.010
1.04000E-02,-0.012
1.05000E-02,-0.012
1.06000E-02,-0.016
1.07000E-02,-0.014
1.08000E-02,-0.012
1.09000E-02,-0.014
1.10000E-02,-0.016
1.11000E-02,-0.012
1.12000E-02,-0.014
1.13000E-02,-0.014
1.14000E-02,-0.016
1.15000E-02,-0.016
1.16000E-02,-0.016
1.17000E-02,-0.018
1.18000E-02,-0.018
1.19000E-02,-0.016
1.20000E-02,-0.016
1.21000E-02,-0.016
1.22000E-02,-0.016
1.23000E-02,-0.018
1.24000E-02,-0.018
1.25000E-02,-0.016
1.26000E-02,-0.016
1.27000E-02,-0.018
1.28000E-02,-0.020
1.29000E-02,-0.020
1.30000E-02,-0.018
1.31000E-02,-0.020
1.32000E-02,-0.020
1.33000E-02,-0.016
1.34000E-02,-0.016
1.35000E-02,-0.018
1.36000E-02,-0.018
1.37000E-02,-0.022
1.38000E-02,-0.016
1.39000E-02,-0.016
1.40000E-02,-0.016
1.41000E-02,-0.020
1.42000E-02,-0.018
1.43000E-02,-0.018
1.44000E-02,-0.016
1.45000E-02,-0.022
1.46000E-02,-0.016
1.47000E-02,-0.020
1.48000E-02,-0.020
1.49000E-02,-0.020
1.50000E-02,-0.018
1.51000E-02,-0.022
1.52000E-02,-0.016
1.53000E-02,-0.022
1.54000E-02,-0.016
1.55000E-02,-0.018
1.56000E-02,-0.018
1.57000E-02,-0.020
1.58000E-02,-0.018
1.59000E-02,-0.016
1.60000E-02,-0.018
1.61000E-02,-0.018
1.62000E-02,-0.014
1.63000E-02,-0.016
1.64000E-02,-0.016
1.65000E-02,-0.018
1.66000E-02,-0.014
1.67000E-02,-0.018
1.68000E-02,-0.016
1.69000E-02,-0.014
1.70000E-02,-0.016
1.71000E-02,-0.014
1.72000E-02,-0.016
1.73000E-02,-0.016
1.74000E-02,-0.014
1.75000E-02,-0.012
1.76000E-02,-0.010
1.77000E-02,-0.012
1.78000E-02,-0.012
1.79000E-02,-0.012
1.80000E-02,-0.010
1.81000E-02,-0.008
1.82000E-02,-0.010
1.83000E-02,-0.008
1.84000E-02,-0.008
1.85000E-02,-0.010
1.86000E-02,-0.008
1.87000E-02,-0.006
1.88000E-02,-0.008
1.89000E-02,-0.004
1.90000E-02,-0.008
1.91000E-02,-0.008
1.92000E-02,-0.002
1.93000E-02,-0.002
1.94000E-02,0.000
1.95000E-02,0.000
1.96000E-02,-0.004
1.97000E-02,0.000
1.98000E-02,0.000
1.99000E-02,0.000
2.00000E-02,-0.002
2.01000E-02,0.000
2.02000E-02,-0.002
2.03000E-02,0.000
2.04000E-02,0.002
2.05000E-02,0.002
2.06000E-02,0.004
2.07000E-02,0.000
2.08000E-02,0.004
2.09000E-02,0.006
2.10000E-02,0.008
2.11000E-02,0.006
2.12000E-02,0.012
2.13000E-02,0.010
2.14000E-02,0.012
2.15000E-02,0.010
2.16000E-02,0.012
2.17000E-02,0.010
2.18000E-02,0.012
2.19000E-02,0.012
2.20000E-02,0.014
2.21000E-02,0.014
2.22000E-02,0.014
2.23000E-02,0.016
2.24000E-02,0.010
2.25000E-02,0.018
2.26000E-02,0.020
2.27000E-02,0.020
2.28000E-02,0.022
2.29000E-02,0.024
2.30000E-02,0.024
2.31000E-02,0.026
2.32000E-02,0.028
2.33000E-02,0.026
2.34000E-02,0.028
2.35000E-02,0.026
2.36000E-02,0.028
2.37000E-02,0.028
2.38000E-02,0.032
2.39000E-02,0.028
2.40000E-02,0.030
2.41000E-02,0.032
2.42000E-02,0.034
2.43000E-02,0.034
2.44000E-02,0.034
2.45000E-02,0.036
2.46000E-02,0.036
2.47000E-02,0.036
2.48000E-02,0.038
2.49000E-02,0.036
2.50000E-02,0.036
2.51000E-02,0.038
2.52000E-02,0.040
2.53000E-02,0.040
2.54000E-02,0.044
2.55000E-02,0.042
2.56000E-02,0.042
2.57000E-02,0.046
2.58000E-02,0.046
2.59000E-02,0.048
2.60000E-02,0.050
2.61000E-02,0.048
2.62000E-02,0.050
2.63000E-02,0.052
2.64000E-02,0.052
2.65000E-02,0.052
2.66000E-02,0.050
2.67000E-02,0.054
2.68000E-02,0.052
2.69000E-02,0.060
2.70000E-02,0.056
2.71000E-02,0.056
2.72000E-02,0.058
2.73000E-02,0.060
2.74000E-02,0.058
2.75000E-02,0.060
2.76000E-02,0.062
2.77000E-02,0.062
2.78000E-02,0.060
2.79000E-02,0.064
2.80000E-02,0.060
2.81000E-02,0.066
2.82000E-02,0.064
2.83000E-02,0.066
2.84000E-02,0.066
2.85000E-02,0.064
2.86000E-02,0.064
2.87000E-02,0.068
2.88000E-02,0.066
2.89000E-02,0.068
2.90000E-02,0.068
2.91000E-02,0.068
2.92000E-02,0.062
2.93000E-02,0.068
2.94000E-02,0.070
2.95000E-02,0.068
2.96000E-02,0.070
2.97000E-02,0.068
2.98000E-02,0.068
2.99000E-02,0.070
3.00000E-02,0.068
3.01000E-02,0.072
3.02000E-02,0.074
3.03000E-02,0.074
3.04000E-02,0.074
3.05000E-02,0.070
3.06000E-02,0.072
3.07000E-02,0.070
3.08000E-02,0.072
3.09000E-02,0.076
3.10000E-02,0.074
3.11000E-02,0.074
3.12000E-02,0.066
3.13000E-02,0.074
3.14000E-02,0.072
3.15000E-02,0.078
3.16000E-02,0.080
3.17000E-02,0.080
3.18000E-02,0.072
3.19000E-02,0.074
3.20000E-02,0.078
3.21000E-02,0.078
3.22000E-02,0.076
3.23000E-02,0.076
3.24000E-02,0.076
3.25000E-02,0.076
3.26000E-02,0.078
3.27000E-02,0.078
3.28000E-02,0.078
3.29000E-02,0.076
3.30000E-02,0.076
3.31000E-02,0.076
3.32000E-02,0.076
3.33000E-02,0.078
3.34000E-02,0.078
3.35000E-02,0.076
3.36000E-02,0.076
3.37000E-02,0.072
3.38000E-02,0.076
3.39000E-02,0.074
3.40000E-02,0.072
3.41000E-02,0.074
3.42000E-02,0.074
3.43000E-02,0.074
3.44000E-02,0.074
3.45000E-02,0.068
3.46000E-02,0.072
3.47000E-02,0.068
3.48000E-02,0.072
3.49000E-02,0.072
3.50000E-02,0.070
3.51000E-02,0.070
3.52000E-02,0.070
3.53000E-02,0.072
3.54000E-02,0.068
3.55000E-02,0.068
3.56000E-02,0.068
3.57000E-02,0.068
3.58000E-02,0.066
3.59000E-02,0.066
3.60000E-02,0.066
3.61000E-02,0.066
3.62000E-02,0.064
3.63000E-02,0.062
3.64000E-02,0.062
3.65000E-02,0.060
3.66000E-02,0.060
3.67000E-02,0.062
3.68000E-02,0.060
3.69000E-02,0.060
3.70000E-02,0.056
3.71000E-02,0.058
3.72000E-02,0.058
3.73000E-02,0.058
3.74000E-02,0.058
3.75000E-02,0.054
3.76000E-02,0.054
3.77000E-02,0.054
3.78000E-02,0.052
3.79000E-02,0.052
3.80000E-02,0.052
3.81000E-02,0.048
3.82000E-02,0.048
3.83000E-02,0.048
3.84000E-02,0.050
3.85000E-02,0.046
3.86000E-02,0.044
3.87000E-02,0.046
3.88000E-02,0.042
3.89000E-02,0.044
3.90000E-02,0.044
3.91000E-02,0.044
3.92000E-02,0.040
3.93000E-02,0.044
3.94000E-02,0.040
3.95000E-02,0.038
3.96000E-02,0.036
3.97000E-02,0.038
3.98000E-02,0.038
3.99000E-02,0.034
4.00000E-02,0.038
4.01000E-02,0.030
4.02000E-02,0.034
4.03000E-02,0.032
4.04000E-02,0.028
4.05000E-02,0.034
4.06000E-02,0.030
4.07000E-02,0.028
4.08000E-02,0.026
4.09000E-02,0.026
4.10000E-02,0.024
4.11000E-02,0.030
4.12000E-02,0.022
4.13000E-02,0.024
4.14000E-02,0.022
4.15000E-02,0.018
4.16000E-02,0.016
4.17000E-02,0.016
4.18000E-02,0.018
4.19000E-02,0.018
4.20000E-02,0.012
4.21000E-02,0.014
4.22000E-02,0.014
4.23000E-02,0.010
4.24000E-02,0.010
4.25000E-02,0.010
4.26000E-02,0.008
4.27000E-02,0.010
4.28000E-02,0.008
4.29000E-02,0.004
4.30000E-02,0.004
4.31000E-02,0.008
4.32000E-02,0.004
4.33000E-02,0.002
4.34000E-02,0.002
4.35000E-02,0.004
4.36000E-02,0.002
4.37000E-02,0.002
4.38000E-02,-0.004
4.39000E-02,0.002
4.40000E-02,-0.004
4.41000E-02,-0.002
4.42000E-02,-0.004
4.43000E-02,-0.006
4.44000E-02,-0.006
4.45000E-02,-0.008
4.46000E-02,-0.006
4.47000E-02,-0.008
4.48000E-02,-0.010
4.49000E-02,-0.012
4.50000E-02,-0.008
4.51000E-02,-0.008
4.52000E-02,-0.014
4.53000E-02,-0.012
4.54000E-02,-0.012
4.55000E-02,-0.012
4.56000E-02,-0.014
4.57000E-02,-0.014
4.58000E-02,-0.012
4.59000E-02,-0.014
4.60000E-02,-0.014
4.61000E-02,-0.014
4.62000E-02,-0.014
4.63000E-02,-0.016
4.64000E-02,-0.016
4.65000E-02,-0.018
4.66000E-02,-0.018
4.67000E-02,-0.020
4.68000E-02,-0.018
4.69000E-02,-0.020
4.70000E-02,-0.022
4.71000E-02,-0.024
4.72000E-02,-0.022
4.73000E-02,-0.022
4.74000E-02,-0.024
4.75000E-02,-0.024
4.76000E-02,-0.024
4.77000E-02,-0.022
4.78000E-02,-0.020
4.79000E-02,-0.024
4.80000E-02,-0.024
4.81000E-02,-0.026
4.82000E-02,-0.028
4.83000E-02,-0.024
4.84000E-02,-0.024
4.85000E-02,-0.026
4.86000E-02,-0.026
4.87000E-02,-0.028
4.88000E-02,-0.026
4.89000E-02,-0.028
4.90000E-02,-0.024
4.91000E-02,-0.026
4.92000E-02,-0.030
4.93000E-02,-0.028
4.94000E-02,-0.028
4.95000E-02,-0.024
4.96000E-02,-0.028
4.97000E-02,-0.032
4.98000E-02,-0.024
4.99000E-02,-0.032
5.00000E-02,-0.030
5.01000E-02,-0.030
5.02000E-02,-0.032
5.03000E-02,-0.028
5.04000E-02,-0.026
5.05000E-02,-0.030
5.06000E-02,-0.028
5.07000E-02,-0.032
5.08000E-02,-0.030
5.09000E-02,-0.028
5.10000E-02,-0.028
5.11000E-02,-0.028
5.12000E-02,-0.012
5.13000E-02,-0.030
5.14000E-02,-0.028
5.15000E-02,-0.028
5.16000E-02,-0.026
5.17000E-02,-0.040
5.18000E-02,-0.028
5.19000E-02,-0.030
5.20000E-02,-0.028
5.21000E-02,-0.032
5.22000E-02,-0.024
5.23000E-02,-0.026
5.24000E-02,-0.026
5.25000E-02,-0.026
5.26000E-02,-0.024
5.27000E-02,-0.028
5.28000E-02,-0.026
5.29000E-02,-0.024
5.30000E-02,-0.026
5.31000E-02,-0.024
5.32000E-02,-0.024
5.33000E-02,-0.026
5.34000E-02,-0.024
5.35000E-02,-0.024
5.36000E-02,-0.026
5.37000E-02,-0.026
5.38000E-02,-0.026
5.39000E-02,-0.022
5.40000E-02,-0.024
5.41000E-02,-0.022
5.42000E-02,-0.022
5.43000E-02,-0.020
5.44000E-02,-0.022
5.45000E-02,-0.020
5.46000E-02,-0.022
5.47000E-02,-0.022
5.48000E-02,-0.018
5.49000E-02,-0.020
5.50000E-02,-0.022
5.51000E-02,-0.016
5.52000E-02,-0.016
5.53000E-02,-0.022
5.54000E-02,-0.020
5.55000E-02,-0.016
5.56000E-02,-0.018
5.57000E-02,-0.018
5.58000E-02,-0.018
5.59000E-02,-0.016
5.60000E-02,-0.016
5.61000E-02,-0.014
5.62000E-02,-0.014
5.63000E-02,-0.014
5.64000E-02,-0.014
5.65000E-02,-0.012
5.66000E-02,-0.012
5.67000E-02,-0.012
5.68000E-02,-0.014
5.69000E-02,-0.012
5.70000E-02,-0.012
5.71000E-02,-0.012
5.72000E-02,-0.010
5.73000E-02,-0.006
5.74000E-02,-0.010
5.75000E-02,-0.012
5.76000E-02,-0.010
5.77000E-02,-0.006
5.78000E-02,-0.008
5.79000E-02,-0.008
5.80000E-02,-0.006
5.81000E-02,-0.006
5.82000E-02,-0.004
5.83000E-02,-0.006
5.84000E-02,-0.006
5.85000E-02,-0.006
5.86000E-02,-0.004
5.87000E-02,-0.002
5.88000E-02,-0.004
5.89000E-02,-0.006
5.90000E-02,-0.006
5.91000E-02,-0.002
5.92000E-02,0.000
5.93000E-02,-0.004
5.94000E-02,-0.002
5.95000E-02,-0.002
5.96000E-02,-0.004
5.97000E-02,-0.006
5.98000E-02,-0.004
5.99000E-02,0.002
6.00000E-02,0.002
6.01000E-02,0.000
6.02000E-02,0.000
6.03000E-02,0.000
6.04000E-02,0.000
6.05000E-02,0.002
6.06000E-02,0.000
6.07000E-02,-0.002
6.08000E-02,0.002
6.09000E-02,0.002
6.10000E-02,0.000
6.11000E-02,0.002
6.12000E-02,0.006
6.13000E-02,0.002
6.14000E-02,0.006
6.15000E-02,0.006
6.16000E-02,0.002
6.17000E-02,0.002
6.18000E-02,0.004
6.19000E-02,0.004
6.20000E-02,0.006
6.21000E-02,0.004
6.22000E-02,0.002
6.23000E-02,0.004
6.24000E-02,0.004
6.25000E-02,0.006
6.26000E-02,0.012
6.27000E-02,0.004
6.28000E-02,0.006
6.29000E-02,0.004
6.30000E-02,0.006
6.31000E-02,0.006
6.32000E-02,0.004
6.33000E-02,0.004
6.34000E-02,0.006
6.35000E-02,0.008
6.36000E-02,0.008
6.37000E-02,0.004
6.38000E-02,0.008
6.39000E-02,0.008
6.40000E-02,0.006
6.41000E-02,0.010
6.42000E-02,0.004
6.43000E-02,0.008
6.44000E-02,0.004
6.45000E-02,0.004
6.46000E-02,0.006
6.47000E-02,0.010
6.48000E-02,0.010
6.49000E-02,0.008
6.50000E-02,0.006
6.51000E-02,0.010
6.52000E-02,0.010
6.53000E-02,0.006
6.54000E-02,0.008
6.55000E-02,0.006
6.56000E-02,0.006
6.57000E-02,0.008
6.58000E-02,0.008
6.59000E-02,0.008
6.60000E-02,0.008
6.61000E-02,0.002
6.62000E-02,0.004
6.63000E-02,0.006
6.64000E-02,0.004
6.65000E-02,0.006
6.66000E-02,0.010
6.67000E-02,0.002
6.68000E-02,0.008
6.69000E-02,0.004
6.70000E-02,0.004
6.71000E-02,0.002
6.72000E-02,0.004
6.73000E-02,0.006
6.74000E-02,0.008
6.75000E-02,0.000
6.76000E-02,0.004
6.77000E-02,0.006
6.78000E-02,0.002
6.79000E-02,0.004
6.80000E-02,0.004
6.81000E-02,0.002
6.82000E-02,0.004
6.83000E-02,0.006
6.84000E-02,0.002
6.85000E-02,0.000
6.86000E-02,0.004
6.87000E-02,0.020
6.88000E-02,0.000
6.89000E-02,0.000
6.90000E-02,0.002
6.91000E-02,0.002
6.92000E-02,0.002
6.93000E-02,0.002
6.94000E-02,0.002
6.95000E-02,0.004
6.96000E-02,0.004
6.97000E-02,-0.002
6.98000E-02,0.000
6.99000E-02,0.002
7.00000E-02,0.000
7.01000E-02,-0.006
7.02000E-02,0.002
7.03000E-02,-0.004
7.04000E-02,-0.004
7.05000E-02,0.002
7.06000E-02,-0.006
7.07000E-02,-0.004
7.08000E-02,0.002
7.09000E-02,-0.006
7.10000E-02,-0.004
7.11000E-02,-0.002
7.12000E-02,0.000
7.13000E-02,-0.004
7.14000E-02,-0.004
7.15000E-02,-0.002
7.16000E-02,-0.004
7.17000E-02,-0.006
7.18000E-02,-0.004
7.19000E-02,-0.004
7.20000E-02,-0.004
7.21000E-02,-0.006
7.22000E-02,-0.008
7.23000E-02,-0.004
7.24000E-02,-0.006
7.25000E-02,-0.004
7.26000E-02,-0.006
7.27000E-02,-0.002
7.28000E-02,-0.006
7.29000E-02,-0.008
7.30000E-02,-0.006
7.31000E-02,-0.004
7.32000E-02,-0.008
7.33000E-02,-0.008
7.34000E-02,-0.008
7.35000E-02,-0.006
7.36000E-02,-0.006
7.37000E-02,-0.008
7.38000E-02,-0.008
7.39000E-02,-0.010
7.40000E-02,-0.006
7.41000E-02,-0.008
7.42000E-02,-0.008
7.43000E-02,-0.008
7.44000E-02,-0.008
7.45000E-02,-0.010
7.46000E-02,-0.010
7.47000E-02,-0.008
7.48000E-02,-0.010
7.49000E-02,-0.008
7.50000E-02,-0.012
7.51000E-02,-0.008
7.52000E-02,-0.010
7.53000E-02,-0.012
7.54000E-02,-0.012
7.55000E-02,-0.008
7.56000E-02,-0.008
7.57000E-02,-0.010
7.58000E-02,-0.008
7.59000E-02,-0.012
7.60000E-02,-0.014
7.61000E-02,-0.008
7.62000E-02,-0.010
7.63000E-02,-0.010
7.64000E-02,-0.012
7.65000E-02,-0.012
7.66000E-02,-0.012
7.67000E-02,-0.010
7.68000E-02,-0.012
7.69000E-02,-0.010
7.70000E-02,-0.010
7.71000E-02,-0.010
7.72000E-02,-0.010
7.73000E-02,-0.010
7.74000E-02,-0.018
7.75000E-02,-0.008
7.76000E-02,-0.018
7.77000E-02,-0.014
7.78000E-02,-0.014
7.79000E-02,-0.010
7.80000E-02,-0.012
7.81000E-02,-0.012
7.82000E-02,-0.010
7.83000E-02,-0.014
7.84000E-02,-0.010
7.85000E-02,-0.012
7.86000E-02,-0.012
7.87000E-02,-0.010
7.88000E-02,-0.014
7.89000E-02,-0.012
7.90000E-02,-0.012
7.91000E-02,-0.010
7.92000E-02,-0.012
7.93000E-02,-0.014
7.94000E-02,-0.010
7.95000E-02,-0.008
7.96000E-02,-0.010
7.97000E-02,-0.010
7.98000E-02,-0.012
7.99000E-02,-0.010
8.00000E-02,-0.012
8.01000E-02,-0.008
8.02000E-02,-0.012
8.03000E-02,-0.008
8.04000E-02,-0.014
8.05000E-02,-0.010
8.06000E-02,-0.004
8.07000E-02,-0.008
8.08000E-02,-0.010
8.09000E-02,-0.010
8.10000E-02,-0.010
8.11000E-02,-0.008
8.12000E-02,-0.010
8.13000E-02,-0.006
8.14000E-02,-0.012
8.15000E-02,-0.008
8.16000E-02,-0.008
8.17000E-02,-0.008
8.18000E-02,-0.010
8.19000E-02,-0.010
8.20000E-02,-0.008
8.21000E-02,-0.006
8.22000E-02,-0.008
8.23000E-02,0.000
8.24000E-02,-0.010
8.25000E-02,-0.008
8.26000E-02,-0.004
8.27000E-02,-0.006
8.28000E-02,-0.006
8.29000E-02,-0.004
8.30000E-02,-0.006
8.31000E-02,-0.008
8.32000E-02,-0.006
8.33000E-02,-0.006
8.34000E-02,-0.006
8.35000E-02,-0.004
8.36000E-02,-0.006
8.37000E-02,-0.006
8.38000E-02,-0.004
8.39000E-02,-0.006
8.40000E-02,-0.004
8.41000E-02,-0.006
8.42000E-02,-0.004
8.43000E-02,-0.002
8.44000E-02,-0.002
8.45000E-02,-0.006
8.46000E-02,-0.002
8.47000E-02,-0.002
8.48000E-02,-0.002
8.49000E-02,-0.006
8.50000E-02,0.000
8.51000E-02,-0.002
8.52000E-02,-0.002
8.53000E-02,0.000
8.54000E-02,-0.002
8.55000E-02,-0.002
8.56000E-02,-0.002
8.57000E-02,0.000
8.58000E-02,-0.002
8.59000E-02,-0.002
8.60000E-02,0.000
8.61000E-02,-0.002
8.62000E-02,-0.004
8.63000E-02,0.002
8.64000E-02,-0.002
8.65000E-02,0.000
8.66000E-02,0.000
8.67000E-02,0.000
8.68000E-02,0.000
8.69000E-02,0.000
8.70000E-02,0.002
8.71000E-02,-0.002
8.72000E-02,-0.002
8.73000E-02,0.000
8.74000E-02,-0.002
8.75000E-02,0.000
8.76000E-02,0.000
8.77000E-02,0.000
8.78000E-02,-0.002
8.79000E-02,0.002
8.80000E-02,0.000
8.81000E-02,0.002
8.82000E-02,0.000
8.83000E-02,0.002
8.84000E-02,0.002
8.85000E-02,0.002
8.86000E-02,0.002
8.87000E-02,0.002
8.88000E-02,0.004
8.89000E-02,0.002
8.90000E-02,0.002
8.91000E-02,0.000
8.92000E-02,0.002
8.93000E-02,0.000
8.94000E-02,0.000
8.95000E-02,0.000
8.96000E-02,0.002
8.97000E-02,0.004
8.98000E-02,0.006
8.99000E-02,0.002
9.00000E-02,0.024
9.01000E-02,0.002
9.02000E-02,0.002
9.03000E-02,0.002
9.04000E-02,0.000
9.05000E-02,0.004
9.06000E-02,0.004
9.07000E-02,0.004
9.08000E-02,0.002
9.09000E-02,0.000
9.10000E-02,0.002
9.11000E-02,0.002
9.12000E-02,0.008
9.13000E-02,0.004
9.14000E-02,0.000
9.15000E-02,0.006
9.16000E-02,0.006
9.17000E-02,0.004
9.18000E-02,0.004
9.19000E-02,0.000
9.20000E-02,0.004
9.21000E-02,0.002
9.22000E-02,0.002
9.23000E-02,0.002
9.24000E-02,0.004
9.25000E-02,0.002
9.26000E-02,0.000
9.27000E-02,0.004
9.28000E-02,0.000
9.29000E-02,0.002
9.30000E-02,0.002
9.31000E-02,0.002
9.32000E-02,0.008
9.33000E-02,0.002
9.34000E-02,0.000
9.35000E-02,0.000
9.36000E-02,0.002
9.37000E-02,0.002
9.38000E-02,0.002
9.39000E-02,0.002
9.40000E-02,0.000
9.41000E-02,0.002
9.42000E-02,0.002
9.43000E-02,0.000
9.44000E-02,0.006
9.45000E-02,0.000
9.46000E-02,0.000
9.47000E-02,0.002
9.48000E-02,-0.002
9.49000E-02,0.000
9.50000E-02,0.000
9.51000E-02,0.000
9.52000E-02,0.002
9.53000E-02,0.004
9.54000E-02,-0.002
9.55000E-02,0.000
9.56000E-02,0.000
9.57000E-02,0.000
9.58000E-02,0.000
9.59000E-02,0.000
9.60000E-02,0.000
9.61000E-02,-0.002
9.62000E-02,0.000
9.63000E-02,0.000
9.64000E-02,0.000
9.65000E-02,0.000
9.66000E-02,-0.002
9.67000E-02,0.000
9.68000E-02,0.000
9.69000E-02,-0.002
9.70000E-02,0.002
9.71000E-02,-0.004
9.72000E-02,0.002
9.73000E-02,0.000
9.74000E-02,-0.002
9.75000E-02,0.002
9.76000E-02,-0.002
9.77000E-02,-0.002
9.78000E-02,-0.002
9.79000E-02,-0.004
9.80000E-02,-0.006
9.81000E-02,-0.002
9.82000E-02,-0.004
9.83000E-02,0.000
9.84000E-02,-0.004
9.85000E-02,-0.006
9.86000E-02,-0.002
9.87000E-02,-0.002
9.88000E-02,-0.002
9.89000E-02,-0.002
9.90000E-02,-0.002
9.91000E-02,-0.002
9.92000E-02,-0.004
9.93000E-02,-0.006
9.94000E-02,-0.004
9.95000E-02,-0.008
9.96000E-02,-0.002
9.97000E-02,-0.004
9.98000E-02,-0.002
9.99000E-02,-0.008
1.00000E-01,-0.002
1.00100E-01,-0.008
1.00200E-01,-0.010
1.00300E-01,-0.006
1.00400E-01,-0.012
1.00500E-01,0.002
1.00600E-01,-0.006
1.00700E-01,-0.004
1.00800E-01,-0.002
1.00900E-01,-0.004
1.01000E-01,-0.004
1.01100E-01,-0.006
1.01200E-01,-0.006
1.01300E-01,-0.008
1.01400E-01,-0.008
1.01500E-01,-0.006
1.01600E-01,-0.004
1.01700E-01,-0.008
1.01800E-01,-0.004
1.01900E-01,-0.008
1.02000E-01,-0.004
1.02100E-01,-0.006
1.02200E-01,-0.008
1.02300E-01,-0.006
1.02400E-01,-0.008
1.02500E-01,-0.008
1.02600E-01,-0.006
1.02700E-01,-0.008
1.02800E-01,-0.008
1.02900E-01,-0.004
1.03000E-01,-0.006
1.03100E-01,-0.006
1.03200E-01,-0.006
1.03300E-01,-0.008
1.03400E-01,-0.008
1.03500E-01,-0.008
1.03600E-01,-0.008
1.03700E-01,-0.008
1.03800E-01,-0.006
1.03900E-01,-0.010
1.04000E-01,-0.006
1.04100E-01,-0.008
1.04200E-01,-0.008
1.04300E-01,-0.006
1.04400E-01,-0.008
1.04500E-01,-0.006
1.04600E-01,-0.014
1.04700E-01,-0.010
1.04800E-01,-0.008
1.04900E-01,-0.008
1.05000E-01,-0.010
1.05100E-01,-0.006
1.05200E-01,-0.006
1.05300E-01,-0.004
1.05400E-01,-0.006
1.05500E-01,-0.006
1.05600E-01,-0.006
1.05700E-01,-0.006
1.05800E-01,-0.004
1.05900E-01,-0.006
1.06000E-01,-0.008
1.06100E-01,-0.008
1.06200E-01,-0.006
1.06300E-01,-0.006
1.06400E-01,-0.004
1.06500E-01,-0.006
1.06600E-01,-0.008
1.06700E-01,-0.006
1.06800E-01,-0.004
1.06900E-01,-0.006
1.07000E-01,-0.010
1.07100E-01,-0.008
1.07200E-01,-0.006
1.07300E-01,-0.006
1.07400E-01,-0.006
1.07500E-01,-0.006
1.07600E-01,-0.004
