notebooks/Oscilloscope data CRI electronics analogy/AWG 7V half sinc f 0-4 caps 33 2-2/Channel 2 voltage shunt resistor.csv

#timebase=-1863462912(ps)
,#voltbase=2000000(uV)
#size=4064
1.00000E-03,-0.002
2.00000E-03,-0.002
3.00000E-03,0.000
4.00000E-03,0.002
5.00000E-03,-0.002
6.00000E-03,-0.002
7.00000E-03,0.002
8.00000E-03,-0.002
9.00000E-03,0.000
1.00000E-02,0.002
1.10000E-02,0.002
1.20000E-02,0.002
1.30000E-02,-0.002
1.40000E-02,0.000
1.50000E-02,0.002
1.60000E-02,0.000
1.70000E-02,0.004
1.80000E-02,-0.002
1.90000E-02,-0.002
2.00000E-02,0.000
2.10000E-02,-0.002
2.20000E-02,0.000
2.30000E-02,0.000
2.40000E-02,0.000
2.50000E-02,0.002
2.60000E-02,0.002
2.70000E-02,-0.002
2.80000E-02,-0.002
2.90000E-02,0.000
3.00000E-02,-0.002
3.10000E-02,0.000
3.20000E-02,-0.002
3.30000E-02,-0.002
3.40000E-02,0.000
3.50000E-02,0.000
3.60000E-02,0.000
3.70000E-02,0.000
3.80000E-02,0.000
3.90000E-02,0.000
4.00000E-02,0.000
4.10000E-02,0.000
4.20000E-02,0.000
4.30000E-02,0.002
4.40000E-02,0.000
4.50000E-02,-0.002
4.60000E-02,0.000
4.70000E-02,-0.006
4.80000E-02,0.000
4.90000E-02,-0.002
5.00000E-02,0.000
5.10000E-02,-0.002
5.20000E-02,0.000
5.30000E-02,0.000
5.40000E-02,0.000
5.50000E-02,-0.002
5.60000E-02,0.000
5.70000E-02,0.000
5.80000E-02,-0.002
5.90000E-02,0.000
6.00000E-02,0.002
6.10000E-02,0.002
6.20000E-02,-0.002
6.30000E-02,-0.002
6.40000E-02,0.000
6.50000E-02,-0.002
6.60000E-02,0.000
6.70000E-02,0.018
6.80000E-02,0.002
6.90000E-02,0.000
7.00000E-02,-0.002
7.10000E-02,0.000
7.20000E-02,0.000
7.30000E-02,0.000
7.40000E-02,-0.002
7.50000E-02,0.000
7.60000E-02,0.000
7.70000E-02,0.000
7.80000E-02,0.000
7.90000E-02,0.000
8.00000E-02,0.000
8.10000E-02,-0.002
8.20000E-02,-0.004
8.30000E-02,-0.002
8.40000E-02,-0.002
8.50000E-02,-0.002
8.60000E-02,-0.002
8.70000E-02,-0.002
8.80000E-02,0.000
8.90000E-02,-0.002
9.00000E-02,-0.002
9.10000E-02,0.000
9.20000E-02,-0.004
9.30000E-02,0.000
9.40000E-02,-0.004
9.50000E-02,0.000
9.60000E-02,0.000
9.70000E-02,0.000
9.80000E-02,-0.004
9.90000E-02,0.000
1.00000E-01,-0.002
1.01000E-01,-0.002
1.02000E-01,-0.002
1.03000E-01,0.000
1.04000E-01,-0.002
1.05000E-01,-0.002
1.06000E-01,0.008
1.07000E-01,-0.004
1.08000E-01,-0.006
1.09000E-01,-0.002
1.10000E-01,-0.002
1.11000E-01,0.000
1.12000E-01,-0.002
1.13000E-01,-0.002
1.14000E-01,-0.004
1.15000E-01,-0.004
1.16000E-01,0.002
1.17000E-01,0.000
1.18000E-01,-0.002
1.19000E-01,-0.002
1.20000E-01,0.000
1.21000E-01,-0.002
1.22000E-01,0.000
1.23000E-01,0.000
1.24000E-01,0.002
1.25000E-01,-0.002
1.26000E-01,-0.002
1.27000E-01,-0.008
1.28000E-01,-0.002
1.29000E-01,-0.004
1.30000E-01,-0.006
1.31000E-01,-0.004
1.32000E-01,-0.004
1.33000E-01,-0.004
1.34000E-01,0.000
1.35000E-01,0.000
1.36000E-01,-0.002
1.37000E-01,-0.004
1.38000E-01,0.000
1.39000E-01,-0.004
1.40000E-01,0.000
1.41000E-01,-0.004
1.42000E-01,-0.004
1.43000E-01,0.000
1.44000E-01,-0.002
1.45000E-01,-0.002
1.46000E-01,-0.004
1.47000E-01,-0.002
1.48000E-01,-0.002
1.49000E-01,-0.004
1.50000E-01,0.000
1.51000E-01,-0.002
1.52000E-01,0.000
1.53000E-01,0.000
1.54000E-01,-0.002
1.55000E-01,-0.002
1.56000E-01,-0.002
1.57000E-01,0.000
1.58000E-01,-0.004
1.59000E-01,-0.002
1.60000E-01,-0.002
1.61000E-01,0.000
1.62000E-01,0.000
1.63000E-01,-0.002
1.64000E-01,0.000
1.65000E-01,-0.002
1.66000E-01,0.000
1.67000E-01,0.000
1.68000E-01,-0.004
1.69000E-01,-0.004
1.70000E-01,0.000
1.71000E-01,-0.002
1.72000E-01,-0.006
1.73000E-01,-0.002
1.74000E-01,-0.002
1.75000E-01,-0.002
1.76000E-01,0.000
1.77000E-01,-0.004
1.78000E-01,-0.004
1.79000E-01,0.000
1.80000E-01,0.000
1.81000E-01,0.000
1.82000E-01,0.000
1.83000E-01,-0.002
1.84000E-01,-0.004
1.85000E-01,0.000
1.86000E-01,0.000
1.87000E-01,0.000
1.88000E-01,-0.010
1.89000E-01,-0.008
1.90000E-01,-0.002
1.91000E-01,-0.002
1.92000E-01,-0.002
1.93000E-01,-0.004
1.94000E-01,-0.002
1.95000E-01,-0.002
1.96000E-01,0.000
1.97000E-01,-0.002
1.98000E-01,0.000
1.99000E-01,0.000
2.00000E-01,-0.002
2.01000E-01,-0.002
2.02000E-01,0.000
2.03000E-01,-0.002
2.04000E-01,0.000
2.05000E-01,0.000
2.06000E-01,-0.002
2.07000E-01,0.002
2.08000E-01,-0.002
2.09000E-01,0.000
2.10000E-01,0.000
2.11000E-01,0.000
2.12000E-01,0.000
2.13000E-01,-0.002
2.14000E-01,0.000
2.15000E-01,0.000
2.16000E-01,-0.002
2.17000E-01,0.000
2.18000E-01,-0.002
2.19000E-01,0.000
2.20000E-01,0.000
2.21000E-01,0.000
2.22000E-01,0.002
2.23000E-01,0.004
2.24000E-01,-0.002
2.25000E-01,-0.002
2.26000E-01,0.000
2.27000E-01,-0.002
2.28000E-01,-0.002
2.29000E-01,0.000
2.30000E-01,0.000
2.31000E-01,-0.002
2.32000E-01,0.000
2.33000E-01,-0.004
2.34000E-01,0.000
2.35000E-01,0.000
2.36000E-01,0.000
2.37000E-01,0.000
2.38000E-01,0.000
2.39000E-01,0.000
2.40000E-01,0.002
2.41000E-01,0.000
2.42000E-01,0.000
2.43000E-01,0.000
2.44000E-01,0.000
2.45000E-01,0.000
2.46000E-01,0.000
2.47000E-01,-0.002
2.48000E-01,0.006
2.49000E-01,0.000
2.50000E-01,-0.002
2.51000E-01,0.000
2.52000E-01,0.000
2.53000E-01,0.000
2.54000E-01,0.000
2.55000E-01,0.000
2.56000E-01,0.000
2.57000E-01,0.000
2.58000E-01,0.000
2.59000E-01,0.000
2.60000E-01,-0.002
2.61000E-01,0.000
2.62000E-01,0.000
2.63000E-01,-0.006
2.64000E-01,-0.002
2.65000E-01,0.000
2.66000E-01,0.000
2.67000E-01,0.000
2.68000E-01,0.000
2.69000E-01,0.000
2.70000E-01,0.000
2.71000E-01,0.000
2.72000E-01,-0.002
2.73000E-01,-0.002
2.74000E-01,0.000
2.75000E-01,-0.002
2.76000E-01,0.000
2.77000E-01,0.000
2.78000E-01,0.000
2.79000E-01,0.000
2.80000E-01,0.000
2.81000E-01,0.000
2.82000E-01,0.000
2.83000E-01,-0.002
2.84000E-01,0.000
2.85000E-01,0.000
2.86000E-01,0.000
2.87000E-01,-0.002
2.88000E-01,-0.002
2.89000E-01,0.000
2.90000E-01,-0.002
2.91000E-01,0.000
2.92000E-01,-0.002
2.93000E-01,-0.002
2.94000E-01,0.000
2.95000E-01,0.002
2.96000E-01,0.002
2.97000E-01,0.000
2.98000E-01,0.000
2.99000E-01,0.000
3.00000E-01,0.000
3.01000E-01,0.002
3.02000E-01,0.004
3.03000E-01,0.002
3.04000E-01,0.000
3.05000E-01,0.000
3.06000E-01,0.000
3.07000E-01,0.000
3.08000E-01,0.000
3.09000E-01,0.000
3.10000E-01,0.000
3.11000E-01,0.004
3.12000E-01,-0.002
3.13000E-01,0.000
3.14000E-01,0.000
3.15000E-01,0.004
3.16000E-01,-0.002
3.17000E-01,0.000
3.18000E-01,0.000
3.19000E-01,0.002
3.20000E-01,0.000
3.21000E-01,0.002
3.22000E-01,0.002
3.23000E-01,0.002
3.24000E-01,0.002
3.25000E-01,0.002
3.26000E-01,0.002
3.27000E-01,0.004
3.28000E-01,-0.002
3.29000E-01,0.002
3.30000E-01,0.000
3.31000E-01,0.000
3.32000E-01,0.002
3.33000E-01,0.000
3.34000E-01,0.002
3.35000E-01,0.004
3.36000E-01,0.000
3.37000E-01,0.000
3.38000E-01,0.000
3.39000E-01,0.000
3.40000E-01,0.000
3.41000E-01,0.002
3.42000E-01,0.002
3.43000E-01,0.000
3.44000E-01,0.002
3.45000E-01,0.002
3.46000E-01,0.002
3.47000E-01,-0.002
3.48000E-01,-0.004
3.49000E-01,0.002
3.50000E-01,0.002
3.51000E-01,0.004
3.52000E-01,-0.002
3.53000E-01,0.000
3.54000E-01,0.000
3.55000E-01,0.004
3.56000E-01,0.000
3.57000E-01,0.000
3.58000E-01,0.002
3.59000E-01,0.002
3.60000E-01,0.002
3.61000E-01,0.000
3.62000E-01,0.002
3.63000E-01,0.002
3.64000E-01,0.002
3.65000E-01,0.002
3.66000E-01,0.000
3.67000E-01,0.002
3.68000E-01,0.004
3.69000E-01,0.004
3.70000E-01,0.002
3.71000E-01,0.000
3.72000E-01,0.002
3.73000E-01,0.002
3.74000E-01,0.000
3.75000E-01,0.000
3.76000E-01,0.002
3.77000E-01,0.000
3.78000E-01,0.002
3.79000E-01,0.004
3.80000E-01,0.004
3.81000E-01,0.004
3.82000E-01,0.004
3.83000E-01,0.004
3.84000E-01,0.000
3.85000E-01,0.000
3.86000E-01,0.000
3.87000E-01,0.002
3.88000E-01,0.002
3.89000E-01,0.004
3.90000E-01,0.000
3.91000E-01,0.002
3.92000E-01,0.006
3.93000E-01,0.002
3.94000E-01,0.000
3.95000E-01,0.002
3.96000E-01,0.002
3.97000E-01,0.002
3.98000E-01,0.000
3.99000E-01,0.000
4.00000E-01,0.002
4.01000E-01,0.000
4.02000E-01,0.002
4.03000E-01,0.004
4.04000E-01,0.002
4.05000E-01,0.002
4.06000E-01,0.002
4.07000E-01,0.002
4.08000E-01,0.002
4.09000E-01,-0.002
4.10000E-01,-0.002
4.11000E-01,0.000
4.12000E-01,0.000
4.13000E-01,0.000
4.14000E-01,0.002
4.15000E-01,0.002
4.16000E-01,0.002
4.17000E-01,-0.002
4.18000E-01,0.000
4.19000E-01,0.002
4.20000E-01,0.002
4.21000E-01,0.000
4.22000E-01,0.000
4.23000E-01,0.002
4.24000E-01,0.002
4.25000E-01,0.002
4.26000E-01,-0.002
4.27000E-01,0.002
4.28000E-01,0.002
4.29000E-01,-0.002
4.30000E-01,0.004
4.31000E-01,0.000
4.32000E-01,-0.002
4.33000E-01,0.002
4.34000E-01,0.000
4.35000E-01,0.002
4.36000E-01,0.002
4.37000E-01,0.004
4.38000E-01,0.004
4.39000E-01,0.002
4.40000E-01,0.000
4.41000E-01,0.002
4.42000E-01,0.002
4.43000E-01,0.000
4.44000E-01,0.002
4.45000E-01,0.004
4.46000E-01,0.002
4.47000E-01,0.002
4.48000E-01,0.002
4.49000E-01,0.004
4.50000E-01,0.004
4.51000E-01,-0.002
4.52000E-01,0.002
4.53000E-01,0.000
4.54000E-01,0.002
4.55000E-01,0.000
4.56000E-01,0.000
4.57000E-01,0.000
4.58000E-01,0.000
4.59000E-01,0.002
4.60000E-01,0.000
4.61000E-01,0.002
4.62000E-01,0.002
4.63000E-01,0.000
4.64000E-01,0.000
4.65000E-01,0.000
4.66000E-01,0.000
4.67000E-01,0.000
4.68000E-01,0.002
4.69000E-01,0.004
4.70000E-01,0.004
4.71000E-01,-0.002
4.72000E-01,0.000
4.73000E-01,0.002
4.74000E-01,-0.002
4.75000E-01,0.000
4.76000E-01,-0.002
4.77000E-01,0.000
4.78000E-01,0.002
4.79000E-01,0.000
4.80000E-01,0.000
4.81000E-01,0.000
4.82000E-01,0.000
4.83000E-01,0.000
4.84000E-01,0.000
4.85000E-01,0.002
4.86000E-01,0.000
4.87000E-01,0.002
4.88000E-01,0.002
4.89000E-01,0.004
4.90000E-01,-0.002
4.91000E-01,0.000
4.92000E-01,0.000
4.93000E-01,0.004
4.94000E-01,-0.002
4.95000E-01,-0.002
4.96000E-01,0.000
4.97000E-01,0.002
4.98000E-01,0.000
4.99000E-01,-0.002
5.00000E-01,0.002
5.01000E-01,0.002
5.02000E-01,-0.002
5.03000E-01,-0.002
5.04000E-01,0.000
5.05000E-01,0.004
5.06000E-01,0.002
5.07000E-01,0.002
5.08000E-01,-0.006
5.09000E-01,0.002
5.10000E-01,0.002
5.11000E-01,0.002
5.12000E-01,0.002
5.13000E-01,0.002
5.14000E-01,0.004
5.15000E-01,0.002
5.16000E-01,0.002
5.17000E-01,-0.002
5.18000E-01,-0.002
5.19000E-01,0.000
5.20000E-01,0.000
5.21000E-01,0.000
5.22000E-01,0.000
5.23000E-01,0.000
5.24000E-01,0.000
5.25000E-01,0.000
5.26000E-01,0.000
5.27000E-01,-0.002
5.28000E-01,0.000
5.29000E-01,0.000
5.30000E-01,0.000
5.31000E-01,0.000
5.32000E-01,0.000
5.33000E-01,0.000
5.34000E-01,0.000
5.35000E-01,0.004
5.36000E-01,0.000
5.37000E-01,0.000
5.38000E-01,0.000
5.39000E-01,0.000
5.40000E-01,0.000
5.41000E-01,-0.002
5.42000E-01,0.000
5.43000E-01,-0.002
5.44000E-01,-0.002
5.45000E-01,0.000
5.46000E-01,-0.002
5.47000E-01,-0.002
5.48000E-01,0.000
5.49000E-01,-0.002
5.50000E-01,0.002
5.51000E-01,-0.002
5.52000E-01,0.000
5.53000E-01,0.000
5.54000E-01,0.000
5.55000E-01,0.000
5.56000E-01,0.000
5.57000E-01,0.000
5.58000E-01,-0.002
5.59000E-01,-0.002
5.60000E-01,0.000
5.61000E-01,0.000
5.62000E-01,0.000
5.63000E-01,0.002
5.64000E-01,0.002
5.65000E-01,-0.004
5.66000E-01,-0.002
5.67000E-01,-0.002
5.68000E-01,-0.018
5.69000E-01,-0.004
5.70000E-01,-0.002
5.71000E-01,0.000
5.72000E-01,0.000
5.73000E-01,-0.002
5.74000E-01,0.000
5.75000E-01,-0.002
5.76000E-01,0.000
5.77000E-01,0.002
5.78000E-01,0.000
5.79000E-01,0.000
5.80000E-01,0.000
5.81000E-01,0.000
5.82000E-01,0.000
5.83000E-01,0.000
5.84000E-01,0.002
5.85000E-01,-0.004
5.86000E-01,-0.002
5.87000E-01,0.000
5.88000E-01,-0.008
5.89000E-01,0.000
5.90000E-01,-0.004
5.91000E-01,0.000
5.92000E-01,0.000
5.93000E-01,0.000
5.94000E-01,-0.006
5.95000E-01,-0.004
5.96000E-01,0.002
5.97000E-01,-0.002
5.98000E-01,-0.002
5.99000E-01,0.000
6.00000E-01,-0.002
6.01000E-01,-0.002
6.02000E-01,0.002
6.03000E-01,-0.002
6.04000E-01,0.000
6.05000E-01,-0.002
6.06000E-01,0.000
6.07000E-01,0.000
6.08000E-01,0.000
6.09000E-01,0.000
6.10000E-01,0.000
6.11000E-01,-0.002
6.12000E-01,0.000
6.13000E-01,0.000
6.14000E-01,0.000
6.15000E-01,-0.002
6.16000E-01,0.000
6.17000E-01,-0.002
6.18000E-01,0.002
6.19000E-01,0.000
6.20000E-01,0.000
6.21000E-01,-0.002
6.22000E-01,-0.002
6.23000E-01,0.000
6.24000E-01,0.000
6.25000E-01,0.000
6.26000E-01,0.000
6.27000E-01,-0.002
6.28000E-01,-0.002
6.29000E-01,0.000
6.30000E-01,0.000
6.31000E-01,-0.002
6.32000E-01,0.000
6.33000E-01,-0.002
6.34000E-01,-0.002
6.35000E-01,0.000
6.36000E-01,0.000
6.37000E-01,0.000
6.38000E-01,0.004
6.39000E-01,-0.002
6.40000E-01,-0.002
6.41000E-01,-0.002
6.42000E-01,-0.002
6.43000E-01,-0.002
6.44000E-01,0.000
6.45000E-01,0.000
6.46000E-01,0.002
6.47000E-01,0.000
6.48000E-01,0.000
6.49000E-01,-0.004
6.50000E-01,0.000
6.51000E-01,-0.002
6.52000E-01,0.000
6.53000E-01,-0.002
6.54000E-01,-0.002
6.55000E-01,0.000
6.56000E-01,0.002
6.57000E-01,-0.006
6.58000E-01,-0.002
6.59000E-01,-0.002
6.60000E-01,0.000
6.61000E-01,0.000
6.62000E-01,0.000
6.63000E-01,-0.004
6.64000E-01,0.002
6.65000E-01,0.000
6.66000E-01,-0.002
6.67000E-01,0.000
6.68000E-01,-0.004
6.69000E-01,-0.002
6.70000E-01,0.000
6.71000E-01,0.000
6.72000E-01,0.000
6.73000E-01,-0.002
6.74000E-01,-0.002
6.75000E-01,-0.002
6.76000E-01,0.000
6.77000E-01,0.008
6.78000E-01,0.000
6.79000E-01,0.000
6.80000E-01,-0.002
6.81000E-01,0.000
6.82000E-01,-0.002
6.83000E-01,0.000
6.84000E-01,-0.008
6.85000E-01,-0.002
6.86000E-01,-0.002
6.87000E-01,0.000
6.88000E-01,-0.008
6.89000E-01,0.000
6.90000E-01,0.000
6.91000E-01,0.000
6.92000E-01,-0.002
6.93000E-01,-0.002
6.94000E-01,-0.006
6.95000E-01,-0.002
6.96000E-01,-0.002
6.97000E-01,0.000
6.98000E-01,0.000
6.99000E-01,-0.004
7.00000E-01,-0.004
7.01000E-01,0.002
7.02000E-01,0.000
7.03000E-01,0.000
7.04000E-01,-0.002
7.05000E-01,0.000
7.06000E-01,0.000
7.07000E-01,0.000
7.08000E-01,0.002
7.09000E-01,0.000
7.10000E-01,-0.002
7.11000E-01,-0.002
7.12000E-01,0.000
7.13000E-01,-0.002
7.14000E-01,0.000
7.15000E-01,0.000
7.16000E-01,-0.002
7.17000E-01,0.000
7.18000E-01,-0.002
7.19000E-01,0.000
7.20000E-01,-0.002
7.21000E-01,-0.002
7.22000E-01,-0.002
7.23000E-01,0.000
7.24000E-01,-0.002
7.25000E-01,0.000
7.26000E-01,0.000
7.27000E-01,0.000
7.28000E-01,0.000
7.29000E-01,0.000
7.30000E-01,0.000
7.31000E-01,-0.002
7.32000E-01,-0.002
7.33000E-01,0.000
7.34000E-01,0.002
7.35000E-01,-0.002
7.36000E-01,0.000
7.37000E-01,0.000
7.38000E-01,-0.002
7.39000E-01,0.000
7.40000E-01,0.000
7.41000E-01,0.000
7.42000E-01,-0.002
7.43000E-01,0.000
7.44000E-01,0.000
7.45000E-01,0.000
7.46000E-01,0.000
7.47000E-01,0.000
7.48000E-01,0.000
7.49000E-01,0.000
7.50000E-01,0.000
7.51000E-01,-0.002
7.52000E-01,0.000
7.53000E-01,0.000
7.54000E-01,0.000
7.55000E-01,-0.002
7.56000E-01,0.000
7.57000E-01,-0.002
7.58000E-01,0.000
7.59000E-01,0.000
7.60000E-01,0.000
7.61000E-01,0.000
7.62000E-01,0.002
7.63000E-01,0.000
7.64000E-01,0.000
7.65000E-01,0.000
7.66000E-01,0.000
7.67000E-01,0.004
7.68000E-01,-0.002
7.69000E-01,0.000
7.70000E-01,0.000
7.71000E-01,0.000
7.72000E-01,0.000
7.73000E-01,0.000
7.74000E-01,0.000
7.75000E-01,0.000
7.76000E-01,0.002
7.77000E-01,0.002
7.78000E-01,-0.002
7.79000E-01,0.000
7.80000E-01,0.000
7.81000E-01,0.000
7.82000E-01,0.000
7.83000E-01,-0.002
7.84000E-01,0.000
7.85000E-01,0.000
7.86000E-01,0.000
7.87000E-01,0.000
7.88000E-01,0.000
7.89000E-01,0.000
7.90000E-01,0.000
7.91000E-01,0.000
7.92000E-01,0.000
7.93000E-01,0.000
7.94000E-01,0.000
7.95000E-01,0.000
7.96000E-01,-0.002
7.97000E-01,0.002
7.98000E-01,0.006
7.99000E-01,0.002
8.00000E-01,0.000
8.01000E-01,0.000
8.02000E-01,0.000
8.03000E-01,0.000
8.04000E-01,0.000
8.05000E-01,0.104
8.06000E-01,0.098
8.07000E-01,0.094
8.08000E-01,0.088
8.09000E-01,0.084
8.10000E-01,0.080
8.11000E-01,0.076
8.12000E-01,0.072
8.13000E-01,0.070
8.14000E-01,0.070
8.15000E-01,0.070
8.16000E-01,0.070
8.17000E-01,0.072
8.18000E-01,0.068
8.19000E-01,0.066
8.20000E-01,0.066
8.21000E-01,0.066
8.22000E-01,0.060
8.23000E-01,0.062
8.24000E-01,0.064
8.25000E-01,0.064
8.26000E-01,0.062
8.27000E-01,0.054
8.28000E-01,0.060
8.29000E-01,0.058
8.30000E-01,0.056
8.31000E-01,0.060
8.32000E-01,0.058
8.33000E-01,0.056
8.34000E-01,0.056
8.35000E-01,0.058
8.36000E-01,0.058
8.37000E-01,0.054
8.38000E-01,0.054
8.39000E-01,0.054
8.40000E-01,0.056
8.41000E-01,0.056
8.42000E-01,0.052
8.43000E-01,0.054
8.44000E-01,0.052
8.45000E-01,0.054
8.46000E-01,0.052
8.47000E-01,0.040
8.48000E-01,0.050
8.49000E-01,0.052
8.50000E-01,0.048
8.51000E-01,0.050
8.52000E-01,0.050
8.53000E-01,0.050
8.54000E-01,0.050
8.55000E-01,0.048
8.56000E-01,0.048
8.57000E-01,0.050
8.58000E-01,0.044
8.59000E-01,0.048
8.60000E-01,0.048
8.61000E-01,0.044
8.62000E-01,0.046
8.63000E-01,0.046
8.64000E-01,0.044
8.65000E-01,0.044
8.66000E-01,0.044
8.67000E-01,0.046
8.68000E-01,0.046
8.69000E-01,0.044
8.70000E-01,0.044
8.71000E-01,0.040
8.72000E-01,0.038
8.73000E-01,0.040
8.74000E-01,0.042
8.75000E-01,0.040
8.76000E-01,0.040
8.77000E-01,0.040
8.78000E-01,0.050
8.79000E-01,0.042
8.80000E-01,0.040
8.81000E-01,0.038
8.82000E-01,0.040
8.83000E-01,0.036
8.84000E-01,0.038
8.85000E-01,0.036
8.86000E-01,0.034
8.87000E-01,0.036
8.88000E-01,0.036
8.89000E-01,0.034
8.90000E-01,0.034
8.91000E-01,0.034
8.92000E-01,0.036
8.93000E-01,0.034
8.94000E-01,0.034
8.95000E-01,0.034
8.96000E-01,0.034
8.97000E-01,0.032
8.98000E-01,0.032
8.99000E-01,0.030
9.00000E-01,0.030
9.01000E-01,0.030
9.02000E-01,0.030
9.03000E-01,0.032
9.04000E-01,0.030
9.05000E-01,0.028
9.06000E-01,0.026
9.07000E-01,0.028
9.08000E-01,0.028
9.09000E-01,0.030
9.10000E-01,0.026
9.11000E-01,0.024
9.12000E-01,0.030
9.13000E-01,0.024
9.14000E-01,0.026
9.15000E-01,0.026
9.16000E-01,0.026
9.17000E-01,0.028
9.18000E-01,0.026
9.19000E-01,0.026
9.20000E-01,0.022
9.21000E-01,0.022
9.22000E-01,0.022
9.23000E-01,0.022
9.24000E-01,0.024
9.25000E-01,0.024
9.26000E-01,0.022
9.27000E-01,0.020
9.28000E-01,0.022
9.29000E-01,0.022
9.30000E-01,0.020
9.31000E-01,0.018
9.32000E-01,0.018
9.33000E-01,0.020
9.34000E-01,0.020
9.35000E-01,0.020
9.36000E-01,0.018
9.37000E-01,0.020
9.38000E-01,0.016
9.39000E-01,0.020
9.40000E-01,0.018
9.41000E-01,0.016
9.42000E-01,0.016
9.43000E-01,0.018
9.44000E-01,0.018
9.45000E-01,0.014
9.46000E-01,0.018
9.47000E-01,0.016
9.48000E-01,0.014
9.49000E-01,0.016
9.50000E-01,0.014
9.51000E-01,0.016
9.52000E-01,0.014
9.53000E-01,0.016
9.54000E-01,0.012
9.55000E-01,0.014
9.56000E-01,0.012
9.57000E-01,0.012
9.58000E-01,0.014
9.59000E-01,0.012
9.60000E-01,0.006
9.61000E-01,0.010
9.62000E-01,0.010
9.63000E-01,0.010
9.64000E-01,0.008
9.65000E-01,0.010
9.66000E-01,0.006
9.67000E-01,0.008
9.68000E-01,0.010
9.69000E-01,0.010
9.70000E-01,0.008
9.71000E-01,0.006
9.72000E-01,0.006
9.73000E-01,0.008
9.74000E-01,0.006
9.75000E-01,0.006
9.76000E-01,0.006
9.77000E-01,0.004
9.78000E-01,0.004
9.79000E-01,0.008
9.80000E-01,0.008
9.81000E-01,0.004
9.82000E-01,0.002
9.83000E-01,0.004
9.84000E-01,0.006
9.85000E-01,0.004
9.86000E-01,0.000
9.87000E-01,0.004
9.88000E-01,0.002
9.89000E-01,0.004
9.90000E-01,0.006
9.91000E-01,0.002
9.92000E-01,0.002
9.93000E-01,-0.002
9.94000E-01,0.002
9.95000E-01,0.000
9.96000E-01,0.000
9.97000E-01,0.000
9.98000E-01,-0.002
9.99000E-01,0.000
1.00000E+00,-0.002
1.00100E+00,0.000
1.00200E+00,0.000
1.00300E+00,0.000
1.00400E+00,0.000
1.00500E+00,-0.002
1.00600E+00,0.000
1.00700E+00,0.000
1.00800E+00,-0.002
1.00900E+00,-0.002
1.01000E+00,-0.002
1.01100E+00,-0.002
1.01200E+00,-0.006
1.01300E+00,-0.004
1.01400E+00,0.000
1.01500E+00,-0.002
1.01600E+00,-0.006
1.01700E+00,-0.004
1.01800E+00,-0.004
1.01900E+00,-0.002
1.02000E+00,-0.004
1.02100E+00,-0.004
1.02200E+00,-0.004
1.02300E+00,-0.006
1.02400E+00,-0.004
1.02500E+00,-0.006
1.02600E+00,-0.002
1.02700E+00,-0.006
1.02800E+00,-0.006
1.02900E+00,-0.008
1.03000E+00,-0.002
1.03100E+00,-0.008
1.03200E+00,0.000
1.03300E+00,-0.008
1.03400E+00,-0.006
1.03500E+00,-0.006
1.03600E+00,-0.002
1.03700E+00,-0.006
1.03800E+00,-0.006
1.03900E+00,-0.010
1.04000E+00,-0.010
1.04100E+00,-0.006
1.04200E+00,-0.006
1.04300E+00,-0.008
1.04400E+00,-0.006
1.04500E+00,-0.008
1.04600E+00,-0.010
1.04700E+00,-0.012
1.04800E+00,-0.008
1.04900E+00,-0.008
1.05000E+00,-0.010
1.05100E+00,-0.008
1.05200E+00,-0.010
1.05300E+00,-0.010
1.05400E+00,-0.012
1.05500E+00,-0.008
1.05600E+00,-0.010
1.05700E+00,-0.008
1.05800E+00,-0.008
1.05900E+00,-0.010
1.06000E+00,-0.012
1.06100E+00,-0.012
1.06200E+00,-0.008
1.06300E+00,-0.012
1.06400E+00,-0.010
1.06500E+00,-0.014
1.06600E+00,-0.010
1.06700E+00,-0.008
1.06800E+00,-0.012
1.06900E+00,0.000
1.07000E+00,-0.010
1.07100E+00,-0.010
1.07200E+00,-0.012
1.07300E+00,-0.010
1.07400E+00,-0.012
1.07500E+00,-0.014
1.07600E+00,-0.012
1.07700E+00,-0.010
1.07800E+00,-0.010
1.07900E+00,-0.012
1.08000E+00,-0.010
1.08100E+00,-0.012
1.08200E+00,-0.012
1.08300E+00,-0.012
1.08400E+00,-0.012
1.08500E+00,-0.010
1.08600E+00,-0.010
1.08700E+00,-0.012
1.08800E+00,-0.012
1.08900E+00,-0.014
