notebooks/Oscilloscope data CRI electronics analogy/AWG 7V half sinc f 6-4 caps 1000 2-2/Channel 1 total voltage.csv

#timebase=-1474836480(ps)
,#voltbase=2000000(uV)
#size=4064
1.00000E-04,-0.720
2.00000E-04,-0.720
3.00000E-04,-0.640
4.00000E-04,-0.640
5.00000E-04,-0.720
6.00000E-04,-0.720
7.00000E-04,-0.560
8.00000E-04,-0.560
9.00000E-04,-0.480
1.00000E-03,-0.480
1.10000E-03,-0.400
1.20000E-03,-0.400
1.30000E-03,-0.560
1.40000E-03,-0.400
1.50000E-03,-0.400
1.60000E-03,-0.400
1.70000E-03,-0.320
1.80000E-03,-0.240
1.90000E-03,-0.320
2.00000E-03,-0.400
2.10000E-03,-0.160
2.20000E-03,-0.160
2.30000E-03,-0.240
2.40000E-03,-0.320
2.50000E-03,-0.160
2.60000E-03,-0.080
2.70000E-03,-0.160
2.80000E-03,-0.080
2.90000E-03,-0.080
3.00000E-03,-0.080
3.10000E-03,-0.080
3.20000E-03,-0.080
3.30000E-03,-0.080
3.40000E-03,-0.160
3.50000E-03,-0.080
3.60000E-03,-0.080
3.70000E-03,-0.080
3.80000E-03,-0.080
3.90000E-03,0.000
4.00000E-03,0.000
4.10000E-03,0.080
4.20000E-03,0.080
4.30000E-03,0.080
4.40000E-03,0.160
4.50000E-03,0.240
4.60000E-03,0.080
4.70000E-03,0.240
4.80000E-03,0.160
4.90000E-03,0.240
5.00000E-03,0.320
5.10000E-03,0.240
5.20000E-03,0.320
5.30000E-03,0.320
5.40000E-03,0.400
5.50000E-03,0.320
5.60000E-03,0.400
5.70000E-03,0.240
5.80000E-03,0.320
5.90000E-03,0.400
6.00000E-03,0.480
6.10000E-03,0.320
6.20000E-03,0.400
6.30000E-03,0.480
6.40000E-03,0.480
6.50000E-03,0.480
6.60000E-03,0.400
6.70000E-03,0.480
6.80000E-03,0.480
6.90000E-03,0.560
7.00000E-03,0.560
7.10000E-03,0.560
7.20000E-03,0.640
7.30000E-03,0.640
7.40000E-03,0.560
7.50000E-03,0.560
7.60000E-03,0.720
7.70000E-03,0.640
7.80000E-03,0.640
7.90000E-03,0.640
8.00000E-03,0.720
8.10000E-03,0.720
8.20000E-03,0.640
8.30000E-03,0.640
8.40000E-03,0.720
8.50000E-03,0.640
8.60000E-03,0.640
8.70000E-03,0.640
8.80000E-03,0.640
8.90000E-03,0.720
9.00000E-03,0.720
9.10000E-03,0.640
9.20000E-03,0.720
9.30000E-03,0.800
9.40000E-03,0.720
9.50000E-03,0.640
9.60000E-03,0.640
9.70000E-03,0.720
9.80000E-03,0.720
9.90000E-03,0.720
1.00000E-02,0.720
1.01000E-02,0.720
1.02000E-02,0.640
1.03000E-02,0.640
1.04000E-02,0.640
1.05000E-02,0.640
1.06000E-02,0.720
1.07000E-02,0.720
1.08000E-02,0.720
1.09000E-02,0.640
1.10000E-02,0.640
1.11000E-02,0.720
1.12000E-02,0.720
1.13000E-02,0.640
1.14000E-02,0.720
1.15000E-02,0.720
1.16000E-02,0.640
1.17000E-02,0.640
1.18000E-02,0.640
1.19000E-02,0.720
1.20000E-02,0.640
1.21000E-02,0.640
1.22000E-02,0.640
1.23000E-02,0.640
1.24000E-02,0.720
1.25000E-02,0.720
1.26000E-02,0.640
1.27000E-02,0.720
1.28000E-02,0.720
1.29000E-02,0.560
1.30000E-02,0.640
1.31000E-02,0.480
1.32000E-02,0.560
1.33000E-02,0.480
1.34000E-02,0.560
1.35000E-02,0.640
1.36000E-02,0.480
1.37000E-02,0.400
1.38000E-02,0.480
1.39000E-02,0.480
1.40000E-02,0.480
1.41000E-02,0.480
1.42000E-02,0.400
1.43000E-02,0.480
1.44000E-02,0.480
1.45000E-02,0.400
1.46000E-02,0.320
1.47000E-02,0.240
1.48000E-02,0.320
1.49000E-02,0.320
1.50000E-02,0.320
1.51000E-02,0.320
1.52000E-02,0.400
1.53000E-02,0.320
1.54000E-02,0.240
1.55000E-02,0.320
1.56000E-02,0.400
1.57000E-02,0.240
1.58000E-02,0.160
1.59000E-02,0.160
1.60000E-02,0.160
1.61000E-02,0.240
1.62000E-02,0.160
1.63000E-02,0.160
1.64000E-02,0.320
1.65000E-02,0.080
1.66000E-02,0.000
1.67000E-02,0.080
1.68000E-02,0.080
1.69000E-02,0.080
1.70000E-02,0.080
1.71000E-02,0.080
1.72000E-02,0.000
1.73000E-02,0.000
1.74000E-02,0.080
1.75000E-02,0.000
1.76000E-02,0.080
1.77000E-02,0.080
1.78000E-02,-0.080
1.79000E-02,0.080
1.80000E-02,0.000
1.81000E-02,-0.160
1.82000E-02,0.000
1.83000E-02,0.000
1.84000E-02,-0.080
1.85000E-02,-0.080
1.86000E-02,-0.080
1.87000E-02,-0.160
1.88000E-02,-0.160
1.89000E-02,-0.080
1.90000E-02,-0.160
1.91000E-02,-0.240
1.92000E-02,-0.160
1.93000E-02,-0.160
1.94000E-02,-0.240
1.95000E-02,-0.160
1.96000E-02,-0.240
1.97000E-02,-0.240
1.98000E-02,-0.400
1.99000E-02,-0.320
2.00000E-02,-0.160
2.01000E-02,-0.320
2.02000E-02,-0.320
2.03000E-02,-0.400
2.04000E-02,-0.400
2.05000E-02,-0.400
2.06000E-02,-0.320
2.07000E-02,-0.400
2.08000E-02,-0.400
2.09000E-02,-0.320
2.10000E-02,-0.400
2.11000E-02,-0.480
2.12000E-02,-0.480
2.13000E-02,-0.400
2.14000E-02,-0.480
2.15000E-02,-0.480
2.16000E-02,-0.480
2.17000E-02,-0.480
2.18000E-02,-0.560
2.19000E-02,-0.480
2.20000E-02,-0.560
2.21000E-02,-0.560
2.22000E-02,-0.640
2.23000E-02,-0.560
2.24000E-02,-0.640
2.25000E-02,-0.560
2.26000E-02,-0.560
2.27000E-02,-0.640
2.28000E-02,-0.560
2.29000E-02,-0.640
2.30000E-02,-0.720
2.31000E-02,-0.640
2.32000E-02,-0.640
2.33000E-02,-0.560
2.34000E-02,-0.640
2.35000E-02,-0.640
2.36000E-02,-0.640
2.37000E-02,-0.640
2.38000E-02,-0.640
2.39000E-02,-0.720
2.40000E-02,-0.720
2.41000E-02,-0.640
2.42000E-02,-0.720
2.43000E-02,-0.640
2.44000E-02,-0.720
2.45000E-02,-0.800
2.46000E-02,-0.640
2.47000E-02,-0.720
2.48000E-02,-0.720
2.49000E-02,-0.640
2.50000E-02,-0.720
2.51000E-02,-0.800
2.52000E-02,-0.800
2.53000E-02,-0.720
2.54000E-02,-0.720
2.55000E-02,-0.720
2.56000E-02,-0.800
2.57000E-02,-0.800
2.58000E-02,-0.720
2.59000E-02,-0.720
2.60000E-02,-0.640
2.61000E-02,-0.720
2.62000E-02,-0.720
2.63000E-02,-0.640
2.64000E-02,-0.720
2.65000E-02,-0.800
2.66000E-02,-0.720
2.67000E-02,-0.880
2.68000E-02,-0.800
2.69000E-02,-0.720
2.70000E-02,-0.800
2.71000E-02,-0.720
2.72000E-02,-0.800
2.73000E-02,-0.720
2.74000E-02,-0.640
2.75000E-02,-0.640
2.76000E-02,-0.640
2.77000E-02,-0.640
2.78000E-02,-0.640
2.79000E-02,-0.560
2.80000E-02,-0.720
2.81000E-02,-0.720
2.82000E-02,-0.640
2.83000E-02,-0.640
2.84000E-02,-0.640
2.85000E-02,-0.640
2.86000E-02,-0.640
2.87000E-02,-0.720
2.88000E-02,-0.720
2.89000E-02,-0.560
2.90000E-02,-0.640
2.91000E-02,-0.560
2.92000E-02,-0.640
2.93000E-02,-0.560
2.94000E-02,-0.560
2.95000E-02,-0.640
2.96000E-02,-0.560
2.97000E-02,-0.560
2.98000E-02,-0.480
2.99000E-02,-0.400
3.00000E-02,-0.560
3.01000E-02,-0.560
3.02000E-02,-0.480
3.03000E-02,-0.480
3.04000E-02,-0.400
3.05000E-02,-0.480
3.06000E-02,-0.480
3.07000E-02,-0.560
3.08000E-02,-0.560
3.09000E-02,-0.480
3.10000E-02,-0.400
3.11000E-02,-0.320
3.12000E-02,-0.400
3.13000E-02,-0.480
3.14000E-02,-0.320
3.15000E-02,-0.400
3.16000E-02,-0.400
3.17000E-02,-0.400
3.18000E-02,-0.320
3.19000E-02,-0.240
3.20000E-02,-0.320
3.21000E-02,-0.320
3.22000E-02,-0.400
3.23000E-02,-0.320
3.24000E-02,-0.160
3.25000E-02,-0.320
3.26000E-02,-0.400
3.27000E-02,-0.240
3.28000E-02,-0.320
3.29000E-02,-0.320
3.30000E-02,-0.160
3.31000E-02,-0.240
3.32000E-02,-0.160
3.33000E-02,-0.320
3.34000E-02,-0.160
3.35000E-02,-0.080
3.36000E-02,-0.160
3.37000E-02,-0.080
3.38000E-02,-0.080
3.39000E-02,-0.160
3.40000E-02,-0.080
3.41000E-02,0.000
3.42000E-02,0.000
3.43000E-02,-0.080
3.44000E-02,-0.080
3.45000E-02,-0.080
3.46000E-02,0.000
3.47000E-02,-0.080
3.48000E-02,0.000
3.49000E-02,0.000
3.50000E-02,0.080
3.51000E-02,0.000
3.52000E-02,0.000
3.53000E-02,-0.080
3.54000E-02,-0.080
3.55000E-02,0.080
3.56000E-02,0.000
3.57000E-02,0.000
3.58000E-02,0.000
3.59000E-02,0.080
3.60000E-02,0.000
3.61000E-02,0.000
3.62000E-02,0.080
3.63000E-02,0.000
3.64000E-02,0.080
3.65000E-02,0.080
3.66000E-02,0.080
3.67000E-02,0.080
3.68000E-02,0.080
3.69000E-02,0.000
3.70000E-02,0.080
3.71000E-02,0.080
3.72000E-02,0.160
3.73000E-02,0.160
3.74000E-02,0.160
3.75000E-02,0.160
3.76000E-02,0.240
3.77000E-02,0.160
3.78000E-02,0.160
3.79000E-02,0.160
3.80000E-02,0.240
3.81000E-02,0.240
3.82000E-02,0.320
3.83000E-02,0.240
3.84000E-02,0.160
3.85000E-02,0.240
3.86000E-02,0.320
3.87000E-02,0.240
3.88000E-02,0.160
3.89000E-02,0.240
3.90000E-02,0.240
3.91000E-02,0.240
3.92000E-02,0.160
3.93000E-02,0.320
3.94000E-02,0.240
3.95000E-02,0.320
3.96000E-02,0.240
3.97000E-02,0.240
3.98000E-02,0.320
3.99000E-02,0.320
4.00000E-02,0.400
4.01000E-02,0.240
4.02000E-02,0.320
4.03000E-02,0.320
4.04000E-02,0.400
4.05000E-02,0.320
4.06000E-02,0.240
4.07000E-02,0.240
4.08000E-02,0.320
4.09000E-02,0.320
4.10000E-02,0.400
4.11000E-02,0.320
4.12000E-02,0.240
4.13000E-02,0.240
4.14000E-02,0.320
4.15000E-02,0.400
4.16000E-02,0.240
4.17000E-02,0.240
4.18000E-02,0.320
4.19000E-02,0.400
4.20000E-02,0.240
4.21000E-02,0.240
4.22000E-02,0.320
4.23000E-02,0.240
4.24000E-02,0.240
4.25000E-02,0.320
4.26000E-02,0.240
4.27000E-02,0.320
4.28000E-02,0.400
4.29000E-02,0.400
4.30000E-02,0.400
4.31000E-02,0.400
4.32000E-02,0.400
4.33000E-02,0.400
4.34000E-02,0.240
4.35000E-02,0.320
4.36000E-02,0.400
4.37000E-02,0.320
4.38000E-02,0.320
4.39000E-02,0.160
4.40000E-02,0.320
4.41000E-02,0.400
4.42000E-02,0.240
4.43000E-02,0.240
4.44000E-02,0.320
4.45000E-02,0.320
4.46000E-02,0.240
4.47000E-02,0.320
4.48000E-02,0.160
4.49000E-02,0.160
4.50000E-02,0.240
4.51000E-02,0.240
4.52000E-02,0.160
4.53000E-02,0.240
4.54000E-02,0.080
4.55000E-02,0.160
4.56000E-02,0.160
4.57000E-02,0.080
4.58000E-02,0.160
4.59000E-02,0.160
4.60000E-02,0.160
4.61000E-02,0.080
4.62000E-02,0.160
4.63000E-02,0.080
4.64000E-02,0.160
4.65000E-02,0.000
4.66000E-02,0.000
4.67000E-02,0.080
4.68000E-02,0.080
4.69000E-02,0.160
4.70000E-02,0.080
4.71000E-02,0.080
4.72000E-02,0.000
4.73000E-02,0.000
4.74000E-02,0.000
4.75000E-02,0.000
4.76000E-02,0.000
4.77000E-02,0.080
4.78000E-02,0.000
4.79000E-02,0.080
4.80000E-02,0.080
4.81000E-02,0.000
4.82000E-02,0.080
4.83000E-02,0.080
4.84000E-02,0.000
4.85000E-02,0.000
4.86000E-02,0.000
4.87000E-02,0.000
4.88000E-02,0.000
4.89000E-02,-0.080
4.90000E-02,-0.080
4.91000E-02,0.000
4.92000E-02,-0.080
4.93000E-02,-0.080
4.94000E-02,-0.080
4.95000E-02,-0.080
4.96000E-02,-0.080
4.97000E-02,-0.160
4.98000E-02,-0.080
4.99000E-02,-0.080
5.00000E-02,-0.080
5.01000E-02,-0.080
5.02000E-02,-0.160
5.03000E-02,-0.080
5.04000E-02,-0.080
5.05000E-02,-0.080
5.06000E-02,-0.160
5.07000E-02,-0.160
5.08000E-02,-0.160
5.09000E-02,-0.160
5.10000E-02,-0.160
5.11000E-02,-0.240
5.12000E-02,-0.240
5.13000E-02,-0.240
5.14000E-02,-0.320
5.15000E-02,-0.240
5.16000E-02,-0.240
5.17000E-02,-0.320
5.18000E-02,-0.400
5.19000E-02,-0.320
5.20000E-02,-0.240
5.21000E-02,-0.320
5.22000E-02,-0.400
5.23000E-02,-0.320
5.24000E-02,-0.240
5.25000E-02,-0.320
5.26000E-02,-0.400
5.27000E-02,-0.400
5.28000E-02,-0.240
5.29000E-02,-0.320
5.30000E-02,-0.320
5.31000E-02,-0.320
5.32000E-02,-0.320
5.33000E-02,-0.400
5.34000E-02,-0.400
5.35000E-02,-0.320
5.36000E-02,-0.320
5.37000E-02,-0.400
5.38000E-02,-0.400
5.39000E-02,-0.400
5.40000E-02,-0.480
5.41000E-02,-0.480
5.42000E-02,-0.400
5.43000E-02,-0.400
5.44000E-02,-0.320
5.45000E-02,-0.400
5.46000E-02,-0.400
5.47000E-02,-0.400
5.48000E-02,-0.320
5.49000E-02,-0.400
5.50000E-02,-0.480
5.51000E-02,-0.400
5.52000E-02,-0.400
5.53000E-02,-0.480
5.54000E-02,-0.480
5.55000E-02,-0.560
5.56000E-02,-0.560
5.57000E-02,-0.480
5.58000E-02,-0.560
5.59000E-02,-0.480
5.60000E-02,-0.480
5.61000E-02,-0.480
5.62000E-02,-0.400
5.63000E-02,-0.480
5.64000E-02,-0.480
5.65000E-02,-0.480
5.66000E-02,-0.400
5.67000E-02,-0.480
5.68000E-02,-0.560
5.69000E-02,-0.560
5.70000E-02,-0.480
5.71000E-02,-0.480
5.72000E-02,-0.480
5.73000E-02,-0.400
5.74000E-02,-0.480
5.75000E-02,-0.560
5.76000E-02,-0.480
5.77000E-02,-0.480
5.78000E-02,-0.400
5.79000E-02,-0.480
5.80000E-02,-0.480
5.81000E-02,-0.480
5.82000E-02,-0.320
5.83000E-02,-0.480
5.84000E-02,-0.560
5.85000E-02,-0.560
5.86000E-02,-0.480
5.87000E-02,-0.560
5.88000E-02,-0.400
5.89000E-02,-0.560
5.90000E-02,-0.480
5.91000E-02,-0.480
5.92000E-02,-0.480
5.93000E-02,-0.400
5.94000E-02,-0.400
5.95000E-02,-0.400
5.96000E-02,-0.480
5.97000E-02,-0.400
5.98000E-02,-0.480
5.99000E-02,-0.320
6.00000E-02,-0.400
6.01000E-02,-0.400
6.02000E-02,-0.480
6.03000E-02,-0.480
6.04000E-02,-0.400
6.05000E-02,-0.400
6.06000E-02,-0.400
6.07000E-02,-0.480
6.08000E-02,-0.320
6.09000E-02,-0.320
6.10000E-02,-0.400
6.11000E-02,-0.480
6.12000E-02,-0.320
6.13000E-02,-0.320
6.14000E-02,-0.480
6.15000E-02,-0.320
6.16000E-02,-0.400
6.17000E-02,-0.240
6.18000E-02,-0.320
6.19000E-02,-0.400
6.20000E-02,-0.320
6.21000E-02,-0.240
6.22000E-02,-0.320
6.23000E-02,-0.400
6.24000E-02,-0.320
6.25000E-02,-0.320
6.26000E-02,-0.400
6.27000E-02,-0.320
6.28000E-02,-0.240
6.29000E-02,-0.320
6.30000E-02,-0.320
6.31000E-02,-0.240
6.32000E-02,-0.240
6.33000E-02,-0.240
6.34000E-02,-0.240
6.35000E-02,-0.320
6.36000E-02,-0.240
6.37000E-02,-0.240
6.38000E-02,-0.320
6.39000E-02,-0.160
6.40000E-02,-0.240
6.41000E-02,-0.240
6.42000E-02,-0.320
6.43000E-02,-0.160
6.44000E-02,-0.080
6.45000E-02,-0.160
6.46000E-02,-0.160
6.47000E-02,-0.160
6.48000E-02,-0.160
6.49000E-02,-0.160
6.50000E-02,-0.160
6.51000E-02,-0.080
6.52000E-02,-0.080
6.53000E-02,-0.080
6.54000E-02,-0.160
6.55000E-02,-0.080
6.56000E-02,0.000
6.57000E-02,-0.080
6.58000E-02,0.000
6.59000E-02,0.000
6.60000E-02,-0.080
6.61000E-02,-0.160
6.62000E-02,-0.160
6.63000E-02,-0.160
6.64000E-02,0.000
6.65000E-02,-0.080
6.66000E-02,-0.080
6.67000E-02,0.000
6.68000E-02,0.000
6.69000E-02,0.080
6.70000E-02,0.000
6.71000E-02,0.000
6.72000E-02,0.000
6.73000E-02,0.000
6.74000E-02,0.080
6.75000E-02,0.000
6.76000E-02,-0.080
6.77000E-02,0.080
6.78000E-02,0.000
6.79000E-02,0.000
6.80000E-02,0.000
6.81000E-02,0.000
6.82000E-02,0.080
6.83000E-02,0.000
6.84000E-02,0.080
6.85000E-02,0.080
6.86000E-02,0.080
6.87000E-02,0.080
6.88000E-02,0.000
6.89000E-02,0.080
6.90000E-02,0.080
6.91000E-02,0.080
6.92000E-02,0.080
6.93000E-02,0.000
6.94000E-02,0.000
6.95000E-02,0.080
6.96000E-02,0.080
6.97000E-02,0.080
6.98000E-02,0.080
6.99000E-02,0.000
7.00000E-02,0.080
7.01000E-02,0.160
7.02000E-02,0.160
7.03000E-02,0.240
7.04000E-02,0.240
7.05000E-02,0.080
7.06000E-02,0.080
7.07000E-02,0.080
7.08000E-02,0.240
7.09000E-02,0.080
7.10000E-02,0.080
7.11000E-02,0.160
7.12000E-02,0.160
7.13000E-02,0.160
7.14000E-02,0.160
7.15000E-02,0.160
7.16000E-02,0.080
7.17000E-02,0.160
7.18000E-02,0.080
7.19000E-02,0.160
7.20000E-02,0.240
7.21000E-02,0.240
7.22000E-02,0.080
7.23000E-02,0.160
7.24000E-02,0.160
7.25000E-02,0.160
7.26000E-02,0.160
7.27000E-02,0.080
7.28000E-02,0.080
7.29000E-02,0.160
7.30000E-02,0.080
7.31000E-02,0.160
7.32000E-02,0.160
7.33000E-02,0.160
7.34000E-02,0.160
7.35000E-02,0.160
7.36000E-02,0.160
7.37000E-02,0.160
7.38000E-02,0.160
7.39000E-02,0.160
7.40000E-02,0.240
7.41000E-02,0.240
7.42000E-02,0.080
7.43000E-02,0.080
7.44000E-02,0.160
7.45000E-02,0.080
7.46000E-02,0.160
7.47000E-02,0.240
7.48000E-02,0.240
7.49000E-02,0.320
7.50000E-02,0.080
7.51000E-02,0.160
7.52000E-02,0.160
7.53000E-02,0.080
7.54000E-02,0.160
7.55000E-02,0.080
7.56000E-02,0.160
7.57000E-02,0.080
7.58000E-02,0.080
7.59000E-02,0.160
7.60000E-02,0.080
7.61000E-02,0.080
7.62000E-02,0.160
7.63000E-02,0.160
7.64000E-02,0.160
7.65000E-02,0.000
7.66000E-02,0.000
7.67000E-02,0.080
7.68000E-02,0.000
7.69000E-02,0.000
7.70000E-02,0.080
7.71000E-02,0.080
7.72000E-02,0.080
7.73000E-02,0.000
7.74000E-02,0.080
7.75000E-02,0.160
7.76000E-02,0.160
7.77000E-02,0.000
7.78000E-02,0.080
7.79000E-02,0.000
7.80000E-02,0.000
7.81000E-02,0.000
7.82000E-02,0.000
7.83000E-02,0.000
7.84000E-02,0.000
7.85000E-02,0.000
7.86000E-02,0.000
7.87000E-02,0.000
7.88000E-02,0.000
7.89000E-02,0.000
7.90000E-02,0.000
7.91000E-02,0.000
7.92000E-02,0.000
7.93000E-02,-0.080
7.94000E-02,-0.080
7.95000E-02,0.000
7.96000E-02,0.000
7.97000E-02,-0.080
7.98000E-02,-0.080
7.99000E-02,0.000
8.00000E-02,-0.080
8.01000E-02,-0.080
8.02000E-02,-0.080
8.03000E-02,-0.080
8.04000E-02,-0.080
8.05000E-02,-0.080
8.06000E-02,-0.080
8.07000E-02,0.000
8.08000E-02,0.000
8.09000E-02,-0.080
8.10000E-02,-0.080
8.11000E-02,-0.080
8.12000E-02,-0.080
8.13000E-02,-0.080
8.14000E-02,-0.080
8.15000E-02,-0.160
8.16000E-02,-0.160
8.17000E-02,-0.080
8.18000E-02,-0.080
8.19000E-02,-0.160
8.20000E-02,-0.240
8.21000E-02,-0.080
8.22000E-02,-0.160
8.23000E-02,-0.160
8.24000E-02,-0.240
8.25000E-02,-0.080
8.26000E-02,-0.160
8.27000E-02,-0.240
8.28000E-02,-0.320
8.29000E-02,-0.240
8.30000E-02,-0.320
8.31000E-02,-0.320
8.32000E-02,-0.320
8.33000E-02,-0.160
8.34000E-02,-0.160
8.35000E-02,-0.240
8.36000E-02,-0.240
8.37000E-02,-0.240
8.38000E-02,-0.320
8.39000E-02,-0.240
8.40000E-02,-0.320
8.41000E-02,-0.320
8.42000E-02,-0.400
8.43000E-02,-0.320
8.44000E-02,-0.400
8.45000E-02,-0.240
8.46000E-02,-0.320
8.47000E-02,-0.320
8.48000E-02,-0.320
8.49000E-02,-0.400
8.50000E-02,-0.320
8.51000E-02,-0.400
8.52000E-02,-0.400
8.53000E-02,-0.400
8.54000E-02,-0.240
8.55000E-02,-0.320
8.56000E-02,-0.320
8.57000E-02,-0.320
8.58000E-02,-0.400
8.59000E-02,-0.400
8.60000E-02,-0.320
8.61000E-02,-0.240
8.62000E-02,-0.320
8.63000E-02,-0.240
8.64000E-02,-0.320
8.65000E-02,-0.400
8.66000E-02,-0.400
8.67000E-02,-0.240
8.68000E-02,-0.240
8.69000E-02,-0.320
8.70000E-02,-0.400
8.71000E-02,-0.240
8.72000E-02,-0.320
8.73000E-02,-0.480
8.74000E-02,-0.320
8.75000E-02,-0.400
8.76000E-02,-0.320
8.77000E-02,-0.400
8.78000E-02,-0.320
8.79000E-02,-0.320
8.80000E-02,-0.400
8.81000E-02,-0.320
8.82000E-02,-0.400
8.83000E-02,-0.320
8.84000E-02,-0.400
8.85000E-02,-0.400
8.86000E-02,-0.400
8.87000E-02,-0.400
8.88000E-02,-0.400
8.89000E-02,-0.240
8.90000E-02,-0.400
8.91000E-02,-0.400
8.92000E-02,-0.400
8.93000E-02,-0.320
8.94000E-02,-0.400
8.95000E-02,-0.400
8.96000E-02,-0.400
8.97000E-02,-0.400
8.98000E-02,-0.240
8.99000E-02,-0.240
9.00000E-02,-0.320
9.01000E-02,-0.400
9.02000E-02,-0.240
9.03000E-02,-0.320
9.04000E-02,-0.400
9.05000E-02,-0.400
9.06000E-02,-0.240
9.07000E-02,-0.240
9.08000E-02,-0.320
9.09000E-02,-0.240
9.10000E-02,-0.240
9.11000E-02,-0.320
9.12000E-02,-0.400
9.13000E-02,-0.400
9.14000E-02,-0.240
9.15000E-02,-0.240
9.16000E-02,-0.320
9.17000E-02,-0.320
9.18000E-02,-0.400
9.19000E-02,-0.320
9.20000E-02,-0.320
9.21000E-02,-0.320
9.22000E-02,-0.320
9.23000E-02,-0.400
9.24000E-02,-0.320
9.25000E-02,-0.320
9.26000E-02,-0.320
9.27000E-02,-0.320
9.28000E-02,-0.240
9.29000E-02,-0.400
9.30000E-02,-0.320
9.31000E-02,-0.240
9.32000E-02,-0.320
9.33000E-02,-0.320
9.34000E-02,-0.240
9.35000E-02,-0.320
9.36000E-02,-0.320
9.37000E-02,-0.240
9.38000E-02,-0.160
9.39000E-02,-0.160
9.40000E-02,-0.240
9.41000E-02,-0.160
9.42000E-02,-0.160
9.43000E-02,-0.240
9.44000E-02,-0.240
9.45000E-02,-0.240
9.46000E-02,-0.160
9.47000E-02,-0.240
9.48000E-02,-0.160
9.49000E-02,-0.160
9.50000E-02,-0.160
9.51000E-02,-0.160
9.52000E-02,-0.080
9.53000E-02,-0.160
9.54000E-02,-0.160
9.55000E-02,-0.160
9.56000E-02,-0.160
9.57000E-02,-0.160
9.58000E-02,-0.160
9.59000E-02,-0.080
9.60000E-02,-0.160
9.61000E-02,-0.080
9.62000E-02,-0.160
9.63000E-02,-0.080
9.64000E-02,-0.080
9.65000E-02,0.000
9.66000E-02,0.000
9.67000E-02,-0.080
9.68000E-02,0.000
9.69000E-02,-0.080
9.70000E-02,-0.080
9.71000E-02,-0.080
9.72000E-02,0.000
9.73000E-02,-0.080
9.74000E-02,0.000
9.75000E-02,-0.080
9.76000E-02,-0.080
9.77000E-02,-0.080
9.78000E-02,-0.080
9.79000E-02,-0.080
9.80000E-02,-0.080
9.81000E-02,-0.080
9.82000E-02,0.000
9.83000E-02,0.000
9.84000E-02,0.000
9.85000E-02,0.080
9.86000E-02,-0.080
9.87000E-02,-0.080
9.88000E-02,0.080
9.89000E-02,0.080
9.90000E-02,0.000
9.91000E-02,0.080
9.92000E-02,0.000
9.93000E-02,0.000
9.94000E-02,0.000
9.95000E-02,0.080
9.96000E-02,0.000
9.97000E-02,0.000
9.98000E-02,0.000
9.99000E-02,0.000
1.00000E-01,0.160
1.00100E-01,-0.080
1.00200E-01,0.080
1.00300E-01,0.080
1.00400E-01,0.080
1.00500E-01,0.080
1.00600E-01,0.000
1.00700E-01,-0.080
1.00800E-01,-0.080
1.00900E-01,0.160
1.01000E-01,-0.080
1.01100E-01,-0.080
1.01200E-01,0.160
1.01300E-01,0.000
1.01400E-01,0.080
1.01500E-01,0.000
1.01600E-01,0.080
1.01700E-01,0.080
1.01800E-01,0.000
1.01900E-01,0.080
1.02000E-01,0.080
1.02100E-01,0.080
1.02200E-01,0.080
1.02300E-01,0.080
1.02400E-01,0.080
1.02500E-01,0.080
1.02600E-01,0.000
1.02700E-01,0.080
1.02800E-01,0.080
1.02900E-01,0.080
1.03000E-01,0.080
1.03100E-01,0.080
1.03200E-01,0.080
1.03300E-01,0.080
1.03400E-01,0.000
1.03500E-01,0.080
1.03600E-01,0.000
1.03700E-01,0.000
1.03800E-01,0.080
1.03900E-01,0.000
1.04000E-01,0.080
1.04100E-01,0.080
1.04200E-01,0.080
1.04300E-01,0.000
1.04400E-01,0.080
1.04500E-01,0.080
1.04600E-01,0.080
1.04700E-01,0.000
1.04800E-01,0.080
1.04900E-01,0.000
1.05000E-01,0.080
1.05100E-01,0.000
1.05200E-01,0.080
1.05300E-01,0.080
1.05400E-01,0.080
1.05500E-01,0.160
1.05600E-01,0.000
1.05700E-01,0.000
1.05800E-01,0.080
1.05900E-01,0.160
1.06000E-01,0.080
1.06100E-01,0.000
1.06200E-01,0.080
1.06300E-01,0.160
1.06400E-01,0.000
1.06500E-01,0.080
1.06600E-01,0.080
1.06700E-01,0.080
1.06800E-01,0.000
1.06900E-01,0.080
1.07000E-01,0.160
1.07100E-01,0.160
1.07200E-01,0.160
1.07300E-01,-0.080
1.07400E-01,0.160
1.07500E-01,-0.080
1.07600E-01,0.080
